{
  "_ck": {},
  "data": {
    "detail_source": "头条号",
    "media_user": {
      "screen_name": "头条号",
      "no_display_pgc_icon": false,
      "avatar_url": "https://p3.pstatp.com/thumb/6eed0002a5c291326129",
      "id": "3615620762"
    },
    "publish_time": 1506247047,
    "hotwords": [
      {
        "stress_type": 0,
        "hot_word": "让座后猛踹身边男孩"
      },
      {
        "stress_type": 1,
        "hot_word": "朱军正式起诉"
      },
      {
        "stress_type": 0,
        "hot_word": "陈意涵 这就是灌篮"
      },
      {
        "stress_type": 0,
        "hot_word": "廖凡式钟馗"
      },
      {
        "stress_type": 0,
        "hot_word": "名下多了500万"
      },
      {
        "stress_type": 2,
        "hot_word": "王思聪 chuan"
      },
      {
        "stress_type": 2,
        "hot_word": "许凯回应机场臭脸"
      },
      {
        "stress_type": 2,
        "hot_word": "我和你妈掉水里"
      }
    ],
    "title": "头条号自律组织成立",
    "url": "http://toutiao.com/group/6469281808205742605/",
    "impression_count": "92536",
    "is_original": false,
    "is_pgc_article": true,
    "content": "\u003cdiv\u003e\u003cp\u003e为维护头条号平台良性的创作环境，营造健康有序的网络空间，鼓励更多有价值的信息产生，头条号平台于今日成立头条号自律组织。\u003c/p\u003e\u003cp\u003e今后，自律组织成员有权在阅读和观看头条号作者发布的图文、视频内容时，对涉嫌低俗、违背相关现行政策与法律法规、违反宪法确定的基本原则的内容及时截图举报（\u003ca href\u003d\"https://mp.toutiao.com/profile_introduction/infringement/complain\"\u003e举报地址\u003c/a\u003e），平台将优先处理。\u003c/p\u003e\u003cp\u003e自律组织成员将在符合条件的主动报名（\u003ca href\u003d\"http://cn.mikecrm.com/crwnaNA\"\u003e报名地址\u003c/a\u003e）者中产生，报名者需满足以下条件：\u003c/p\u003e\u003cblockquote\u003e\u003cul class\u003d\" list-paddingleft-2\"\u003e\u003cli\u003e\u003cp\u003e年满18周岁；\u003c/p\u003e\u003c/li\u003e\u003cli\u003e\u003cp\u003e已注册头条号；\u003c/p\u003e\u003c/li\u003e\u003cli\u003e\u003cp\u003e注册时间大于180天；\u003c/p\u003e\u003c/li\u003e\u003cli\u003e\u003cp\u003e近30天内发布内容在10篇以上；\u003c/p\u003e\u003c/li\u003e\u003cli\u003e\u003cp\u003e头条号帐号无违规记录。\u003c/p\u003e\u003c/li\u003e\u003c/ul\u003e\u003c/blockquote\u003e\u003cp\u003e头条号平台一直致力于建立良好的传播秩序，促进优秀内容创作、传播，提升信息传播效率，造福社会。我们在业内最早建立了帐号注册、使用、管理、奖惩规则，制定了\u003ca href\u003d\"https://mp.toutiao.com/profile_introduction/opsspecs\"\u003e《头条号平台运营规范》\u003c/a\u003e，定期对外公布头条号处罚名单。结合本次自律组织成立，平台再次要求全体头条号创作者应自觉遵守相关法律法规，抵制和打击“自媒体八大乱象”，坚持创作滋养人心的优秀内容，共建一个风清气正的网络空间。\u003c/p\u003e\u003cp\u003e关于自律组织详细信息，可查看：\u003ca href\u003d\"https://mp.toutiao.com/profile_introduction/discipline-convention/about\"\u003e头条号自律组织公约\u003c/a\u003e\u003c/p\u003e\u003c/div\u003e",
    "source": "头条号",
    "comment_count": 170,
    "creator_uid": 3615613886
  },
  "success": true
}