{
  "_ck": {},
  "data": {
    "detail_source": "壹圆文化",
    "media_user": {
      "screen_name": "壹圆文化",
      "no_display_pgc_icon": false,
      "avatar_url": "https://p3.pstatp.com/thumb/ff4c0000329fa7e5df8e",
      "id": "1617719604580359",
      "user_auth_info": {
        "auth_type": "0",
        "other_auth": {
          "interest": "优质文化领域创作者"
        },
        "auth_info": "建筑公司总经理 优质文化领域创作者"
      }
    },
    "publish_time": 1543224347,
    "hotwords": [
      {
        "stress_type": 0,
        "hot_word": "录明星整容视频勒索"
      },
      {
        "stress_type": 1,
        "hot_word": "宁静再演孝庄"
      },
      {
        "stress_type": 0,
        "hot_word": "日常佩戴13公斤黄金"
      },
      {
        "stress_type": 0,
        "hot_word": "中国化工集团被约谈"
      },
      {
        "stress_type": 0,
        "hot_word": "医生用筷子紧急救人"
      },
      {
        "stress_type": 1,
        "hot_word": "黄渤回应女版黄渤"
      },
      {
        "stress_type": 1,
        "hot_word": "贾跃亭股份被冻结"
      },
      {
        "stress_type": 1,
        "hot_word": "买老鼠夹送香肠"
      }
    ],
    "title": "接上，有了天人合一的观念，才能知道易经的千变万化，用阳宅举例",
    "url": "http://toutiao.com/group/6628098103499031054/",
    "high_quality_flag": "0",
    "impression_count": "1522",
    "is_original": false,
    "is_pgc_article": true,
    "content": "\u003cdiv\u003e\u003cp\u003e接上篇讲，看我的东西必须前后看，否则断章取义，你不明白，我也难受。我也不是照抄别人的著作，都是我学习易经实践理解的心得，对你有用，你点赞，说的不好，你就哈哈一笑。人无完人，用我自己的知识体系去理解肯定会有偏颇。易经吵了几千年也没定论。\u003c/p\u003e\u003cp\u003e前文初步为大家树立了天人合一的观念，但还得先讲讲天道好生，地道好杀的朴素观念来源。为什么天道就好生，上天有好生之德呢，地道为什么就好杀呢。以后再讲孔子的道，老子的道，现在说的仅仅是天人合一的天道和地道。\u003c/p\u003e\u003cp\u003e古人的观察天地是天圆地方的，你千万不要告诉我那时人知道地球是圆的，“地心说”是八百年后事，“日心说”是两千年后的事，如果我们先人那时就知道地球是圆的话，估计我们中国人现在的智慧已经到达银河系了。\u003c/p\u003e\u003cp\u003e当时人们每天都可以看到一个太阳升起来从西边落下，第二天又从东方生出一个来，就以为天上有个地方专门生这个东西，所以感到上天有好生之德，实际上万物生长也是靠太阳。落叶归根、人死入土为安，阴曹地府在地下，所以对人来说，地道好杀。地又能生万物来养人。\u003c/p\u003e\u003cp\u003e不多说了，反正了解什么思想观念必须放到当时的时代背景来看，两千后的人看我们现在的情形和我们现在看两千年前差不多。接着讲阳宅的事，下面借用一个香港风水师的八宅图来举例说明：\u003c/p\u003e\u003cdiv class\u003d\"pgc-img\"\u003e\u003cimg src\u003d\"https://p3.pstatp.com/large/pgc-image/a15b808f756647fb9702f50e2204e25a\" img_width\u003d\"580\" img_height\u003d\"376\" inline\u003d\"0\" alt\u003d\"接上，有了天人合一的观念，才能知道易经的千变万化，用阳宅举例\" onerror\u003d\"javascript:errorimg.call(this);\"\u003e\u003cp class\u003d\"pgc-img-caption\"\u003e\u003c/p\u003e\u003c/div\u003e\u003cp\u003e我首先说风水师是怎么算的，他们的口诀是：一次不换是伏位，二次之卦换上爻为生气，三次之卦换中爻为五鬼，四次换下爻为延年，五次之卦换中爻为六煞，六次之卦换上爻为祸害，七次之卦换中爻为天医，八次之卦换下爻为绝命。其中的之卦就是上次换后的之卦。你应该被搞蒙了吧，哈哈，反正我是晕了。就象你问路，人家告诉你前面两个路左转，再过一个路口右转，再直行三个路口左转，一直转转。。。。。。其实你如果有导航直接就过去了。\u003c/p\u003e\u003cp\u003e那就拿坐西北朝东南的乾宅来说明，你看九宫八卦就震卦就在东边嘛，看上图所有的宅的震卦就在东边嘛，好了，你仔细再看就出大问题了：按上图风水师的算法乾宅东边是震卦是五鬼，是大凶之位啊，而按照我的说法，上、中爻变人随天走是天医，明明是好卦呀，这是为什么，风水师没错，我说得也有道理啊，难道我前面是胡说八道？其实前篇我一直叫你们牢牢记住一句话，叫每卦是爻数少的为卦主。震卦就下阳爻主事。画个图你们看看，否则你们一定晕。\u003c/p\u003e\u003cdiv class\u003d\"pgc-img\"\u003e\u003cimg src\u003d\"https://p3.pstatp.com/large/pgc-image/e8229bb14dab4d02a8290314e01977d5\" img_width\u003d\"3968\" img_height\u003d\"2976\" inline\u003d\"0\" alt\u003d\"接上，有了天人合一的观念，才能知道易经的千变万化，用阳宅举例\" onerror\u003d\"javascript:errorimg.call(this);\"\u003e\u003cp class\u003d\"pgc-img-caption\"\u003e\u003c/p\u003e\u003c/div\u003e\u003cp\u003e举个不是很恰当的例子，下阳爻就是单位的一把手，上阴爻是有点地位的同事（其实这同事阴爻处阳位，做了不该做的事），在决定一件事的时候，你听从了有资历的同事而反对了领导，人随上阴爻走了嘛，这个领导本来属阳，力量又大又喜欢搞事，却处在下爻，说明心胸狭隘或者心情不爽，他怀恨在心是不是要让你穿穿小鞋？你得意跟了同事走，没想到祸事就在门口，所以你表面看是天医，实际上是地道好杀，放点五鬼搞搞你，你的房子还住得舒心吗。如果是艮卦又不一样，阳在上，人随下阴爻，领导心胸开朗就不管你了，人随地走是财位，所以风水师算的天医位就会告诉你是财位。这时说明一下，香港风水师说的天医就是财位，六煞就是桃花位、五鬼就是大病位。大家可以去推推。\u003c/p\u003e\u003cp\u003e所以易经是多么活泼可爱啊，很多人都是表面一套背面一套，表面静的时候是天医，动的时候就五鬼了，这才是真正的阴阳。能看懂上面，说明你的易理进了一大步，生活中处事你可以做到左右逢源。所以周易中兑卦是代表是少女，但是在有的卦中却是代表快死的老妇啊，所以易经并不是你想象的那么简单。老来学易就会成贼呀，哈哈哈\u003c/p\u003e\u003cdiv class\u003d\"pgc-img\"\u003e\u003cimg src\u003d\"https://p3.pstatp.com/large/pgc-image/da44fb3d89fe42ee890a98f573e88860\" img_width\u003d\"352\" img_height\u003d\"220\" inline\u003d\"0\" alt\u003d\"接上，有了天人合一的观念，才能知道易经的千变万化，用阳宅举例\" onerror\u003d\"javascript:errorimg.call(this);\"\u003e\u003cp class\u003d\"pgc-img-caption\"\u003e\u003c/p\u003e\u003c/div\u003e\u003c/div\u003e",
    "source": "壹圆文化",
    "comment_count": 14,
    "logo_show_strategy": "normal",
    "hupu_content_image_urls": [
      ""
    ],
    "creator_uid": 5442441065
  },
  "success": true
}