{
  "_ck": {},
  "data": {
    "detail_source": "壹圆文化",
    "media_user": {
      "screen_name": "壹圆文化",
      "no_display_pgc_icon": false,
      "avatar_url": "https://p3.pstatp.com/thumb/ff4c0000329fa7e5df8e",
      "id": "1617719604580359",
      "user_auth_info": {
        "auth_type": "0",
        "other_auth": {
          "interest": "优质文化领域创作者"
        },
        "auth_info": "建筑公司总经理 优质文化领域创作者"
      }
    },
    "publish_time": 1544258261,
    "hotwords": [
      {
        "stress_type": 0,
        "hot_word": "录明星整容视频勒索"
      },
      {
        "stress_type": 1,
        "hot_word": "宁静再演孝庄"
      },
      {
        "stress_type": 0,
        "hot_word": "日常佩戴13公斤黄金"
      },
      {
        "stress_type": 0,
        "hot_word": "中国化工集团被约谈"
      },
      {
        "stress_type": 0,
        "hot_word": "医生用筷子紧急救人"
      },
      {
        "stress_type": 1,
        "hot_word": "黄渤回应女版黄渤"
      },
      {
        "stress_type": 1,
        "hot_word": "贾跃亭股份被冻结"
      },
      {
        "stress_type": 1,
        "hot_word": "买老鼠夹送香肠"
      }
    ],
    "title": "学会中国算筹，你就能理解易经阴阳五行的数",
    "url": "http://toutiao.com/group/6632457848892686851/",
    "high_quality_flag": "0",
    "impression_count": "2192",
    "is_original": false,
    "is_pgc_article": true,
    "content": "\u003cdiv\u003e\u003cp\u003e以前的会计，第一课就要学算盘，中国人发明的算盘的祖宗就是算筹。算筹就是根据天人合一的思想发明创造的应用。你学会了，就能明白阴阳五行的数理转换了。\u003c/p\u003e\u003cdiv class\u003d\"pgc-img\"\u003e\u003cimg src\u003d\"https://p3.pstatp.com/large/pgc-image/7fd047d552ef4dc68de161e650cecb7c\" img_width\u003d\"1200\" img_height\u003d\"900\" inline\u003d\"0\" alt\u003d\"学会中国算筹，你就能理解易经阴阳五行的数\" onerror\u003d\"javascript:errorimg.call(this);\"\u003e\u003c/div\u003e\u003cp\u003e就那么几根棍子，加减乘除能算出亿万个数。中国人最早发明十进制，其它世界文明的六十、二十进制落后不知有多少。连马克思都说十进制是人类伟大发明之一，很先进。现在全世界都在普遍使用。\u003c/p\u003e\u003cdiv class\u003d\"pgc-img\"\u003e\u003cimg src\u003d\"https://p3.pstatp.com/large/pgc-image/02e69c6a9ea847e1978dc033c554fa35\" img_width\u003d\"359\" img_height\u003d\"123\" inline\u003d\"0\" alt\u003d\"学会中国算筹，你就能理解易经阴阳五行的数\" onerror\u003d\"javascript:errorimg.call(this);\"\u003e\u003c/div\u003e\u003cp\u003e首先，我们来理解“五“这数，进到六以后的数，就从原来纵的五根变成横的一根来代表（纵式），或者从原来横的五根变成纵的一根来代表（横式）。从五到六就是一次天地阴阳的转换，五以前的数是生数，六以后是成数。所以河图中说“天一生水，地六成之，地二生火天七成之，天三生木地八成之，地四生金天九成之。五在中央就是生数成数的转换枢纽。\u003c/p\u003e\u003cdiv class\u003d\"pgc-img\"\u003e\u003cimg src\u003d\"https://p3.pstatp.com/large/pgc-image/f21d0bda3be745e6a63e930f0b7011cc\" img_width\u003d\"400\" img_height\u003d\"400\" inline\u003d\"0\" alt\u003d\"学会中国算筹，你就能理解易经阴阳五行的数\" onerror\u003d\"javascript:errorimg.call(this);\"\u003e\u003c/div\u003e\u003cp\u003e这下河图生、成数明白了吧。\u003c/p\u003e\u003cp\u003e第二，算筹确立了数与位的概念，在个位数用纵式，十位数用横式，百位数又用纵式，千位数用横式，一直这样纵横互换下去。比如代表五的一根，在个位是横着的，在十位又是竖着的，在百位又横着。\u003c/p\u003e\u003cdiv class\u003d\"pgc-img\"\u003e\u003cimg src\u003d\"https://p3.pstatp.com/large/pgc-image/774c227b75b64368bebc247d590b6def\" img_width\u003d\"490\" img_height\u003d\"367\" inline\u003d\"0\" alt\u003d\"学会中国算筹，你就能理解易经阴阳五行的数\" onerror\u003d\"javascript:errorimg.call(this);\"\u003e\u003c/div\u003e\u003cp\u003e这不是又一种阴阳转换吗，假如个位是阳，十位数的位置就是阴，到了百位数位置又回到阳……。\u003c/p\u003e\u003cp\u003e有的朋友可能说了，你漏了一句：天五生土，地十成之。我为什么故意不说，我的看法，这是现在使用的河图的缺陷。\u003c/p\u003e\u003cp\u003e你看五这个数，在自己阴阳转换的时候帮助其它四个生数实现了阴阳转换，其它四个生数都靠它帮忙。五是阴阳转换的枢纽，没必要再生成什么数了，自己就通了阴阳。\u003c/p\u003e\u003cp\u003e再者，十这个数只是理论上存在的，因为逢十就进一了，又自己阴阳转换了。所以邵雍他们计数时，减去天数或地数后，逢二十整数就算二，逢三十整数就算三。陈抟在推演天地数理时也是把十分为六和四的。\u003c/p\u003e\u003cp\u003e大家要明白五和十的用法，五行中的土和九宫中的中宫都是阴阳互通，在应用时要用这样的思维去理解。\u003c/p\u003e\u003cp\u003e所以河图中十是不存在的，懂了阴阳，你就明白河图洛书本身就是一体两面，一个说理一个讲用，河洛本来就要结合起来，先后天八卦也一样，都不能割裂开来研究。\u003c/p\u003e\u003cp\u003e个人观点，有用就请笑纳，不同意见就交流，胡喷和杠精请绕道 ，呵呵。\u003c/p\u003e\u003c/div\u003e",
    "source": "壹圆文化",
    "comment_count": 45,
    "logo_show_strategy": "normal",
    "hupu_content_image_urls": [
      ""
    ],
    "creator_uid": 5442441065
  },
  "success": true
}