{
  "_ck": {},
  "data": {
    "detail_source": "壹圆文化",
    "media_user": {
      "screen_name": "壹圆文化",
      "no_display_pgc_icon": false,
      "avatar_url": "https://p3.pstatp.com/thumb/ff4c0000329fa7e5df8e",
      "id": "1617719604580359",
      "user_auth_info": {
        "auth_type": "0",
        "other_auth": {
          "interest": "优质文化领域创作者"
        },
        "auth_info": "建筑公司总经理 优质文化领域创作者"
      }
    },
    "publish_time": 1544929637,
    "hotwords": [
      {
        "stress_type": 0,
        "hot_word": "录明星整容视频勒索"
      },
      {
        "stress_type": 1,
        "hot_word": "宁静再演孝庄"
      },
      {
        "stress_type": 0,
        "hot_word": "日常佩戴13公斤黄金"
      },
      {
        "stress_type": 0,
        "hot_word": "中国化工集团被约谈"
      },
      {
        "stress_type": 0,
        "hot_word": "医生用筷子紧急救人"
      },
      {
        "stress_type": 1,
        "hot_word": "黄渤回应女版黄渤"
      },
      {
        "stress_type": 1,
        "hot_word": "贾跃亭股份被冻结"
      },
      {
        "stress_type": 1,
        "hot_word": "买老鼠夹送香肠"
      }
    ],
    "title": "最契合易经先天八卦的古太极阴阳图，有人称为正宗太极图",
    "url": "http://toutiao.com/group/6635414197586887171/",
    "high_quality_flag": "0",
    "impression_count": "2266",
    "is_original": false,
    "is_pgc_article": true,
    "content": "\u003cdiv\u003e\u003cp\u003e昨天一位朋友，指出我一篇文章中引用的太极配八卦图有错，本来没想到这么快讲太极图，既然提到，就先写一篇先天八卦配太极图的文章。\u003c/p\u003e\u003cp\u003e\u003cstrong\u003e一、先天八卦讲的是八大自然现象，天地定位，日月是最大的象\u003c/strong\u003e\u003c/p\u003e\u003cp\u003e先天八卦的象以及它们之间的关系，我在前面的文章已经说过，感兴趣的朋友可以去看看。孔子说的：天地定位，山泽通气，雷风相薄，水火不相射。这句话已经很好地描述了先天八卦。\u003c/p\u003e\u003cdiv class\u003d\"pgc-img\"\u003e\u003cimg src\u003d\"https://p3.pstatp.com/large/pgc-image/3ba1dfc4be5d47a0836b19329529b5e3\" img_width\u003d\"474\" img_height\u003d\"474\" inline\u003d\"0\" alt\u003d\"最契合易经先天八卦的古太极阴阳图，有人称为正宗太极图\" onerror\u003d\"javascript:errorimg.call(this);\"\u003e\u003c/div\u003e\u003cp\u003e这样的太极图配先天八卦有错吗？仁者见仁，智者见智。看你从哪个方面去解析。从朴素直观的角度来说，基本能说明阴阳的显象和消长过程，但跟卦象的契合度就不够，并且也不能够很好地说明乾兑离震巽坎艮坤这样的卦序演变。\u003c/p\u003e\u003cp\u003e\u003cstrong\u003e二、先天八卦圆形排列顺序来源于两仪、四象、八卦横列图\u003c/strong\u003e\u003c/p\u003e\u003cp\u003e我们都知道孔子说的一句话：太极生两仪，两仪生四象，四象生八卦。用阴爻、阳爻分别画出的生成关系的卦象如下图\u003c/p\u003e\u003cdiv class\u003d\"pgc-img\"\u003e\u003cimg src\u003d\"https://p3.pstatp.com/large/pgc-image/7667be53b9ac440189889471f4d53113\" img_width\u003d\"640\" img_height\u003d\"666\" inline\u003d\"0\" alt\u003d\"最契合易经先天八卦的古太极阴阳图，有人称为正宗太极图\" onerror\u003d\"javascript:errorimg.call(this);\"\u003e\u003c/div\u003e\u003cp\u003e按天地定位，乾始坤终圆形排列就成了现在的先天八卦图。也形成了乾一、兑二、离三、震四、巽五、坎六、艮七、坤八这样的卦序。这个卦序在占卦的时候要用到。\u003c/p\u003e\u003cp\u003e\u003cstrong\u003e三、最契合先天八卦图的太极图是这样的\u003c/strong\u003e\u003c/p\u003e\u003cp\u003e太极图描述阴阳关系直观明了，跟先天八卦配合的太极图应该长成这样\u003c/p\u003e\u003cdiv class\u003d\"pgc-img\"\u003e\u003cimg src\u003d\"https://p3.pstatp.com/large/pgc-image/51d55a09d2f84382b478ee25c6410a30\" img_width\u003d\"1281\" img_height\u003d\"640\" inline\u003d\"0\" alt\u003d\"最契合易经先天八卦的古太极阴阳图，有人称为正宗太极图\" onerror\u003d\"javascript:errorimg.call(this);\"\u003e\u003c/div\u003e\u003cp\u003e这就是明朝赵仲全所作《道学正宗》中记载的古太极图，与一般图比较，在阴阳鱼上加了四条线，划为八个区域，鱼眼也较长，向圆心倾斜。有人把它定为正宗太极图。把先天八卦和太极图一配就成为下面这幅图的样子。\u003c/p\u003e\u003cdiv class\u003d\"pgc-img\"\u003e\u003cimg src\u003d\"https://p3.pstatp.com/large/pgc-image/18c5fb71466f41a990fd8d069b9faf8a\" img_width\u003d\"580\" img_height\u003d\"520\" inline\u003d\"0\" alt\u003d\"最契合易经先天八卦的古太极阴阳图，有人称为正宗太极图\" onerror\u003d\"javascript:errorimg.call(this);\"\u003e\u003c/div\u003e\u003cp\u003e是不是比较形象直观。但这些都不是最重要，重要的是要有阴阳的辩证思维。河图洛书与先、后天八卦的关系，太极图与先、后天的关系，争了几千年没定论。很多人就把河图，洛书，太极图称为无字天书。其实八卦没有周文王、孔子的注释，也是无字天书。\u003c/p\u003e\u003cp\u003e\u003cstrong\u003e四、学会阴阳的辩证思维才最重要\u003c/strong\u003e\u003c/p\u003e\u003cp\u003e孤阴不长，独阳不生，阴阳互根。阴阳相成，又相互消长转换。阴阳相依相成又相伏，显隐互现。阳极阴生，阴极阳生，如何转换都离不开中。中国文化就是阴阳文化，即使是儒家的中庸也脱不了阴阳的根源。\u003c/p\u003e\u003c/div\u003e",
    "source": "壹圆文化",
    "comment_count": 34,
    "logo_show_strategy": "normal",
    "hupu_content_image_urls": [
      ""
    ],
    "creator_uid": 5442441065
  },
  "success": true
}