{
  "_ck": {},
  "data": {
    "detail_source": "壹圆文化",
    "media_user": {
      "screen_name": "壹圆文化",
      "no_display_pgc_icon": false,
      "avatar_url": "https://p3.pstatp.com/thumb/ff4c0000329fa7e5df8e",
      "id": "1617719604580359",
      "user_auth_info": {
        "auth_type": "0",
        "other_auth": {
          "interest": "优质文化领域创作者"
        },
        "auth_info": "建筑公司总经理 优质文化领域创作者"
      }
    },
    "publish_time": 1545206491,
    "hotwords": [
      {
        "stress_type": 0,
        "hot_word": "录明星整容视频勒索"
      },
      {
        "stress_type": 1,
        "hot_word": "宁静再演孝庄"
      },
      {
        "stress_type": 0,
        "hot_word": "日常佩戴13公斤黄金"
      },
      {
        "stress_type": 0,
        "hot_word": "中国化工集团被约谈"
      },
      {
        "stress_type": 0,
        "hot_word": "医生用筷子紧急救人"
      },
      {
        "stress_type": 1,
        "hot_word": "黄渤回应女版黄渤"
      },
      {
        "stress_type": 1,
        "hot_word": "贾跃亭股份被冻结"
      },
      {
        "stress_type": 1,
        "hot_word": "买老鼠夹送香肠"
      }
    ],
    "title": "洛书阴阳二气播行的数理",
    "url": "http://toutiao.com/group/6636611347830276616/",
    "high_quality_flag": "0",
    "impression_count": "1959",
    "is_original": false,
    "is_pgc_article": true,
    "content": "\u003cdiv\u003e\u003cp\u003e从上文我已说到，不仅成数六、七、八、九四个数字分为老阴、少阳、少阴、老阳四象，生数一、二、三、四也两样分为四象。一是老阳，二是少阴，三是少阳，四是老阴。五是小成之数，十为大成之数。\u003c/p\u003e\u003cp\u003e河洛十个数字象兄弟又象夫妻，一二三四五六七八九十象兄弟相连，用甲乙丙丁戊己庚辛壬癸十天干一排，严丝合缝。河图生数成数一六共宗，二七同道，三八为朋，四九为友，阴阳结合象夫妻，十天干甲己合化土、乙庚合化金、丙辛合化水、丁壬合化木、戊癸合化火，丝毫不差。天干分五行以配五方，甲乙为始，戊己在中央，壬癸为终。\u003c/p\u003e\u003cdiv class\u003d\"pgc-img\"\u003e\u003cimg src\u003d\"https://p3.pstatp.com/large/pgc-image/08fe93bd0a544f19a4cbc82f2a193208\" img_width\u003d\"640\" img_height\u003d\"606\" inline\u003d\"0\" alt\u003d\"洛书阴阳二气播行的数理\" onerror\u003d\"javascript:errorimg.call(this);\"\u003e\u003cp class\u003d\"pgc-img-caption\"\u003e\u003c/p\u003e\u003c/div\u003e\u003cp\u003e河图、洛书皆天地自然而成，圣人则而布之，河图为体主合，洛书主变。洛书阳在四正，阴分布四隅。\u003c/p\u003e\u003cp\u003e生数四象中，一为道之宗，不用。四为老阴在地临制四方不用，少阴、少阳二气播行，形成洛书的千变万化。\u003c/p\u003e\u003cdiv class\u003d\"pgc-img\"\u003e\u003cimg src\u003d\"https://p3.pstatp.com/large/pgc-image/dfd5df1f218440d0892927f18e517973\" img_width\u003d\"361\" img_height\u003d\"240\" inline\u003d\"0\" alt\u003d\"洛书阴阳二气播行的数理\" onerror\u003d\"javascript:errorimg.call(this);\"\u003e\u003cp class\u003d\"pgc-img-caption\"\u003e洛书\u003c/p\u003e\u003c/div\u003e\u003cp\u003e\u003cstrong\u003e一、天三为少阳有力量，可播阴也可播阳，阳顺阴逆\u003c/strong\u003e\u003c/p\u003e\u003cp\u003e\u003cstrong\u003e1、阳三顺时针播阳\u003c/strong\u003e\u003c/p\u003e\u003cp\u003e从天一在北开始顺时针，3x1\u003d3在东，3x3\u003d9在南，3x9\u003d27(取7）在西，3x7\u003d21(取1）回到北，3x27\u003d81(取1）也一样。\u003c/p\u003e\u003cp\u003e\u003cstrong\u003e2、阳三顺时针播阴\u003c/strong\u003e\u003c/p\u003e\u003cp\u003e从地二在西南开始顺时针，3x2\u003d6在西北，3x6\u003d18(取8）在东北，3x8\u003d24（取4）在东南，3x4\u003d12(取2）回到西北。也可以连乘，3x18\u003d54(取4），3x54\u003d162(取2），都一样。\u003c/p\u003e\u003cp\u003e\u003cstrong\u003e二、地二少阴，只能在四隅逆向播阴\u003c/strong\u003e\u003c/p\u003e\u003cp\u003e从西南地二开始逆时针，2x2\u003d4在东南，2x4\u003d8在东北，2x8\u003d16(取6）在西北，2x6\u003d12（取2）回到西南。\u003c/p\u003e\u003cp\u003e\u003cstrong\u003e三、洛书也可阴阳一气连成一个逆时针的圆\u003c/strong\u003e\u003c/p\u003e\u003cp\u003e从天一在北开始逆时针，1+6（西北）\u003d7（正西），7+2（西南）\u003d9（正南），9+4（东南）\u003d13（取3正东），3+8(东北）\u003d11（取1回到正北）。\u003c/p\u003e\u003cp\u003e洛书主变为用，就是那么神奇。\u003c/p\u003e\u003cdiv class\u003d\"pgc-img\"\u003e\u003cimg src\u003d\"https://p3.pstatp.com/large/dfic-imagehandler/daaaa7e1-23fe-4e6a-9c29-fa2f3dc9c5f5\" img_width\u003d\"1024\" img_height\u003d\"1024\" inline\u003d\"0\" alt\u003d\"洛书阴阳二气播行的数理\" onerror\u003d\"javascript:errorimg.call(this);\"\u003e\u003cp class\u003d\"pgc-img-caption\"\u003e\u003c/p\u003e\u003c/div\u003e\u003c/div\u003e",
    "source": "壹圆文化",
    "comment_count": 34,
    "logo_show_strategy": "normal",
    "hupu_content_image_urls": [
      ""
    ],
    "creator_uid": 5442441065
  },
  "success": true
}