{
  "_ck": {},
  "data": {
    "detail_source": "壹圆文化",
    "media_user": {
      "screen_name": "壹圆文化",
      "no_display_pgc_icon": false,
      "avatar_url": "https://p3.pstatp.com/thumb/ff4c0000329fa7e5df8e",
      "id": "1617719604580359",
      "user_auth_info": {
        "auth_type": "0",
        "other_auth": {
          "interest": "优质文化领域创作者"
        },
        "auth_info": "建筑公司总经理 优质文化领域创作者"
      }
    },
    "publish_time": 1545876741,
    "hotwords": [
      {
        "stress_type": 0,
        "hot_word": "录明星整容视频勒索"
      },
      {
        "stress_type": 1,
        "hot_word": "宁静再演孝庄"
      },
      {
        "stress_type": 0,
        "hot_word": "日常佩戴13公斤黄金"
      },
      {
        "stress_type": 0,
        "hot_word": "中国化工集团被约谈"
      },
      {
        "stress_type": 0,
        "hot_word": "医生用筷子紧急救人"
      },
      {
        "stress_type": 1,
        "hot_word": "黄渤回应女版黄渤"
      },
      {
        "stress_type": 1,
        "hot_word": "贾跃亭股份被冻结"
      },
      {
        "stress_type": 1,
        "hot_word": "买老鼠夹送香肠"
      }
    ],
    "title": "易经到底揭示了什么天地奥秘",
    "url": "http://toutiao.com/group/6639305192879686152/",
    "high_quality_flag": "0",
    "impression_count": "11319",
    "is_original": false,
    "is_pgc_article": true,
    "content": "\u003cdiv\u003e\u003cp\u003e易传《系辞.上》说：“是故刚柔相摩，八卦相荡”。我们知道，天道曰阴阳，地道曰柔刚。刚柔相摩当然是说地道的事，我翻遍易学大师的著作，没一个人能把这个解释清楚，南怀瑾也是模糊带过。\u003c/p\u003e\u003cp\u003e后来读到清代一个河洛大师的著作，明白五行相生的真正关键后，才豁然开朗。\u003c/p\u003e\u003cp\u003e我在以前的河洛文章中说过，天地阴阳二气是通过中间五宫土来实现天地相合，阴阳转换，下面为朋友们破解共享。\u003c/p\u003e\u003cp\u003e\u003cstrong\u003e一、首先理清几个思路\u003c/strong\u003e\u003c/p\u003e\u003cp\u003e\u003cstrong\u003e1、太极图阴阳转换看中间\u003c/strong\u003e\u003c/p\u003e\u003cp\u003e我在以前文章说过，太极阴阳图的重点不是看周边，而是阴阳面接触的中间，如下图红笔所画，此处为阴阳转换的通道。\u003c/p\u003e\u003cdiv class\u003d\"pgc-img\"\u003e\u003cimg src\u003d\"https://p3.pstatp.com/large/pgc-image/df820efdaecf4692996eebc3213242d8\" img_width\u003d\"634\" img_height\u003d\"536\" inline\u003d\"0\" alt\u003d\"易经到底揭示了什么天地奥秘\" onerror\u003d\"javascript:errorimg.call(this);\"\u003e\u003c/div\u003e\u003cp\u003e\u003cstrong\u003e2、学会地球倾斜地轴方向和地磁轴方向\u003c/strong\u003e\u003c/p\u003e\u003cp\u003e地球南北极连成的地轴并不是垂直黄道面，而是倾斜与竖向形成大概23度多点的夹角，地磁轴也顺地轴方向，又与地轴形成大概10多度的磁偏角。\u003c/p\u003e\u003cdiv class\u003d\"pgc-img\"\u003e\u003cimg src\u003d\"https://p3.pstatp.com/large/pgc-image/eff6dcf80cb64be789926d44e06c3ea9\" img_width\u003d\"300\" img_height\u003d\"307\" inline\u003d\"0\" alt\u003d\"易经到底揭示了什么天地奥秘\" onerror\u003d\"javascript:errorimg.call(this);\"\u003e\u003c/div\u003e\u003cp\u003e地球象个偶极，形成地球磁场，地球磁场厉害了，就是地球的保护膜。没有它，大气层稳定不住，太阳风等宇宙粒子直接侵蚀地球，地球生命就不存在了。大家记住地轴指向北极星，画在平面就是东北西南方向。\u003c/p\u003e\u003cp\u003e\u003cstrong\u003e3、后天八卦五行中的一对土就是地纪，东北、西南方向如地轴\u003c/strong\u003e\u003c/p\u003e\u003cp\u003e后天八卦五行，水火各一，木金土各二。坤艮一对土分居西南、东北方向代表地。\u003c/p\u003e\u003cdiv class\u003d\"pgc-img\"\u003e\u003cimg src\u003d\"https://p3.pstatp.com/large/pgc-image/6cd15a7277624c1985d72ae61fa67d90\" img_width\u003d\"659\" img_height\u003d\"639\" inline\u003d\"0\" alt\u003d\"易经到底揭示了什么天地奥秘\" onerror\u003d\"javascript:errorimg.call(this);\"\u003e\u003c/div\u003e\u003cp\u003e\u003cstrong\u003e4、记住一个要点，五行中水并不能直接生木\u003c/strong\u003e\u003c/p\u003e\u003cp\u003e五行木火土金水一路相生，首尾相连。水生木，大家都知道。但清代一位河洛大师说水并不能直接生木。\u003c/p\u003e\u003cp\u003e现实自然世界也确实如此，大江大河形成冲积平原，水生的是土。带着真阳的受精卵在子宫羊水中逐渐长成胚胎，身体筋肉属土，水生的也是土。有人说地球当初也可能是水土混合物，清者自升，浊者下凝成地。\u003c/p\u003e\u003cp\u003e大部份植物要长在土壤里，湿土滋养，水是通过土才能生木。所以水不是直接生木，而是要通过土的转换。土有阴阳之分，有干土有湿土之分。通过后天八卦东北、西南土的阴阳转换就实现天地阴阳水火二气的转换。\u003c/p\u003e\u003cp\u003e\u003cstrong\u003e二、数字按东北西南互换成洛书\u003c/strong\u003e\u003c/p\u003e\u003cdiv class\u003d\"pgc-img\"\u003e\u003cimg src\u003d\"https://p3.pstatp.com/large/pgc-image/5f4a08e18181407f95cddf0ecb69b9b0\" img_width\u003d\"971\" img_height\u003d\"834\" inline\u003d\"0\" alt\u003d\"易经到底揭示了什么天地奥秘\" onerror\u003d\"javascript:errorimg.call(this);\"\u003e\u003c/div\u003e\u003cp\u003e左边从北至东南一二三四，右边从西北至南六七八九，数序很顺。因为东北的二和西南的八之间两者互换，八到东北，二到西南就成了现在的洛书。实现了天地阴阳交合变化，所以说洛书主变。\u003c/p\u003e\u003cp\u003e\u003cstrong\u003e三、先天八卦也按东北西南互换阴阳\u003c/strong\u003e\u003c/p\u003e\u003cdiv class\u003d\"pgc-img\"\u003e\u003cimg src\u003d\"https://p3.pstatp.com/large/pgc-image/10638d1cfc98451baddc344c50f4fb9c\" img_width\u003d\"640\" img_height\u003d\"735\" inline\u003d\"0\" alt\u003d\"易经到底揭示了什么天地奥秘\" onerror\u003d\"javascript:errorimg.call(this);\"\u003e\u003c/div\u003e\u003cp\u003e本来坤领三女在左下（北至东南），乾统三男在右上（南至西北）。因为东北、西南方向的巽（长女）和震（长男）互换，女出嫁，男迎娶，阴阳交合建立新的家庭。\u003c/p\u003e\u003cp\u003e\u003cstrong\u003e四、后天八卦东北、西南互换，八卦相荡，阴阳土相摩，五行才得以一气流行\u003c/strong\u003e\u003c/p\u003e\u003cdiv class\u003d\"pgc-img\"\u003e\u003cimg src\u003d\"https://p3.pstatp.com/large/pgc-image/42d15b4d9fec4926942f7b8f68f74be4\" img_width\u003d\"640\" img_height\u003d\"922\" inline\u003d\"0\" alt\u003d\"易经到底揭示了什么天地奥秘\" onerror\u003d\"javascript:errorimg.call(this);\"\u003e\u003c/div\u003e\u003cp\u003e火曰炎上，九离火在上已不可能下来，水曰润下，也不可能上去，阴阳二气不通，只有通过土的转换。\u003c/p\u003e\u003cp\u003e本来九离火生燥土，八艮阳土应该在离火右侧，火生土，土生右侧兑、乾金。\u003c/p\u003e\u003cp\u003e一坎水润湿土才能生左侧的震、巽木，二坤阴土应该在坎水左侧起过渡作用。\u003c/p\u003e\u003cp\u003e正是因为西南的艮卦到东北，东北的坤卦到西南。才把阴阳不交的水火二气通过阴土阳土的交换才得以阴阳转换。\u003c/p\u003e\u003cp\u003e八卦相荡，刚柔相摩。坤艮两卦象荡秋千一样来回晃荡，干土湿土刚柔相摩，湿土变干，干土变湿，水火二气起作用。就实现了天地阴阳转换的绵绵不绝，也形成了后天八卦的千变万化。\u003c/p\u003e\u003cp\u003e\u003cstrong\u003e河图、洛书、八卦就象天书，符合天地至理，说是几千年前的古人创造真有点匪夷所思。我们只能去揭示奥妙和规律，而不能去篡改和诋毁。\u003c/strong\u003e\u003c/p\u003e\u003c/div\u003e",
    "source": "壹圆文化",
    "comment_count": 102,
    "logo_show_strategy": "normal",
    "hupu_content_image_urls": [
      ""
    ],
    "creator_uid": 5442441065
  },
  "success": true
}