{
  "_ck": {},
  "data": {
    "detail_source": "壹圆文化",
    "media_user": {
      "screen_name": "壹圆文化",
      "no_display_pgc_icon": false,
      "avatar_url": "https://p3.pstatp.com/thumb/ff4c0000329fa7e5df8e",
      "id": "1617719604580359",
      "user_auth_info": {
        "auth_type": "0",
        "other_auth": {
          "interest": "优质文化领域创作者"
        },
        "auth_info": "建筑公司总经理 优质文化领域创作者"
      }
    },
    "publish_time": 1546314065,
    "hotwords": [
      {
        "stress_type": 0,
        "hot_word": "录明星整容视频勒索"
      },
      {
        "stress_type": 1,
        "hot_word": "宁静再演孝庄"
      },
      {
        "stress_type": 0,
        "hot_word": "日常佩戴13公斤黄金"
      },
      {
        "stress_type": 0,
        "hot_word": "中国化工集团被约谈"
      },
      {
        "stress_type": 0,
        "hot_word": "医生用筷子紧急救人"
      },
      {
        "stress_type": 1,
        "hot_word": "黄渤回应女版黄渤"
      },
      {
        "stress_type": 1,
        "hot_word": "贾跃亭股份被冻结"
      },
      {
        "stress_type": 1,
        "hot_word": "买老鼠夹送香肠"
      }
    ],
    "title": "为什么《河图》有十，八卦只有八？",
    "url": "http://toutiao.com/group/6641075622493815310/",
    "high_quality_flag": "0",
    "impression_count": "2830",
    "is_original": false,
    "is_pgc_article": true,
    "content": "\u003cdiv\u003e\u003cp\u003e文章之前说点题外话。学易要洁净精微，不图名、不图利才能放下成见，博览群书才能触类旁通、融汇贯通。\u003c/p\u003e\u003cp\u003e学易只看《周易》和《易传》是远远不够的，《周易》多讲重卦六十四，《易传》以文字描述为主。理论不联系实践，不了解河洛数理、先后天八卦之象就容易陷入空谈易理的境地。\u003c/p\u003e\u003cp\u003e比如你只看《易传》，你肯定不会用邵雍的河洛真数推本命卦定元堂，你会看不懂风水流派黄石公的《青囊经》和杨公、郭璞等的著作，奇门遁甲、紫微斗数等术法会让你一脑子浆糊。当你看不懂时你会斥之为迷信。一个学易之人把易学应用斥为迷信时，脸往哪搁呢？\u003c/p\u003e\u003cp\u003e学易，解通了就得到了。回到正题，《河图》有数十，《洛书》有数九。《河图》十去哪了，以前的文章都有解读过。八卦只有八，并不是九、十弃而不用。\u003c/p\u003e\u003cp\u003e先天八卦用《河图》、《洛书》数理推导能严丝合缝。后天八卦就要用到五行来解释才合理，先天变后天，后天卦位才能配入干支成罗经。\u003c/p\u003e\u003cp\u003e很多学易的朋友都说易经根本没有五行的说法，研究五行的朋友有时就不太重视易。两者都失于偏颇。\u003c/p\u003e\u003cp\u003e八象、五行本身就具有相通之理，说八卦就是说五行。比如坎水也可认为云、雨之象。离火也可认是日、是电。坤地艮山自可认为土。巽本为风亦为木，风、木同气，医家叫厥阴风木。震为雷，雷为化物之木，雷动龙腾，苍龙东方宿，龙雷之火为相火，本体为阳木。乾、兑同属金，海水连天如同山地一体，天、泽同气，乾气为纯刚之气。论八象，显的是卦象，背后隐的是阴阳五行转化的道理。\u003c/p\u003e\u003cp\u003e先天八卦应当视为八大自然现象论八象。后天八卦论方位论时序，就应当用五行来解释，才能配入天干地支，方有着落。\u003c/p\u003e\u003cdiv class\u003d\"pgc-img\"\u003e\u003cimg src\u003d\"https://p3.pstatp.com/large/pgc-image/22be2265f4c9476c9aaa207126b2c082\" img_width\u003d\"640\" img_height\u003d\"694\" inline\u003d\"0\" alt\u003d\"为什么《河图》有十，八卦只有八？\" onerror\u003d\"javascript:errorimg.call(this);\"\u003e\u003c/div\u003e\u003cp\u003e后天八卦之序，就是五行播四时，震、巽二木主春，离火主夏，兑、乾二金主秋。坎水主冬。坤土夏秋之交，艮土冬春之交。\u003c/p\u003e\u003cp\u003e东南巽木生离火，离火生坤土，坤土生兑、乾金，金生坎水，水润成湿土滋养木。夏到秋，火克金，火、金之交有坤土，火生土，土生金，克者又顺以相生。冬到春，水生木，水木之交有艮土，木克土，土克水，生者又逆以相克，相生相克，造化无穷。\u003c/p\u003e\u003cp\u003e一土，五行五方之理，中央一土统四方。二土，后天八卦水火各一、木金土各二之理，坤、艮土居洛书二、八之位。四土，十二支有四季之理，四方皆有土，坤、艮、乾、巽四维，艮中有丑土，巽中有辰，坤中有未，乾中有戌，金木中的土含其间。\u003c/p\u003e\u003cp\u003e八卦五行，水火各一，木金土各二，这就是规则，六十四卦分宫属五行也按这个规律。其中道理就来源于《河图》四象变化，一水、二火、三木、四金、五土。太阴一、六本为水变为坤、艮土。少阴三、八本为木，三变离火，八仍为震木。少阳二、七本为火，二变巽木，七变坎水。于是水、火各一，木金土各二。各归五行本位，水火以气旺，木金土以形旺。《河图》数十因为水、火各相并于一个而变成八卦之八。\u003c/p\u003e\u003cdiv class\u003d\"pgc-img\"\u003e\u003cimg src\u003d\"https://p3.pstatp.com/large/pgc-image/91ba5906a0d948aa96bd012a083bc138\" img_width\u003d\"714\" img_height\u003d\"640\" inline\u003d\"0\" alt\u003d\"为什么《河图》有十，八卦只有八？\" onerror\u003d\"javascript:errorimg.call(this);\"\u003e\u003c/div\u003e\u003cp\u003e数有十而卦止八，虚其五十为坤、艮土分居东北、西南，其它五行各就其位，并不是空九、十不用。\u003c/p\u003e\u003cp\u003e《洛书》相对合十则妙，纳甲合十一则妙。以后文章论述。\u003c/p\u003e\u003c/div\u003e",
    "source": "壹圆文化",
    "comment_count": 26,
    "logo_show_strategy": "normal",
    "hupu_content_image_urls": [
      ""
    ],
    "creator_uid": 5442441065
  },
  "success": true
}