{
  "_ck": {},
  "data": {
    "detail_source": "壹圆文化",
    "media_user": {
      "screen_name": "壹圆文化",
      "no_display_pgc_icon": false,
      "avatar_url": "https://p3.pstatp.com/thumb/ff4c0000329fa7e5df8e",
      "id": "1617719604580359",
      "user_auth_info": {
        "auth_type": "0",
        "other_auth": {
          "interest": "优质文化领域创作者"
        },
        "auth_info": "建筑公司总经理 优质文化领域创作者"
      }
    },
    "publish_time": 1548675828,
    "hotwords": [
      {
        "stress_type": 0,
        "hot_word": "录明星整容视频勒索"
      },
      {
        "stress_type": 1,
        "hot_word": "宁静再演孝庄"
      },
      {
        "stress_type": 0,
        "hot_word": "日常佩戴13公斤黄金"
      },
      {
        "stress_type": 0,
        "hot_word": "中国化工集团被约谈"
      },
      {
        "stress_type": 0,
        "hot_word": "医生用筷子紧急救人"
      },
      {
        "stress_type": 1,
        "hot_word": "黄渤回应女版黄渤"
      },
      {
        "stress_type": 1,
        "hot_word": "贾跃亭股份被冻结"
      },
      {
        "stress_type": 1,
        "hot_word": "买老鼠夹送香肠"
      }
    ],
    "title": "\"乾以易知，坤以简能\"有谁能真正理解呢",
    "url": "http://toutiao.com/group/6651434907824292355/",
    "high_quality_flag": "0",
    "impression_count": "3418",
    "is_original": false,
    "is_pgc_article": true,
    "content": "\u003cdiv\u003e\u003cp\u003e“乾以易知，坤以简能”这句话到底什么意思？大部分易学先辈都一语带过，很少有人真正去探察幽微。乾以易知的“易”字，基本解读成“容易”的意思，坤以简能的“简”字，基本解读成“简单”的意思。我翻遍几千年来易学名家的著作，大致都是这个意思而略略带过。\u003c/p\u003e\u003cp\u003e然后，我就纳闷了。乾坤为易之门户，在人为父母卦。既然乾卦的道理都那么容易知道，坤卦的功能又是那么简单。岂非《周易》是太简易的学问了，哪还值得几千年来那么多人皓首穷经？\u003c/p\u003e\u003cdiv class\u003d\"pgc-img\"\u003e\u003cimg src\u003d\"https://p3.pstatp.com/large/dfic-imagehandler/7ded6319-91ff-4398-8452-5f647ea0a11a\" img_width\u003d\"1200\" img_height\u003d\"1162\" inline\u003d\"0\" alt\u003d\"\"乾以易知，坤以简能\"有谁能真正理解呢\" onerror\u003d\"javascript:errorimg.call(this);\"\u003e\u003c/div\u003e\u003cp\u003e我思考问题比较特立独行，既要遍览群书，博采众长，又要独立思考，所以我对《易传》的解读在某些角度跟易学先辈是会不一样的。\u003c/p\u003e\u003cp\u003e其实从孔门传出的不仅仅有《十翼》，还有《古义》，孔子传给鲁国商瞿，商瞿传给田何，据《汉书.儒林传》记载，田何传《易》于丁宽，丁宽再传田王孙，田王孙传给施雠、孟喜、梁丘贺而成施、孟、梁丘之学。而其中孟喜就是焦延寿的老师，焦又十一传至京房。阴阳灾变之学其实也出自孔门。以前易学是有书传又有师授。这都是易学史上称为的“象数\"学派。\u003c/p\u003e\u003cdiv class\u003d\"pgc-img\"\u003e\u003cimg src\u003d\"https://p3.pstatp.com/large/dfic-imagehandler/24021130-390a-4b5f-b093-39a98f399843\" img_width\u003d\"1023\" img_height\u003d\"392\" inline\u003d\"0\" alt\u003d\"\"乾以易知，坤以简能\"有谁能真正理解呢\" onerror\u003d\"javascript:errorimg.call(this);\"\u003e\u003c/div\u003e\u003cp\u003e京房参政遇党祸而英年早逝，阴阳灾变学说在历朝历代被认为是异端邪说而遭禁。施、梁丘著述也基本亡佚。孔子嫡传者三家，唯有《焦氏易林》和《京氏易传》三卷独存。《焦氏易林》又受冷落。西汉之易，东汉已佚，象数符号系统突然消失，代之而起的是东汉易学的卦变、爻变等学说，杂乱无章又繁琐，再到后来，王弼又横扫东汉之《易》而陷入空谈易理。\u003c/p\u003e\u003cp\u003e所以易学在西汉、东汉出现了断层现象。宋儒所谓的易理并非真正易理，只能称为义理。只到陈抟、邵雍恢复先天易学，回到伏羲易学的活泼无碍、舞动不休的易象符号系统。才能理解”易则易知，简则简从“的易象符号。\u003c/p\u003e\u003cdiv class\u003d\"pgc-img\"\u003e\u003cimg src\u003d\"https://p3.pstatp.com/large/dfic-imagehandler/455dc999-ceee-4d42-8772-77397a3ee9d5\" img_width\u003d\"1200\" img_height\u003d\"801\" inline\u003d\"0\" alt\u003d\"\"乾以易知，坤以简能\"有谁能真正理解呢\" onerror\u003d\"javascript:errorimg.call(this);\"\u003e\u003c/div\u003e\u003cp\u003e回到正题，”乾以易知，坤以简能“我不想用宋儒的易理来说解读。比如《周易本义》把这句话解释成为：乾健而动，即其所知，便能始物而无所难。故以易而知”大始“，坤顺而静，凡其所能，皆从乎阳而不自作，故为以简而能”成物“。不知各位看懂了没有，反正我是有点摸不着头脑。\u003c/p\u003e\u003cp\u003e我对《易传》中的这句话解读是这样的，要用先天八卦和后天八卦结合起来，用卦象和方位去理解：\u003c/p\u003e\u003cp\u003e1、首先从老子的”有“、”无“观念出发。我们买杯子并不是要买有形的材质，除了工艺品外，基本是买空杯为了装水，空即”无“之用。我们买房子也一样，并不是买有形的砖头和混凝土，是为了买来有形而形成的空间来居住。看不到的“无”反而是功能，是用。所以星云大师说，”无“用就是大用。看到了“有”，就应该明白“无”的功能。\u003c/p\u003e\u003cdiv class\u003d\"pgc-img\"\u003e\u003cimg src\u003d\"https://p3.pstatp.com/large/dfic-imagehandler/c4bc0b40-b361-40ad-97aa-14960fea9947\" img_width\u003d\"717\" img_height\u003d\"1200\" inline\u003d\"0\" alt\u003d\"\"乾以易知，坤以简能\"有谁能真正理解呢\" onerror\u003d\"javascript:errorimg.call(this);\"\u003e\u003c/div\u003e\u003cp\u003e2、乾卦在和先天八卦代表天，六爻纯阳，阳顺阴逆，阳动阴静，天上悬象莫大乎日月，日月运行之谓易，天道循环，寒暑相推就是易之道。后天八卦阳统阴，阳居终始之位，有艮之终始，又有乾之大始于阴终，阴佐其间而辅阳，知始知终而易理得。\u003c/p\u003e\u003cp\u003e万物负阴而抱阳，阳动阴随成万物，明白了阴阳就明白了易理。乾卦六爻其初难知所以潜龙勿用，其上亢龙终极而有悔，上六易知结果。\u003c/p\u003e\u003cp\u003e天行健，乾卦之象，以象可知事之终。就象我们造房子，设计图就相当乾之象，房子还没动工，工程师看设计图这些符号就可以想象建成会是什么样子。“乾以易知”的意思就是乾卦通过象和易理就可知道乾卦的功能和事物结果。这个“易”字不是容易的“易”，而是周易和易经的“易”。\u003c/p\u003e\u003cp\u003e工程师要学会制图、看图、设计才能描绘未来的蓝图。人们要学会易经，掌握自然规律，才能做到天地在我心，才能揭示世间万物的发展规律。\u003c/p\u003e\u003cp\u003e3、“坤以简能”的“简”字并不是“简单”的意思。“简”字在古代有选择、检查、检阅的意思。乾卦告诉我们事物发展的道理，坤作万物能检阅事物最后的功能是怎样，有否达到当初的目的。\u003c/p\u003e\u003cp\u003e就如造房子，乾卦如图纸让你事先知道房子会建成什么样子。坤卦阴作阴从是要告诉你要按图施工才能达到起初设计的目的。这就是下一句“易则易知，简则简从”的含义。\u003c/p\u003e\u003cp\u003e坤卦能检验当初设计的功能是否达到要求，就拿家里装修来举例，乾卦会告诉你开关、插座等电源布线的道理并在图纸上设定位置。虽然按图施工了却不一定能完全满足自己的要求。我们都有这样的经验，比如说当初要是在这里加个开关插座就方便了，装修总有不如意的地方。\u003c/p\u003e\u003cp\u003e坤卦作万物能检验其功能到底如何，杯子做好能检验到底装多少水，这就是“坤以简能”的真正含义。我的解释是不是很出乎你的意料？\u003c/p\u003e\u003c/div\u003e",
    "source": "壹圆文化",
    "comment_count": 62,
    "logo_show_strategy": "normal",
    "hupu_content_image_urls": [
      ""
    ],
    "creator_uid": 5442441065
  },
  "success": true
}