{
  "_ck": {},
  "data": {
    "detail_source": "壹圆文化",
    "media_user": {
      "screen_name": "壹圆文化",
      "no_display_pgc_icon": false,
      "avatar_url": "https://p3.pstatp.com/thumb/ff4c0000329fa7e5df8e",
      "id": "1617719604580359",
      "user_auth_info": {
        "auth_type": "0",
        "other_auth": {
          "interest": "优质文化领域创作者"
        },
        "auth_info": "建筑公司总经理 优质文化领域创作者"
      }
    },
    "publish_time": 1553177984,
    "hotwords": [
      {
        "stress_type": 0,
        "hot_word": "录明星整容视频勒索"
      },
      {
        "stress_type": 1,
        "hot_word": "宁静再演孝庄"
      },
      {
        "stress_type": 0,
        "hot_word": "日常佩戴13公斤黄金"
      },
      {
        "stress_type": 0,
        "hot_word": "中国化工集团被约谈"
      },
      {
        "stress_type": 0,
        "hot_word": "医生用筷子紧急救人"
      },
      {
        "stress_type": 1,
        "hot_word": "黄渤回应女版黄渤"
      },
      {
        "stress_type": 1,
        "hot_word": "贾跃亭股份被冻结"
      },
      {
        "stress_type": 1,
        "hot_word": "买老鼠夹送香肠"
      }
    ],
    "title": "易经卦画之卦脉",
    "url": "http://toutiao.com/group/6670536625635721731/",
    "high_quality_flag": "0",
    "impression_count": "1001",
    "is_original": true,
    "is_pgc_article": true,
    "content": "\u003cdiv\u003e\u003cp\u003e继续完整续写《正易心法》。上篇文章起了个头，本文按诗诀继续下写。\u003c/p\u003e\u003cp\u003e直观卦画，形象思维。比如艮卦简单三画，上一阳爻，下面两阴爻，古人认为山自天来，天之坠，气之止，山近天而气欲下。能这样理解后，你就能形象理解风水中过峡、束气的概念，观气脉格入首龙。按盘古开天地的神话把山川大地拟人化了。\u003c/p\u003e\u003cp\u003e1、“\u003cstrong\u003e六十四卦，无穷妙义，尽在画中，合为自然。消息卦画，无止于辞。辞外见意，方审易道。\u003c/strong\u003e”六十四卦，三百八十四爻，刚好人类有六十四个遗传密码、三百八十四个阴阳键（密码子），小小一基因，自然而然具有无穷奥妙，其中生命奥秘并非偶然。\u003c/p\u003e\u003cp\u003e陈抟说，蒙卦取次于艮，师卦取次于坤，不仅仅只理解为卦辞中说的“童蒙求我”、“贞丈人吉”之义，应该直观形象去看卦画，艮为童蒙少男，坤为兵男，蒙卦取外艮之童蒙天经地义，师卦外坤不动如山，内坎趋变如水源源不绝。蒙卦和师卦内我皆坎水，观卦画可得无穷好意。\u003c/p\u003e\u003cp\u003e卦辞、爻辞只是吉凶大略之辞，不能尽六爻之义，《易传》曰：“书不尽言，言不尽意。”先有卦画，后有卦辞，卦画是源。\u003c/p\u003e\u003cp\u003e2、“\u003cstrong\u003e天地万物，理有未明。观于卦脉，理则昭然。经卦重卦，或离或合。纵横施设，理无不在。“\u003c/strong\u003e陈抟说，卦脉，为运动流行自然之理，卦脉审，则天地万物之理得矣。比如观坎卦，一阳在中则知月为亲地之气，坎月之水，其气主下。观离卦，一阴在中则知日为亲天之气，离日之火主上。观艮卦知山自天来，观兑卦则知雨从地出,这就是大气环流之理。观经卦叠交，则知闰余之数，三百八十四爻，二十四爻为闰数，以后文章专门论及。观卦之交互体，则知造化之源。卦画如同将天地之物理呈现在你的眼前。\u003c/p\u003e\u003cp\u003e八经卦乾、兑、离、震、巽、坎、艮、坤，外内卦一致，在六十四卦方圆图中，圆图为天以震离兑乾为长，以巽坎艮坤为消。方图为地以巽坎艮坤为长，乾兑离震为消。\u003c/p\u003e\u003cdiv class\u003d\"pgc-img\"\u003e\u003cimg src\u003d\"https://p3.pstatp.com/large/pgc-image/dcf8eea482a14f9ba5f2045839e5039d\" img_width\u003d\"640\" img_height\u003d\"683\" inline\u003d\"0\" alt\u003d\"易经卦画之卦脉\" onerror\u003d\"javascript:errorimg.call(this);\"\u003e\u003c/div\u003e\u003cp\u003e内外之象，或离或合，一以贯之。\u003c/p\u003e\u003cp\u003e3、\u003cstrong\u003e“乾坤错杂，乃生六子。六子则是，乾坤破体。粤乾舆坤，即是阴阳。圆融和粹，平气之名。偏陂反侧，不平之名。”\u003c/strong\u003e乾坤相合，地天交泰，乾三画奇，纯阳也，一阴杂于下为巽卦，杂于中为离，杂于上为兑，巽离兑皆破乾之纯体。坤六画偶，纯阴也，一阳杂于下为震，杂于中为坎，杂于上为艮，震坎艮破坤之纯体。\u003c/p\u003e\u003cdiv class\u003d\"pgc-img\"\u003e\u003cimg src\u003d\"https://p3.pstatp.com/large/pgc-image/a8f96fc9ee084349b4eccfaa9b6b320f\" img_width\u003d\"647\" img_height\u003d\"640\" inline\u003d\"0\" alt\u003d\"易经卦画之卦脉\" onerror\u003d\"javascript:errorimg.call(this);\"\u003e\u003c/div\u003e\u003cp\u003e一阳一阴杂于上则为艮兑，所谓“山泽通气”。一阳一阴杂于中则为坎离，所谓“水火不相射”。一阳一阴杂于下则为震巽，所谓“雷风相薄”。初、中、终三变，所谓“乾坤错杂，乃生六子”。六子出，乾坤破体。\u003c/p\u003e\u003cp\u003e人生于地，悬命于天，天地合气，命之曰人，人之生，天地假借父母。头圆居上得其乾，腹虚有容得之坤，股肱动作得震巽，离目视，坎耳听，兑口言，艮鼻耸。\u003c/p\u003e\u003cdiv class\u003d\"pgc-img\"\u003e\u003cimg src\u003d\"https://p3.pstatp.com/large/pgc-image/4b6a38a62f2e4244a046368bed923f22\" img_width\u003d\"640\" img_height\u003d\"710\" inline\u003d\"0\" alt\u003d\"易经卦画之卦脉\" onerror\u003d\"javascript:errorimg.call(this);\"\u003e\u003c/div\u003e\u003cp\u003e凡阴阳之气，纯而不驳，是为乾坤。一阳一阴，一上一下，一气流行，循环不息。《老子》曰：“天得一以清，地得一以宁。”尽乾之道是谓圣人，得坤之顺，承天而行是谓贤人。\u003c/p\u003e\u003cp\u003e乾健坤顺，阴阳之纯气，一失健顺，不平之气作而六子生，观画象可知。《庄子》曰：“阴阳错行，天地大骇。于是乎有雷有霆，水中有火，乃焚大槐。”天地交泰则阴阳之性失健顺之纯，阴阳错杂六子生，三男三女长中少之分而不平。炼精化气，炼气还神，取坎填离，恢复乾、坤，后天返先天，逆也。\u003c/p\u003e\u003cp\u003e4、“\u003cstrong\u003e健顺动入，陷丽止说。非特乾坤，六子训释。”\u003c/strong\u003e动谓一阳在二阴下，入谓一阴在二阳下，陷谓一阳在二阴中，丽谓一阴在二阳中，止谓一阳在二阴上，说谓一阴在二阳上，凡此种种说法直观见于卦画。乾坤辟阖，阴阳进退之门户，阖户谓之坤，姤之初爻，辟户谓之乾，复之初爻。\u003c/p\u003e\u003cp\u003e六十四卦，无穷妙义，阴阳运动之机，血气流行之理，无为自然之道。\u003c/p\u003e\u003c/div\u003e",
    "source": "壹圆文化",
    "comment_count": 17,
    "logo_show_strategy": "normal",
    "hupu_content_image_urls": [
      ""
    ],
    "creator_uid": 5442441065
  },
  "success": true
}