{
  "_ck": {},
  "data": {
    "detail_source": "壹圆文化",
    "media_user": {
      "screen_name": "壹圆文化",
      "no_display_pgc_icon": false,
      "avatar_url": "https://p3.pstatp.com/thumb/ff4c0000329fa7e5df8e",
      "id": "1617719604580359",
      "user_auth_info": {
        "auth_type": "0",
        "other_auth": {
          "interest": "优质文化领域创作者"
        },
        "auth_info": "建筑公司总经理 优质文化领域创作者"
      }
    },
    "publish_time": 1555252539,
    "hotwords": [
      {
        "stress_type": 0,
        "hot_word": "录明星整容视频勒索"
      },
      {
        "stress_type": 1,
        "hot_word": "宁静再演孝庄"
      },
      {
        "stress_type": 0,
        "hot_word": "日常佩戴13公斤黄金"
      },
      {
        "stress_type": 0,
        "hot_word": "中国化工集团被约谈"
      },
      {
        "stress_type": 0,
        "hot_word": "医生用筷子紧急救人"
      },
      {
        "stress_type": 1,
        "hot_word": "黄渤回应女版黄渤"
      },
      {
        "stress_type": 1,
        "hot_word": "贾跃亭股份被冻结"
      },
      {
        "stress_type": 1,
        "hot_word": "买老鼠夹送香肠"
      }
    ],
    "title": "青囊经五：仰观天文，俯察地理，天文地理对社会人事如何影响",
    "url": "http://toutiao.com/group/6679647670216163847/",
    "high_quality_flag": "0",
    "impression_count": "13170",
    "is_original": true,
    "is_pgc_article": true,
    "content": "\u003cdiv\u003e\u003cp\u003e上文说了天有五星，地有五行，天分星宿，地列山川。四象二十八宿如何布于二十四向，这里简单叙述下。\u003c/p\u003e\u003cp\u003e上文说过，二十八宿以角木为首，历数七曜，以木、金、土居前，日、月居中，火、水居后。一宿值一日，一日二十四小时，每时历一曜，就如六十甲子周而复始。\u003c/p\u003e\u003cp\u003e地理家又以二十八宿分诸天盘之二十四向，乾、坤、艮、巽属四木，辰、戌、丑、未属四金，乙、辛、丁、癸属四土，子、午、卯、酉属君相火，甲、庚、丙、壬属四火，寅、申、巳、亥属四水，用于拨砂立向。\u003c/p\u003e\u003cdiv class\u003d\"pgc-img\"\u003e\u003cimg src\u003d\"https://p3.pstatp.com/large/pgc-image/cc5c7aa7e50b4e2d9cc525156e5cdb57\" img_width\u003d\"640\" img_height\u003d\"559\" inline\u003d\"0\" alt\u003d\"青囊经五：仰观天文，俯察地理，天文地理对社会人事如何影响\" onerror\u003d\"javascript:errorimg.call(this);\"\u003e\u003c/div\u003e\u003cp\u003e星宿有二十八，山向只有二十四。因为子、午、卯、酉兼得四日四月，月本水之精，先天坎数为七，七在河图为相火，先天离日坎月就在卯酉位，属相火也有理。\u003c/p\u003e\u003cp\u003e上次有易友问到“形”与“气”的概念问题，有点玄乎，天人合一，用人体的来解释好理解。比如人崴脚了，痛而不肿是伤气了，先痛后肿是气伤形，先肿后痛是形伤气。所以“气”摸不着看不见但能感受到，“形”则观察得到。形丽于天，就是五星在天而天垂象。比如日食，古代皇帝是要下罪己诏的。“荧惑守心”犯冲皇帝，帝王照样惶惶不安。\u003c/p\u003e\u003cp\u003e下面继续《青囊经》的解读，经曰“\u003cstrong\u003e因形察气，以立人纪。紫微天极，太乙之御。君临四正，南面而治。天市东宫，少微西掖，太微南垣，旁照四极。四七为经，五德为纬，运斡坤舆，垂光乾纪，七政枢机，流通终始。\u003c/strong\u003e\u003c/p\u003e\u003cp\u003e因形察气，以立人纪。人纪有五德七政，五德有两种说法，七政也有两种说法。我们先搞清楚后面几句。紫微天极，太乙之御。说的是三垣四象二十八宿。\u003c/p\u003e\u003cdiv class\u003d\"pgc-img\"\u003e\u003cimg src\u003d\"https://p3.pstatp.com/large/pgc-image/697dd198a9844d079324a0fc0a1cdbd1\" img_width\u003d\"600\" img_height\u003d\"593\" inline\u003d\"0\" alt\u003d\"青囊经五：仰观天文，俯察地理，天文地理对社会人事如何影响\" onerror\u003d\"javascript:errorimg.call(this);\"\u003e\u003c/div\u003e\u003cp\u003e紫微垣最尊贵，相当于皇宫，太乙是天帝老大。所谓的太乙就是北极星，因为北极星处于地轴方向上，拍过星轨的摄影师应该知道，天上星星皆以北极星为圆心，一日形成圆形星轨。\u003c/p\u003e\u003cdiv class\u003d\"pgc-img\"\u003e\u003cimg src\u003d\"https://p3.pstatp.com/large/pgc-image/4a74f5fed2bc450985d40a4f317d373f\" img_width\u003d\"862\" img_height\u003d\"640\" inline\u003d\"0\" alt\u003d\"青囊经五：仰观天文，俯察地理，天文地理对社会人事如何影响\" onerror\u003d\"javascript:errorimg.call(this);\"\u003e\u003c/div\u003e\u003cp\u003e所以古人认为北极星不动如宗，运转天星，是为天帝。\u003c/p\u003e\u003cp\u003e太乙君临四正，南面而治，北斗七星为其座驾，北斗指向，春夏秋冬四季分明。紫微垣是天帝处理政务的枢纽。东边天市，南边太微，西边少微。四垣镇四方。以此为天之中宫，旁照四周天际。\u003c/p\u003e\u003cp\u003e四七为经就是二十八宿，五德为纬，纬即往来。五德有两种，天上五德就是五星，五星运行在二十八宿就叫五德为纬。五德在社会中还有另外一种说法，就是指王朝的更替，比如周朝为火德，秦朝为水德。各朝按土木金火水相克之序进行更替。在人五德是指仁、义、礼、智、信。\u003c/p\u003e\u003cp\u003e坤舆即地轴，乾纪即天象。运斡坤舆，垂光乾纪，就是地球自转，迎合天象。五星日月周流六虚，通交八方，周流复始。七政枢机，流通终始。\u003c/p\u003e\u003cp\u003e七政也有两种说法，一种是天上五星加上日月，就是七曜也叫七纬，以应七宿。所以角、斗、奎、井应岁星属木，尾、室、觜、翼应荧惑属火，亢、牛、娄、鬼应太白属金。箕、壁、参、轸应辰星属水，氐、女、胃、柳应镇星属土，房、虚、昂、星应日，心、危、毕、张以应月。七政另一种说法是春、夏、秋、冬加上天、地、人事，与本文无多大关联。\u003c/p\u003e\u003cp\u003e上文说气行于地，形丽于天，本文讲五德七政源出天文，以有形之象为天地之机，气之所从受。\u003c/p\u003e\u003c/div\u003e",
    "source": "壹圆文化",
    "comment_count": 84,
    "logo_show_strategy": "normal",
    "hupu_content_image_urls": [
      ""
    ],
    "creator_uid": 5442441065
  },
  "success": true
}