{
  "_ck": {},
  "data": {
    "detail_source": "壹圆文化",
    "media_user": {
      "screen_name": "壹圆文化",
      "no_display_pgc_icon": false,
      "avatar_url": "https://p3.pstatp.com/thumb/ff4c0000329fa7e5df8e",
      "id": "1617719604580359",
      "user_auth_info": {
        "auth_type": "0",
        "other_auth": {
          "interest": "优质文化领域创作者"
        },
        "auth_info": "建筑公司总经理 优质文化领域创作者"
      }
    },
    "publish_time": 1557386191,
    "hotwords": [
      {
        "stress_type": 0,
        "hot_word": "录明星整容视频勒索"
      },
      {
        "stress_type": 1,
        "hot_word": "宁静再演孝庄"
      },
      {
        "stress_type": 0,
        "hot_word": "日常佩戴13公斤黄金"
      },
      {
        "stress_type": 0,
        "hot_word": "中国化工集团被约谈"
      },
      {
        "stress_type": 0,
        "hot_word": "医生用筷子紧急救人"
      },
      {
        "stress_type": 1,
        "hot_word": "黄渤回应女版黄渤"
      },
      {
        "stress_type": 1,
        "hot_word": "贾跃亭股份被冻结"
      },
      {
        "stress_type": 1,
        "hot_word": "买老鼠夹送香肠"
      }
    ],
    "title": "阴阳相逆生死门，罗经阴阳奥秘由此生",
    "url": "http://toutiao.com/group/6688659495150682631/",
    "high_quality_flag": "0",
    "impression_count": "32721",
    "is_original": true,
    "is_pgc_article": true,
    "content": "\u003cdiv\u003e\u003cp\u003e上篇文章有个喷子说我雇枪手写文章为了圈粉，实在令人气愤！本人以生命承诺，所有文章均我本人在工作之余写成。圈粉非我所欲，算命看风水依然非我所欲。\u003c/p\u003e\u003cp\u003e我学易几十载，博览群书，笔耕不辍是为了穷究易理。可惜写易几个月，见坦诚易学交流者少，背后藏头露尾恶言相喷的小人实在多。人性之恶可见一斑。\u003c/p\u003e\u003cp\u003e从河图、洛书、天干、地支、先后八卦、纳甲、纳音一路写来。为了证明文章皆我所写，今天中断《青囊序》的经文解读，补写一文，证明所有发表文章皆自写，思想脉络一脉相承。\u003c/p\u003e\u003cp\u003e今天讲讲二十四山阴阳顺逆相合，玄空飞星阴阳交媾。实际上这是理解地理阴阳的一把钥匙。\u003c/p\u003e\u003cp\u003e一、首先从先天八卦开始，我们知道邵雍学说，乾一兑二离三震四巽五坎六艮七坤八，那是先天卦序，并不是先天卦数，先天八卦之实数到底是什么？见下图。\u003c/p\u003e\u003cdiv class\u003d\"pgc-img\"\u003e\u003cimg src\u003d\"https://p3.pstatp.com/large/pgc-image/ee14f7706dad4654bea6f6bd7dcf0d2c\" img_width\u003d\"719\" img_height\u003d\"640\" inline\u003d\"0\" alt\u003d\"阴阳相逆生死门，罗经阴阳奥秘由此生\" onerror\u003d\"javascript:errorimg.call(this);\"\u003e\u003c/div\u003e\u003cp\u003e至于卦数是如何生成的，是太极生两仪，两仪生四象，四象生八卦得出来的。我在以前的文章反复写过。注意上面卦数，是不是如果东北和西南的二和八数字交换，数字一至九经过中宫是不是由小到大次序增加的线路就是阴阳太极图？所以罗盘就是一太极。\u003c/p\u003e\u003cdiv class\u003d\"pgc-img\"\u003e\u003cimg src\u003d\"https://p3.pstatp.com/large/pgc-image/f49ef33f0edb43bfac3cfeda6ef94485\" img_width\u003d\"640\" img_height\u003d\"703\" inline\u003d\"0\" alt\u003d\"阴阳相逆生死门，罗经阴阳奥秘由此生\" onerror\u003d\"javascript:errorimg.call(this);\"\u003e\u003c/div\u003e\u003cp\u003e看上图（注意上图数为卦序，非实数），震巽相对就在阴阳仪交界处。震为长男，巽为长女，成年男女交媾人伦始。自然界中，闪电制造氮肥，风雨润泽，万物由此生。\u003c/p\u003e\u003cp\u003e二、我们再来看后天八卦，后天八卦乾统三男于东北，坤领三女于西南。阴阳交换在艮坤二卦。见下图\u003c/p\u003e\u003cdiv class\u003d\"pgc-img\"\u003e\u003cimg src\u003d\"https://p3.pstatp.com/large/pgc-image/0cf7dd6090ac4c67bc1ed605d3f3c5e0\" img_width\u003d\"640\" img_height\u003d\"694\" inline\u003d\"0\" alt\u003d\"阴阳相逆生死门，罗经阴阳奥秘由此生\" onerror\u003d\"javascript:errorimg.call(this);\"\u003e\u003c/div\u003e\u003cp\u003e万物由土生，万物土中死。艮土近坎水为湿土，坤土近离火为干土。东北干土和西南湿土交替就如阳光雨露，水火交蒸而万物生。东北为八宫，西南为二宫，二八互换万物生，有生就有死，生死也是一对待。\u003c/p\u003e\u003cp\u003e三、从洛书九宫来说，后天八卦对应洛书九宫，二八位有二八星。\u003c/p\u003e\u003cdiv class\u003d\"pgc-img\"\u003e\u003cimg src\u003d\"https://p3.pstatp.com/large/pgc-image/ce1f8af57fba448eaa10f04f9174bd62\" img_width\u003d\"640\" img_height\u003d\"640\" inline\u003d\"0\" alt\u003d\"阴阳相逆生死门，罗经阴阳奥秘由此生\" onerror\u003d\"javascript:errorimg.call(this);\"\u003e\u003c/div\u003e\u003cp\u003e乾为天门，巽为地户。五入中宫顺、逆飞。洛书九宫每本宫和对宫成为一对待，本宫对宫数字相对合十。五入中宫顺、逆飞后，各宫顺、逆数字相加也合十。\u003c/p\u003e\u003cdiv class\u003d\"pgc-img\"\u003e\u003cimg src\u003d\"https://p3.pstatp.com/large/pgc-image/4851ad9e9df843faac652a09b0e6fce2\" img_width\u003d\"1843\" img_height\u003d\"640\" inline\u003d\"0\" alt\u003d\"阴阳相逆生死门，罗经阴阳奥秘由此生\" onerror\u003d\"javascript:errorimg.call(this);\"\u003e\u003c/div\u003e\u003cp\u003e看上图，经文曰：“龙分两片阴阳取”。入中宫的五黄就是大金龙！戊为阳土，己为阴土。乾为天门，巽为地户，乾为飞星开始宫位，巽为飞星完结方位。六星顺飞到天门乾宫，逆飞到地户巽宫。五黄金龙入中宫后，二、八星互飞到对宫，阴阳相见。阴阳相合，阴阳交媾就实现了。这就是天地阴阳交媾的法则。\u003c/p\u003e\u003cp\u003e《青囊奥语》经文曰：“坤壬乙，巨门从头出。艮丙辛，位位是破军。”坤二壬一乙三，为上元甲子统卦气。艮八丙九辛七为下元甲子统卦气。两句用艮坤二字来打头，表示天盘包括地、人两盘。艮为天，包括地丑人寅，坤为天，包括地未人申。\u003c/p\u003e\u003cp\u003e四、从奇门遁甲来说，二八位的艮坤为生死门。\u003c/p\u003e\u003cdiv class\u003d\"pgc-img\"\u003e\u003cimg src\u003d\"https://p3.pstatp.com/large/pgc-image/aad2d1dd5a4f46bc85a747c0dbe90f69\" img_width\u003d\"752\" img_height\u003d\"640\" inline\u003d\"0\" alt\u003d\"阴阳相逆生死门，罗经阴阳奥秘由此生\" onerror\u003d\"javascript:errorimg.call(this);\"\u003e\u003c/div\u003e\u003cp\u003e从上图看，乾宫天门位为开门，巽为地户为杜门，八宫艮位为生门，二宫坤位为死门。所以艮坤为生死门。\u003c/p\u003e\u003cp\u003e实际上，五入中逆行艮坤为二八，四入中艮坤为一七，三入中艮坤为九六，顺行则反。就是平时我们说的一四七、二五八、三六九。五黄运玄关在坤艮，余运在中宫戊己之中。经过河图、洛书、先后天八卦、五行、奇门的知识点串联。大家对二十四山的阴阳交媾有更深的认识了吗？\u003c/p\u003e\u003c/div\u003e",
    "source": "壹圆文化",
    "comment_count": 308,
    "logo_show_strategy": "normal",
    "hupu_content_image_urls": [
      ""
    ],
    "creator_uid": 5442441065
  },
  "success": true
}