{
  "_ck": {},
  "data": {
    "detail_source": "壹圆文化",
    "media_user": {
      "screen_name": "壹圆文化",
      "no_display_pgc_icon": false,
      "avatar_url": "https://p3.pstatp.com/thumb/ff4c0000329fa7e5df8e",
      "id": "1617719604580359",
      "user_auth_info": {
        "auth_type": "0",
        "other_auth": {
          "interest": "优质文化领域创作者"
        },
        "auth_info": "建筑公司总经理 优质文化领域创作者"
      }
    },
    "publish_time": 1565609477,
    "hotwords": [
      {
        "stress_type": 0,
        "hot_word": "录明星整容视频勒索"
      },
      {
        "stress_type": 1,
        "hot_word": "宁静再演孝庄"
      },
      {
        "stress_type": 0,
        "hot_word": "日常佩戴13公斤黄金"
      },
      {
        "stress_type": 0,
        "hot_word": "中国化工集团被约谈"
      },
      {
        "stress_type": 0,
        "hot_word": "医生用筷子紧急救人"
      },
      {
        "stress_type": 1,
        "hot_word": "黄渤回应女版黄渤"
      },
      {
        "stress_type": 1,
        "hot_word": "贾跃亭股份被冻结"
      },
      {
        "stress_type": 1,
        "hot_word": "买老鼠夹送香肠"
      }
    ],
    "title": "阳宅该如何使用八卦和飞星",
    "url": "http://toutiao.com/group/6723852406209118724/",
    "high_quality_flag": "0",
    "impression_count": "20462",
    "is_original": true,
    "is_pgc_article": true,
    "content": "\u003cdiv\u003e\u003cp\u003e阳宅相对阴坟来说，在堪舆上就简单得多了。没有那么多复杂的理论。有些阳宅理论根本都用不到二十四山，比如八宅法。\u003c/p\u003e\u003cp\u003e就是用到二十四山向的，也是从后天八卦九宫入手。虽然阴阳顺逆和阴宅相同，用法有点不一样。因为阳宅主要为动象，应验较速，就如阴宅的向上水法一样。\u003c/p\u003e\u003cp\u003e阳宅当元乘令直接涉及到人。只取令星，不取进气，令星专用一六八为三吉，过时则成凶。阴宅不一样，除了取令星，还要兼取进气。\u003c/p\u003e\u003cp\u003e先说说八宅法。八宅法简直是太简单了，只要有点头脑的，认真看几遍都能掌握七七八八。八宅法，香港很多风水师在使用。这时简单教教大家。先看个图\u003c/p\u003e\u003cdiv class\u003d\"pgc-img\"\u003e\u003cimg src\u003d\"https://p3.pstatp.com/large/pgc-image/56520754a66544358bb0ccb8029b9667\" img_width\u003d\"2955\" img_height\u003d\"2799\" inline\u003d\"0\" alt\u003d\"阳宅该如何使用八卦和飞星\" onerror\u003d\"javascript:errorimg.call(this);\"\u003e\u003cp class\u003d\"pgc-img-caption\"\u003e\u003c/p\u003e\u003c/div\u003e\u003cp\u003e八宅法是以大门的朝向来定宅主卦的，因为人员进出主要靠大门。比如上图坐北朝南，就是坎宅。北方坎卦就是伏位。其它七方，就以跟主卦的关系来定吉凶了。\u003c/p\u003e\u003cp\u003e其它七宫与主卦的关系，是用九星翻卦的方法推出的。一般认为，阴宅用小游年翻法，阳宅用大游年翻法。我在以前的文章中教过大家如何巧妙记忆九星翻卦。\u003c/p\u003e\u003cp\u003e理解了就不用背上中下中这样的九星口诀了。比如上图坎宅主卦为坎卦。每卦天地人三爻。上爻变就是生气。坎卦上爻变为巽卦。实际上和主卦是同根于太阳、少阴等四象关系。在星为贪狼，在卦数是合二七同道。\u003c/p\u003e\u003cdiv class\u003d\"pgc-img\"\u003e\u003cimg src\u003d\"https://p3.pstatp.com/large/pgc-image/eb0f39ec051647e88a4dae5d4e85db2d\" img_width\u003d\"640\" img_height\u003d\"618\" inline\u003d\"0\" alt\u003d\"阳宅该如何使用八卦和飞星\" onerror\u003d\"javascript:errorimg.call(this);\"\u003e\u003cp class\u003d\"pgc-img-caption\"\u003e\u003c/p\u003e\u003c/div\u003e\u003cp\u003e巽卦在后天九宫中在东南，所以该宅东南位就是生气。同样的，三爻全变是延年，相当于房屋重建。其实就是后天合十，主卦与变卦夫妇相合，颐养天年。\u003c/p\u003e\u003cp\u003e比较重要的是天医位，这是财位、健康位。天医就是人随地走，上天照应，变的是中下爻，坎卦变震卦，震在东方，所以东方是坎宅的财位。\u003c/p\u003e\u003cp\u003e还有比较重要的是五鬼位，人随天走，变中上爻，坎卦变艮卦。人跟天，地道为阴好杀，出五鬼。这是大病位。还有个重要的位是六煞位，就上下爻变，坎卦变乾卦，天地已变，人在其中无所依，这种情况人就容易抱团，所以利于交流。六煞位就是桃花位。\u003c/p\u003e\u003cp\u003e香港风水师认为，家宅中最重要天医、五鬼、六煞。我们在购宅、装修时就可以这样去考虑了。比如天医财位最好布置睡床或坐位，有利旺财和健康。六煞桃花位布置成客厅或者办公室接待沙发位置，有利于增强人际关系。\u003c/p\u003e\u003cp\u003e五鬼大病位最好安放厕所，病随晦气冲走。五鬼位千万不能安灶做厨房，否则火烧五鬼，全家病怏怏。所以八宅用来房屋内的布局。\u003c/p\u003e\u003cp\u003e八宅法很少用元运飞星，一般用流年运，一六八白星飞临之宫都算吉星。二黑五黄就是凶星。流年飞星是按一年一年飞的，比如今年是八白入中飞。凶星到临就要化了。\u003c/p\u003e\u003cp\u003e按流年运，二五到临方千万不能动土。说到不能动土，我自己到有个例子。有一年在家里，我自己在五黄到临方动土了，结果当月肾结石痛得实在难受。所以我琢磨了一下，风水的东西还真是难说。\u003c/p\u003e\u003cp\u003e古代阳宅八法还有东四宅和西四宅的说法。东四命的人要住东四宅，西四命的要住西四宅。在我看来这就有点胡扯，虽然说是以家主为准。现在的房屋结构跟以前也完成不同了。一家人住一起，实在是没办法兼顾。\u003c/p\u003e\u003cp\u003e下面还是讲讲复杂一点的吧。地理本来和奇门是相通的。阳宅动象就更加和奇门相合。相阳宅，九星以一六八为吉。就是奇门的休、开、生三门。如下图。\u003c/p\u003e\u003cdiv class\u003d\"pgc-img\"\u003e\u003cimg src\u003d\"https://p3.pstatp.com/large/pgc-image/192d05d982c243b6a49e2aa12bdbbbfb\" img_width\u003d\"640\" img_height\u003d\"544\" inline\u003d\"0\" alt\u003d\"阳宅该如何使用八卦和飞星\" onerror\u003d\"javascript:errorimg.call(this);\"\u003e\u003cp class\u003d\"pgc-img-caption\"\u003e\u003c/p\u003e\u003c/div\u003e\u003cp\u003e奇门是重门而轻奇的，所以得奇不如得门，以后有机会给大家写写奇门。\u003c/p\u003e\u003cp\u003e阳宅宅内来说，门路视为水，家里灶台等视为山。神位、灶台、进水应该设在吉方。厕所及牲畜关养等污秽地方，宜在凶方。\u003c/p\u003e\u003cp\u003e相阳宅的方法，可以将整个房屋的布局画成九宫格。如果不规则，就可以从中心点出发，画辐射图来布八卦二十四山。然后看飞星的吉凶。\u003c/p\u003e\u003cp\u003e第一，要以宅内的门路为要紧。第二以宅外街巷道路、通风处为要紧。这些以向盘来断。宅内灶 ，宅外的桥梁、亭台楼阁，从山盘来断。\u003c/p\u003e\u003cp\u003e阳宅内用山向盘论方位，六白武曲所到方向宜开门，一白贪狼所到方位宜做主房或主卧，八白辅星所到方位可以做新房，早生贵子。\u003c/p\u003e\u003cp\u003e下面用一运癸山丁向宅来举例说明。一白运，六到癸山，五到向。六五入中顺逆飞。\u003c/p\u003e\u003cdiv class\u003d\"pgc-img\"\u003e\u003cimg src\u003d\"https://p3.pstatp.com/large/pgc-image/450608b15add46d58bfeb6645d78997a\" img_width\u003d\"2856\" img_height\u003d\"2328\" inline\u003d\"0\" alt\u003d\"阳宅该如何使用八卦和飞星\" onerror\u003d\"javascript:errorimg.call(this);\"\u003e\u003cp class\u003d\"pgc-img-caption\"\u003e\u003c/p\u003e\u003c/div\u003e\u003cp\u003e看上图，向上一六吉星到离巽两宫。这时如果大门和路在巳丙之间。或者新房门对准两宫中间，即巳丙中间开门。左扇在巳，右扇在丙。再加上年月日三白到临巳丙，这时安装大门，则必然生子，百发百中。\u003c/p\u003e\u003cp\u003e物各有命，有命就有运。阳宅也一样，有命也有运。阳宅建造的时候的元运，就确定了这宅山向的命。宅既有命，子孙后代承继其，却各有运不同。\u003c/p\u003e\u003cp\u003e阳宅的起运立命，应该这样来推断。住宅一般以进入饮食起居为起运立命。所以我们客家人都会挑个吉日，搬进新房。\u003c/p\u003e\u003cp\u003e从吉时起，在新房点火暖灶，烹煮食物不断火。有条件的一般从旧带屋火种过去，俗称“搬火”。不便带火，就会把旧厨房锅灶等旧物件带过去。薪火相传嘛。\u003c/p\u003e\u003cp\u003e对工厂、公司、企业来说，正式办公营运开始起运立命，大多是放串鞭炮，搞个活动热闹开业。不管住宅、工厂、办公场所，换了主人，其运要重新开始算的。空置七七四九天后再进入的，其运程照样会改变。\u003c/p\u003e\u003c/div\u003e",
    "source": "壹圆文化",
    "comment_count": 159,
    "logo_show_strategy": "normal",
    "hupu_content_image_urls": [
      ""
    ],
    "creator_uid": 5442441065
  },
  "success": true
}