{
  "_ck": {},
  "data": {
    "detail_source": "壹圆文化",
    "media_user": {
      "screen_name": "壹圆文化",
      "no_display_pgc_icon": false,
      "avatar_url": "https://p3.pstatp.com/thumb/ff4c0000329fa7e5df8e",
      "id": "1617719604580359",
      "user_auth_info": {
        "auth_type": "0",
        "other_auth": {
          "interest": "优质文化领域创作者"
        },
        "auth_info": "建筑公司总经理 优质文化领域创作者"
      }
    },
    "publish_time": 1565704896,
    "hotwords": [
      {
        "stress_type": 0,
        "hot_word": "录明星整容视频勒索"
      },
      {
        "stress_type": 1,
        "hot_word": "宁静再演孝庄"
      },
      {
        "stress_type": 0,
        "hot_word": "日常佩戴13公斤黄金"
      },
      {
        "stress_type": 0,
        "hot_word": "中国化工集团被约谈"
      },
      {
        "stress_type": 0,
        "hot_word": "医生用筷子紧急救人"
      },
      {
        "stress_type": 1,
        "hot_word": "黄渤回应女版黄渤"
      },
      {
        "stress_type": 1,
        "hot_word": "贾跃亭股份被冻结"
      },
      {
        "stress_type": 1,
        "hot_word": "买老鼠夹送香肠"
      }
    ],
    "title": "什么是直向挨星法？",
    "url": "http://toutiao.com/group/6724551590444794371/",
    "high_quality_flag": "0",
    "impression_count": "9937",
    "is_original": true,
    "is_pgc_article": true,
    "content": "\u003cdiv\u003e\u003cp\u003e今天来说点特别的。我们知道，世上武功，除了恢宏正大的少林、武当功外，还有什么峨嵋刺、崆峒七伤拳之类的有效武技。\u003c/p\u003e\u003cp\u003e风水技法也是一样，除三元三合玄空等大流派外，也有些行之有效的堪舆方法。比如今天要讲的直向挨星法。我们知道立向有正向，有兼向。很少人会提到直向，直向挨星是什么？今天就来讲一讲。\u003c/p\u003e\u003cp\u003e直向的说法，似乎是来自于章仲山，当时人们称之为“拗马”。取愈错愈直，愈拗愈正的意思。拿现在的话来说，就是歪打可以正着。\u003c/p\u003e\u003cp\u003e沈氏玄空说：“立向之法，正向、兼向之外，更有所谓的直向，包括错卦和互卦。”这个方法主要用于出宫兼和阴阳互兼。\u003c/p\u003e\u003cp\u003e首先来普及一下六十四卦的错卦和互卦的概念。本卦六爻阴变阳、阳变阴，就是错卦。比如下图屯卦的错卦是鼎卦，蒙卦的错卦是革卦。\u003c/p\u003e\u003cdiv class\u003d\"pgc-img\"\u003e\u003cimg src\u003d\"https://p3.pstatp.com/large/pgc-image/9483581d648247d586e991d902615736\" img_width\u003d\"640\" img_height\u003d\"374\" inline\u003d\"0\" alt\u003d\"什么是直向挨星法？\" onerror\u003d\"javascript:errorimg.call(this);\"\u003e\u003cp class\u003d\"pgc-img-caption\"\u003e\u003c/p\u003e\u003c/div\u003e\u003cp\u003e卦倒翻过来叫综卦，也叫覆卦，比如屯卦变蒙卦。至于互卦，就是二三四爻组成下卦，三四五组成上卦。比如上图屯卦，三四五爻组成艮卦，二三四组成坤卦，所以屯卦藏互卦是山地剥卦。\u003c/p\u003e\u003cp\u003e但是，经过我研究，这种直向挨星法，有错卦和互卦的叫法。其实跟六十四卦的错卦和互卦半毛钱关系都没有，看来是挂羊头卖狗肉。既然这样叫，我们只能照样用。\u003c/p\u003e\u003cp\u003e下面就来讲讲直向挨星法的错卦与互卦的用法。首先，来教大家一个按九宫顺序的排山掌法。如下图\u003c/p\u003e\u003cdiv class\u003d\"pgc-img\"\u003e\u003cimg src\u003d\"https://p3.pstatp.com/large/pgc-image/c538ca900dce4f70bd76b4dafa58d5d4\" img_width\u003d\"2784\" img_height\u003d\"3404\" inline\u003d\"0\" alt\u003d\"什么是直向挨星法？\" onerror\u003d\"javascript:errorimg.call(this);\"\u003e\u003cp class\u003d\"pgc-img-caption\"\u003e\u003c/p\u003e\u003c/div\u003e\u003cp\u003e顺序是按洛书数，但是不按洛书轨迹。方位也不按九宫，排在手掌上转圈圈。这个排山方法，我在以前的文章中是没有讲过的。\u003c/p\u003e\u003cp\u003e直向挨星法中，不管是错卦还是互卦，都是按以前写的方法飞运盘。运星入中，顺排八宫。然后再用到山到向的运星，按“坤壬乙”替卦挨星口诀再挨排。错卦是顺排八宫，互卦是逆排八宫。\u003c/p\u003e\u003cp\u003e需要注意的是，山向挨排时，应该按上述排山掌，不是入中从中宫出发，而是从山、向本宫出发。而且不论阴阳，错卦一律顺挨，互卦一律逆挨。\u003c/p\u003e\u003cp\u003e那么，直向挨星法用的“坤壬乙”挨星口诀是怎么样的呢？这里简述一下。壬子癸三山，子癸不能替，壬阳一可变二。未坤申三山，未坤不能替，申阳二可变一。甲卯乙三山，甲阳三可替成阳一，卯乙阴三可替成卯乙阴二。辰巽巳四星可替成六星。\u003c/p\u003e\u003cp\u003e五黄不可替，阴阳随到宫干支。戌乾亥三山六星不可替。庚酉辛三山，酉辛七星不可替，庚阳七可替成九。丑艮寅三山，丑艮八星可替成七星，寅八可替成九阳。丙午丁三山，午丁不替，丙九可替成七星。\u003c/p\u003e\u003cp\u003e下面以八运亥山巳向兼壬丙来举例说明这种挨排方法。首先来看看互卦，山向都逆排。\u003c/p\u003e\u003cdiv class\u003d\"pgc-img\"\u003e\u003cimg src\u003d\"https://p3.pstatp.com/large/pgc-image/1ea7f8d3104849638a0f2f8e43410e08\" img_width\u003d\"2786\" img_height\u003d\"3038\" inline\u003d\"0\" alt\u003d\"什么是直向挨星法？\" onerror\u003d\"javascript:errorimg.call(this);\"\u003e\u003cp class\u003d\"pgc-img-caption\"\u003e\u003c/p\u003e\u003c/div\u003e\u003cp\u003e首先八运八入中顺排，七星到向，九星到山。按上述挨星口诀，到亥山九星丁不变。按排山掌逆排。到巳向七星辛不变，按排山掌逆排。山向飞星按互卦逆挨排成下图。\u003c/p\u003e\u003cdiv class\u003d\"pgc-img\"\u003e\u003cimg src\u003d\"https://p3.pstatp.com/large/pgc-image/ba083f8fdc0d45d38c02244ddbe05e1c\" img_width\u003d\"2922\" img_height\u003d\"3662\" inline\u003d\"0\" alt\u003d\"什么是直向挨星法？\" onerror\u003d\"javascript:errorimg.call(this);\"\u003e\u003cp class\u003d\"pgc-img-caption\"\u003e\u003c/p\u003e\u003c/div\u003e\u003cp\u003e如果是按错卦，山向之星就从山向本宫出发顺挨。错卦、互卦的方法大家都理解了吧。排山掌诀确实没什么新意。况且还兼顾不了方位。不好用，所以还不如用洛书九宫。\u003c/p\u003e\u003cp\u003e至于什么时候用错卦，什么时候用互卦，我也没有查到过，自己也没有研究出来。就象开篇用武功来形容的一样，偏门厉害的功法也就是那么几招。直向挨星法只有直向互卦二局，直向错卦十二局。这里就不一一列举了，有兴趣研究这方面的易友可以自己查下这十四局。\u003c/p\u003e\u003cp\u003e既然挂了易经错卦、互卦的名，总是要和六十四卦勾搭上点关系。我们知道，易经之所以广大悉备，无所不包。正是因为易经是讲变化的书。正是因为有了错卦、综卦、互卦，才能用六十四卦的卦爻来描述天地万物的千变万化和错综复杂。有了变化，才有生生不息。\u003c/p\u003e\u003cp\u003e风水最怕孤阴不长，独阳不生。所以，直向挨星法也说最怕八纯卦，无变化。拿挨星来说，就怕是宫宫都同星，没有合也没有冲，死气沉沉。比如六运巳山亥向的错卦。\u003c/p\u003e\u003cdiv class\u003d\"pgc-img\"\u003e\u003cimg src\u003d\"https://p3.pstatp.com/large/pgc-image/04071226aaa442f4979b85f77429e3ed\" img_width\u003d\"2948\" img_height\u003d\"2648\" inline\u003d\"0\" alt\u003d\"什么是直向挨星法？\" onerror\u003d\"javascript:errorimg.call(this);\"\u003e\u003cp class\u003d\"pgc-img-caption\"\u003e\u003c/p\u003e\u003c/div\u003e\u003cp\u003e王则先说：“此局山向星字字相同，一无变化，主大凶。”玄空以变化为生机，无变化即无生机。\u003c/p\u003e\u003cp\u003e至于其它几局怎么看，一看形峦，二看挨到的宫内各星。比如大家喜欢念的：“坎离水火中天过，龙墀移帝座。”就是中宫一星和九星合十，主贵，发福悠久。\u003c/p\u003e\u003cp\u003e好了，偏门的东西不多写。存在即合理，应该是有用。\u003c/p\u003e\u003c/div\u003e",
    "source": "壹圆文化",
    "comment_count": 48,
    "logo_show_strategy": "normal",
    "hupu_content_image_urls": [
      ""
    ],
    "creator_uid": 5442441065
  },
  "success": true
}