{
  "_ck": {},
  "data": {
    "detail_source": "壹圆文化",
    "media_user": {
      "screen_name": "壹圆文化",
      "no_display_pgc_icon": false,
      "avatar_url": "https://p3.pstatp.com/thumb/ff4c0000329fa7e5df8e",
      "id": "1617719604580359",
      "user_auth_info": {
        "auth_type": "0",
        "other_auth": {
          "interest": "优质文化领域创作者"
        },
        "auth_info": "建筑公司总经理 优质文化领域创作者"
      }
    },
    "publish_time": 1570766681,
    "hotwords": [
      {
        "stress_type": 0,
        "hot_word": "录明星整容视频勒索"
      },
      {
        "stress_type": 1,
        "hot_word": "宁静再演孝庄"
      },
      {
        "stress_type": 0,
        "hot_word": "日常佩戴13公斤黄金"
      },
      {
        "stress_type": 0,
        "hot_word": "中国化工集团被约谈"
      },
      {
        "stress_type": 0,
        "hot_word": "医生用筷子紧急救人"
      },
      {
        "stress_type": 1,
        "hot_word": "黄渤回应女版黄渤"
      },
      {
        "stress_type": 1,
        "hot_word": "贾跃亭股份被冻结"
      },
      {
        "stress_type": 1,
        "hot_word": "买老鼠夹送香肠"
      }
    ],
    "title": "数由心生，头脑成象，学易入门的捷径在象和数",
    "url": "http://toutiao.com/group/6746351641630343684/",
    "high_quality_flag": "0",
    "impression_count": "1664",
    "is_original": true,
    "is_pgc_article": true,
    "content": "\u003cdiv\u003e\u003cp\u003e我发现，学易之人的感受大致可以分为两种。\u003c/p\u003e\u003cp\u003e一种觉得学易其实很简单，易有三义嘛，简易、变易、不易。很好理解，一看就懂，跟人生大道理一样。\u003c/p\u003e\u003cp\u003e但是，如果你问他易有什么应用？那就可能一脸惘然，会说：易经不就是讲趋吉避凶的道理吗？易经的智慧不就全部在《周易》和《十翼》上嘛。至于其它术数之类的，那是末流。\u003c/p\u003e\u003cdiv class\u003d\"pgc-img\"\u003e\u003cimg src\u003d\"https://p3.pstatp.com/large/pgc-image/091fef2429104012ae278e380693fc83\" img_width\u003d\"448\" img_height\u003d\"300\" inline\u003d\"0\" alt\u003d\"数由心生，头脑成象，学易入门的捷径在象和数\" onerror\u003d\"javascript:errorimg.call(this);\"\u003e\u003cp class\u003d\"pgc-img-caption\"\u003e\u003c/p\u003e\u003c/div\u003e\u003cp\u003e这类学易之人，非常喜欢有些台湾教授讲的易经，他们科班出身，讲得通俗易懂，简单朴素。并且可以引申到社会、人事管理各方面，也有现实指导意义。\u003c/p\u003e\u003cp\u003e但是，你仔细一琢磨，他所谓的管理，其实就是儒家传统文化管人的那一套，所谓的传统文化，就是教人如何去做人，也就是儒家的中庸和德行。披着易经的外衣讲的却是儒家的道理。\u003c/p\u003e\u003cp\u003e这种对易的解读，跟天地自然之易道相去甚远。因为简单实用，所以很多人就觉得易经也很简单。几天，或者几个月，就能学会了。\u003c/p\u003e\u003cp\u003e另外一种，就是觉得《周易》的卦爻辞诘屈聱牙，经文晦涩难懂。在实际占测时，有时觉得蛮准很多道理，有时又觉得用卦爻辞的说法似是而非，无从捉摸。很多时候只能自圆其说。\u003c/p\u003e\u003cp\u003e这不能怪我们学易之人，因为文王、周公系辞传易以教化百姓，用的很多字词就是当时西歧的社会场景和人生百态，才利于当时百姓接受。\u003c/p\u003e\u003cp\u003e我有个朋友是咸阳当地爱好周易的知识分子，经他考据，周易有些卦爻辞的字音字义，跟当地农村存有的个别土话，还有很多相通的地方。并且能很好地解通。\u003c/p\u003e\u003cdiv class\u003d\"pgc-img\"\u003e\u003cimg src\u003d\"https://p3.pstatp.com/large/pgc-image/95057f61202c4b1a9f4ec2dd6cdd5ad9\" img_width\u003d\"345\" img_height\u003d\"300\" inline\u003d\"0\" alt\u003d\"数由心生，头脑成象，学易入门的捷径在象和数\" onerror\u003d\"javascript:errorimg.call(this);\"\u003e\u003cp class\u003d\"pgc-img-caption\"\u003e\u003c/p\u003e\u003c/div\u003e\u003cp\u003e几千年前一个地方的生活状态和现代社会早已是面目全非，用的字词在传承中又有错谬，其字义也早已东非西指，产生千百年来对字音字义的争执。现代人学易从卦爻辞出发，就有点盲人摸象。\u003c/p\u003e\u003cp\u003e以上两种学易之人，就是首先进入《周易》和《十翼》的经文，偏离了大易之道。所以陈抟说：\u003cstrong\u003e易道不兴，乃有周孔，周孔孤行，易道复晦\u003c/strong\u003e。\u003c/p\u003e\u003cp\u003e实际上大易也好，正易也好，其实很多都在道家内传承。易经本来也走的是一阴一阳两条线，才能具有强大的生命力，才可成为群经之始，群经之首。\u003c/p\u003e\u003cp\u003e除了上述两种学易之人外，面对浩如烟海的易学，其实有更多的易学爱好者，是感到无从着手，一片惘然。\u003c/p\u003e\u003cp\u003e是不是学易就真的难以入门了呢？也不是。我给大家举个例子，不知有没有易友看过《高岛易断》这本书。这是日本人高岛吞象写的。\u003c/p\u003e\u003cp\u003e高岛吞象也是遭陷害坐牢的时候，接触了翻译的《周易》而痴迷其中。他在日本易学史上是很有名的，据说是断验如神。日本很多军国大事都请他占测，其中就有应验的中日甲午战争。\u003c/p\u003e\u003cp\u003e一个日本人，不可能在对中国文字的理解上强过从小学母语的我们。那他为什么玩《周易》比我们易学爱好者还更顺溜呢？我举个他占验的例子。\u003c/p\u003e\u003cp\u003e有一下午，他在日本去一个山中访友，沿路看到一些动物的异象，于是就起了心思，到朋友家中马上起了一卦，占到的是地山谦卦。\u003c/p\u003e\u003cp\u003e这就让他迷惑不解了，谦卦六爻皆吉，卦爻辞都很吉利啊，为什么会不安呢？换作是普通易友，可能就一笑了之。可他是对周易是很敬仰的，知道不会有无缘无故的卦示。\u003c/p\u003e\u003cp\u003e后来仔细琢磨卦象，地山谦卦，上地下山，山在地下，大势不妙啊，有地动山摇之象。朋友也是易友，却不以为然，竭力挽留他住一夜。他不肯留宿，匆匆下山了。果然，当夜那个地方就发生地震了。\u003c/p\u003e\u003cp\u003e上述占卦例子，卦爻辞等经文根本不起作用，要的是心有灵犀，灵机一动。就象火珠林等占测方法一样，根本不用卦爻辞，就用象数。\u003c/p\u003e\u003cp\u003e象数是易学的源起，也是易学的根本，也是进入易学殿堂的捷径。为什么这么说？因为对象和数的理解能力我们天生就有，从基因中就带来。\u003c/p\u003e\u003cdiv class\u003d\"pgc-img\"\u003e\u003cimg src\u003d\"https://p3.pstatp.com/large/pgc-image/ef7eb2746be34035b3528c6b44a51c1c\" img_width\u003d\"335\" img_height\u003d\"300\" inline\u003d\"0\" alt\u003d\"数由心生，头脑成象，学易入门的捷径在象和数\" onerror\u003d\"javascript:errorimg.call(this);\"\u003e\u003cp class\u003d\"pgc-img-caption\"\u003e\u003c/p\u003e\u003c/div\u003e\u003cp\u003e象，千古不易。不管过了几千年，天上还是那个日月，地上还是有山川草木，天地雷风等八大自然现象跟千年前也没有什么两样。\u003c/p\u003e\u003cp\u003e人类作为万物之灵，天生对图形图象就有直觉，比如婴孩的教育首先就可以从认物、识图开始。我有个八十多岁的长辈，没有上过一天学，也没有识过字。通过看电视就能用很多字，根本不是文盲。\u003c/p\u003e\u003cp\u003e用数的能力，也是与生俱来的，我接触过一些农村贩菜大妈，也是没有上过一天学，更不用说学数学。但她们做生意，算盘打得贼精明。算数的速度，我是自叹不如。\u003c/p\u003e\u003cp\u003e再举个张至顺道长的例子，道长的道医术很高明。但他很多简体字不认识，他学字专门查康熙字典和看《道藏》。\u003c/p\u003e\u003cp\u003e如果你写一个繁体字给他看，他能通过分析这个字的阴阳五行，从而说出这个字到底是什么意思来。认不出字却能说出此字的意思，都是因为我们古代文字就是象形文字。\u003c/p\u003e\u003cp\u003e文字中就有天地自然的道理。但是如果要读懂易经的经文，没有深厚的文字功底可不行。学易，从象和数入手，反而显得更简单易行。\u003c/p\u003e\u003c/div\u003e",
    "source": "壹圆文化",
    "comment_count": 24,
    "logo_show_strategy": "normal",
    "hupu_content_image_urls": [
      ""
    ],
    "creator_uid": 5442441065
  },
  "success": true
}