{
  "_ck": {},
  "data": {
    "detail_source": "壹圆文化",
    "media_user": {
      "screen_name": "壹圆文化",
      "no_display_pgc_icon": false,
      "avatar_url": "https://p3.pstatp.com/thumb/ff4c0000329fa7e5df8e",
      "id": "1617719604580359",
      "user_auth_info": {
        "auth_type": "0",
        "other_auth": {
          "interest": "优质文化领域创作者"
        },
        "auth_info": "建筑公司总经理 优质文化领域创作者"
      }
    },
    "publish_time": 1571797764,
    "hotwords": [
      {
        "stress_type": 0,
        "hot_word": "录明星整容视频勒索"
      },
      {
        "stress_type": 1,
        "hot_word": "宁静再演孝庄"
      },
      {
        "stress_type": 0,
        "hot_word": "日常佩戴13公斤黄金"
      },
      {
        "stress_type": 0,
        "hot_word": "中国化工集团被约谈"
      },
      {
        "stress_type": 0,
        "hot_word": "医生用筷子紧急救人"
      },
      {
        "stress_type": 1,
        "hot_word": "黄渤回应女版黄渤"
      },
      {
        "stress_type": 1,
        "hot_word": "贾跃亭股份被冻结"
      },
      {
        "stress_type": 1,
        "hot_word": "买老鼠夹送香肠"
      }
    ],
    "title": "如何用河图数理来揭示天干合化的奥秘？十天干五行如何快速记忆？",
    "url": "http://toutiao.com/group/6750550669138067975/",
    "high_quality_flag": "0",
    "impression_count": "1463",
    "is_original": true,
    "is_pgc_article": true,
    "content": "\u003cdiv\u003e\u003cp\u003e上一篇文章用河图来说明，在易学应用上五方、五行的相关规定。\u003c/p\u003e\u003cp\u003e在河图上，你很容易发现东木生南火，南火生中土，中土生西金，西金生北水，北水生东木这样的五行相生的循环规律。\u003c/p\u003e\u003cp\u003e除了五行，还有四时的规定，东南西北就是春夏秋冬的四时的循环。阴阳二气播四时，就用十天干来命名。\u003c/p\u003e\u003cp\u003e十天干阴阳各五，按照《释名》和《说文解字》释义，十天干是如下含义：\u003c/p\u003e\u003cp\u003e甲、乙是草木破土萌芽和初生枝叶屈曲生长之时；丙、丁指万物沐浴阳光并且成长壮实之时；戊、己是大地草木繁盛和有形可纪之时；庚、辛是秋收和万物秀实新成之时；壬、癸是阳气伏地，万物怀育及闭藏之时。\u003c/p\u003e\u003cp\u003e从以上描述可知，十天干就是一年中物候。放在易学上，就是讲阴阳五行之气的兴盛衰替。按四时布在河图上，就是一个十进制的循环，非常形象好记。\u003c/p\u003e\u003cdiv class\u003d\"pgc-img\"\u003e\u003cimg src\u003d\"https://p3.pstatp.com/large/pgc-image/34c87012121c43539351318dbd64cd00\" img_width\u003d\"2166\" img_height\u003d\"1786\" inline\u003d\"0\" alt\u003d\"如何用河图数理来揭示天干合化的奥秘？十天干五行如何快速记忆？\" onerror\u003d\"javascript:errorimg.call(this);\"\u003e\u003cp class\u003d\"pgc-img-caption\"\u003e\u003c/p\u003e\u003c/div\u003e\u003cp\u003e河图数理，五方各有一对奇、偶数。对应五行分阴阳，就是十天干。十天干就是天时的十进制循环。\u003c/p\u003e\u003cp\u003e东方甲乙木，南方丙丁火，中宫戊己土，西方庚辛金，北方壬癸水。中医的五运六气也是这样的规定。\u003c/p\u003e\u003cp\u003e给大家强调一下，河图虽然配五方、五行、天干等，但是纯数字是不带属性的。在哪个位置就属于什么性质，比如，九在西方就是属金，到了南方自然属火。\u003c/p\u003e\u003cp\u003e天南地北，也是我们北半球大陆的视野角度。五方和五行是固定的，这在现实地理位置也对应。\u003c/p\u003e\u003cp\u003e比如东方木气，华东地区物产富饶，做学问的人也多，你看看两院院士，江浙一带，占比最多。还有南方炎热，北方寒冷，西方肃杀等等。\u003c/p\u003e\u003cp\u003e十天干就是十个数字，分了阴阳就如五和十的关系，未分时是五行，其数为五。分阴阳后数即为十，五行有阴阳而为用。这也是五为太极，虚十以用的道理。\u003c/p\u003e\u003cp\u003e陈抟在《龙图序》中说：“一为道之宗，六为形之祖，皆不用。”天数二十五，用二十四。地数三十，也用二十四。\u003c/p\u003e\u003cp\u003e上位中心去一见二十四，下位中心去六也见二十四。一年三百六十天，二十四节气成一周，阴阳进退就用二十四。\u003c/p\u003e\u003cp\u003e在前面说过，数是不带属性的。我们可以用十天干来对应十数，甲配一，乙配二，一直到癸配十。利用河图的数理体系就可以揭示十天干合化的秘密。\u003c/p\u003e\u003cp\u003e水土同根，将中土和北水交换位置，河图变体。五十在北，一六在中，即成下图。\u003c/p\u003e\u003cdiv class\u003d\"pgc-img\"\u003e\u003cimg src\u003d\"https://p3.pstatp.com/large/pgc-image/8f3fd9daeb3c4e88ba4fb7f1f3be06a5\" img_width\u003d\"323\" img_height\u003d\"300\" inline\u003d\"0\" alt\u003d\"如何用河图数理来揭示天干合化的奥秘？十天干五行如何快速记忆？\" onerror\u003d\"javascript:errorimg.call(this);\"\u003e\u003cp class\u003d\"pgc-img-caption\"\u003e\u003c/p\u003e\u003c/div\u003e\u003cp\u003e因为讲天干合化，所以一为道之宗，隐去不用。下位六也不用。看上图，中间六不用，纵横数字相加。横向四个数字8+3+4+9\u003d24，纵向7+2+5+10\u003d24。\u003c/p\u003e\u003cp\u003e这是天地阴阳进退都用二十四的数理。天上用二十四节气，人间用二十四小时，我们都说是科学。地上用二十四向，我们认为是迷信，真是不可思议。\u003c/p\u003e\u003cp\u003e上图不仅告诉我们天地用二十四的道理，而且也揭示了天干合化的秘密。利用变体河图和正体河图数理就可推导天干合化的五行。\u003c/p\u003e\u003cp\u003e甲一己六居中，得中间五十土气，所以甲己合化成土。戊五癸十到了北边，得北方一六合七之火气，所以戊癸合化成火。丙三辛八在东边，得了三八合十一的水气，所以丙辛合化成水。\u003c/p\u003e\u003cp\u003e丁四壬九在西边，得了四九合十三之木气，所以丁壬合化成木。乙二庚七在南边，得了二七合九的金气，所以乙庚合化成金。\u003c/p\u003e\u003cp\u003e注意，相合则相加，相加取余数，余数用的五行就是原来正体河图规定的五行：一水在北，三木在东，七火在南，九金在西。\u003c/p\u003e\u003cp class\u003d\"ql-align-justify\"\u003e\u003cbr\u003e\u003c/p\u003e{!-- PGC_COLUMN --}\u003cdiv class\u003d\"pgc-img\"\u003e\u003cimg src\u003d\"https://p3.pstatp.com/large/pgc-image/dff0c326d3b94137b8c541863e9a958c\" img_width\u003d\"2166\" img_height\u003d\"1786\" inline\u003d\"0\" alt\u003d\"如何用河图数理来揭示天干合化的奥秘？十天干五行如何快速记忆？\" onerror\u003d\"javascript:errorimg.call(this);\"\u003e\u003cp class\u003d\"pgc-img-caption\"\u003e\u003c/p\u003e\u003c/div\u003e\u003cp\u003e有的易学家从本干起子，从辰而化，利用干支合用来推求天干合化之理。\u003c/p\u003e\u003cp\u003e比如甲己起甲子，得戊辰。乙庚起丙子，得庚辰。丙辛起戊子，得壬辰。丁壬起庚子，得甲辰。戊癸起壬子，得壬辰。\u003c/p\u003e\u003cp\u003e意思就是跟辰相配的天干而化，因为辰为龙，行变化。比如甲己得戊辰，辰之干为戊土，所以甲己合化成土。\u003c/p\u003e\u003cp\u003e按这种方法难背难理解，还不如象我这样用河图数理来推，知其所以然，还形象好记。\u003c/p\u003e\u003cp\u003e至于从辰而化的道理，用河图数理也完全可以讲清楚。辰为东方土，又是北方水的墓，辰中兼有水土，水土同根可变易，一六水入中，五十土易北。\u003c/p\u003e\u003cp\u003e学易要灵活，懂得象数之理，就不用死记硬背。下节我就用天干合化之理，教大家记忆如何起月建。\u003c/p\u003e\u003c/div\u003e",
    "source": "壹圆文化",
    "comment_count": 25,
    "logo_show_strategy": "normal",
    "hupu_content_image_urls": [
      ""
    ],
    "creator_uid": 5442441065
  },
  "success": true
}