{
  "_ck": {},
  "data": {
    "detail_source": "壹圆文化",
    "media_user": {
      "screen_name": "壹圆文化",
      "no_display_pgc_icon": false,
      "avatar_url": "https://p3.pstatp.com/thumb/ff4c0000329fa7e5df8e",
      "id": "1617719604580359",
      "user_auth_info": {
        "auth_type": "0",
        "other_auth": {
          "interest": "优质文化领域创作者"
        },
        "auth_info": "建筑公司总经理 优质文化领域创作者"
      }
    },
    "publish_time": 1571908105,
    "hotwords": [
      {
        "stress_type": 0,
        "hot_word": "录明星整容视频勒索"
      },
      {
        "stress_type": 1,
        "hot_word": "宁静再演孝庄"
      },
      {
        "stress_type": 0,
        "hot_word": "日常佩戴13公斤黄金"
      },
      {
        "stress_type": 0,
        "hot_word": "中国化工集团被约谈"
      },
      {
        "stress_type": 0,
        "hot_word": "医生用筷子紧急救人"
      },
      {
        "stress_type": 1,
        "hot_word": "黄渤回应女版黄渤"
      },
      {
        "stress_type": 1,
        "hot_word": "贾跃亭股份被冻结"
      },
      {
        "stress_type": 1,
        "hot_word": "买老鼠夹送香肠"
      }
    ],
    "title": "如何巧妙理解河图中，四象的数理和卦象？",
    "url": "http://toutiao.com/group/6751205275270644235/",
    "high_quality_flag": "0",
    "impression_count": "780",
    "is_original": true,
    "is_pgc_article": true,
    "content": "\u003cdiv\u003e\u003cp\u003e上一篇文章，用河图数理讲了天地阴阳进退用二十四数，也讲了天干合化的奥秘。\u003c/p\u003e\u003cp\u003e学会了易经象与数，许多历代相传的口诀就完全不用背，可笑很多学易之人还把有些落后的东西，当作天机不可泄露。\u003c/p\u003e\u003cdiv class\u003d\"pgc-img\"\u003e\u003cimg src\u003d\"https://p3.pstatp.com/large/dfic-imagehandler/bc535c67-da18-432d-90da-2946fe602b5a\" img_width\u003d\"423\" img_height\u003d\"300\" inline\u003d\"0\" alt\u003d\"如何巧妙理解河图中，四象的数理和卦象？\" onerror\u003d\"javascript:errorimg.call(this);\"\u003e\u003cp class\u003d\"pgc-img-caption\"\u003e\u003c/p\u003e\u003c/div\u003e\u003cp\u003e用月建来举个例子。我们知道，古代年、月、日都是用天干、地支来记录。每一年的正月的干支该怎么来推导呢？定了正月，其它月份就好办了。\u003c/p\u003e\u003cp\u003e现在当然用个万年历的APP很容易就查到，但是学易得知其然且知其所以然。月建地支很明确，就是正月建寅，正月之干就要背口诀了。\u003c/p\u003e\u003cp\u003e这就是年上起月法：”甲己之年丙作首，乙庚之岁戊为头，丙辛之岁寻庚上，丁壬壬寅顺水流，若问戊癸何处走，甲寅之上好追求。“\u003c/p\u003e\u003cp\u003e知道河图五行和天干合化的奥妙，根本不用背上面的诗。这里，我来教会大家用易学知识串联起来记忆。\u003c/p\u003e\u003cdiv class\u003d\"pgc-img\"\u003e\u003cimg src\u003d\"https://p3.pstatp.com/large/dfic-imagehandler/3046bbad-b390-45c1-9ac8-e2ad1fa19da0\" img_width\u003d\"1200\" img_height\u003d\"485\" inline\u003d\"0\" alt\u003d\"如何巧妙理解河图中，四象的数理和卦象？\" onerror\u003d\"javascript:errorimg.call(this);\"\u003e\u003cp class\u003d\"pgc-img-caption\"\u003e\u003c/p\u003e\u003c/div\u003e\u003cp\u003e逢甲己之年，甲己合化成土，丙火（注意用阳干，而不是阴干丁）生土，所以正月为丙寅。同理，乙庚合化金，戊土（阳干）生金，所以正月为戊寅。\u003c/p\u003e\u003cp\u003e以此类推，丙辛合化成水，庚金生水，正月为庚寅；丁壬合化成木，壬水生木，正月为壬寅；戊癸合化成火，甲木生火，正月为甲寅。\u003c/p\u003e\u003cp\u003e你看，这样串起来，既明白了规律，又记住了天干合化和年上起月。死记硬背可学不会易。\u003c/p\u003e\u003cp\u003e好了，前面的文章讲了河图配四时、五方、五行，今天讲河图配四象。\u003c/p\u003e\u003cp\u003e理解了四象可不得了，你就知道圣人是如何则河图洛书之数而画八卦，你会知道河图和洛书的内在数理联系，也知道八卦先后天的秘密。\u003c/p\u003e\u003cp\u003e我们先从卦画说起，太极生两仪，两仪生四象，在八卦中，阳仪中的卦初爻都是阳爻，阴仪中的卦初爻都是阴爻。\u003c/p\u003e\u003cp class\u003d\"ql-align-justify\"\u003e\u003cbr\u003e\u003c/p\u003e{!-- PGC_COLUMN --}\u003cdiv class\u003d\"pgc-img\"\u003e\u003cimg src\u003d\"https://p3.pstatp.com/large/pgc-image/5cb741cc6ce845d8bedf2fecddde849e\" img_width\u003d\"3336\" img_height\u003d\"1022\" inline\u003d\"0\" alt\u003d\"如何巧妙理解河图中，四象的数理和卦象？\" onerror\u003d\"javascript:errorimg.call(this);\"\u003e\u003cp class\u003d\"pgc-img-caption\"\u003e\u003c/p\u003e\u003c/div\u003e\u003cp\u003e从卦画来说，两爻就成四象，阳上加一阳，为老阳。阳上加一阴，阳中之阴，为少阴。阴上加一阳，阴中之阳为少阳。阴上加一阴，为老阴。\u003c/p\u003e\u003cp\u003e上面讲的是卦画，河图的四象就要分辨数与位的概念。位有四象，数也有四象。\u003c/p\u003e\u003cp\u003e先讲数的四象，一二三四和九八七六就是一对阴阳顺逆而且合十的关系，见一即见九，见六即见四。\u003c/p\u003e\u003cp\u003e一为老阳，二为少阴，三为少阳，四为老阴。相对应的，九为老阳，八为少阴，七为少阳，六为老阴，阳升阴降，这也是七上八下的一种说法。\u003c/p\u003e\u003cp\u003e八数配八卦，就代表了数与卦的阴阳顺逆，阴阳进退。河图共有十个数，那么五和十去哪里了呢？下面我们就要讲四象之位了。\u003c/p\u003e\u003cdiv class\u003d\"pgc-img\"\u003e\u003cimg src\u003d\"https://p3.pstatp.com/large/pgc-image/745f26d09c8d40d79df2bfd9db6caa45\" img_width\u003d\"2166\" img_height\u003d\"1786\" inline\u003d\"0\" alt\u003d\"如何巧妙理解河图中，四象的数理和卦象？\" onerror\u003d\"javascript:errorimg.call(this);\"\u003e\u003cp class\u003d\"pgc-img-caption\"\u003e\u003c/p\u003e\u003c/div\u003e\u003cp\u003e看上面河图，西边四九金，四加一合五，九加一合十，四九里面隐藏了一，一为太阳，所以西边为太阳位。\u003c/p\u003e\u003cp\u003e东边三加二合五，八加二合十，三八里面隐藏了二，二为少阴，所以东边为少阴位。\u003c/p\u003e\u003cp\u003e南边二加三合五，七加三合十，二七里面隐藏了三，三为少阳，所以南边为少阳位。\u003c/p\u003e\u003cp\u003e北边一加四合五，六加四合十，一六里面隐藏了四，四为太阴，所以北边少太阴位。\u003c/p\u003e\u003cp\u003e这样河图四象就藏在四方，它们是东边少阴，南边少阳，西边太阳，北边太阴。五和十就藏在四方的数理当中。\u003c/p\u003e\u003cp\u003e在河图中，我们会发现，四方也不会出现孤阴寡阳。比如太阳位有老阴数四，太阴位有老阳数一，少阴位有少阳数三，少阳位有少阴数二。\u003c/p\u003e\u003cp\u003e以藏的四象之位来说，东二南三加起来等于五，西一北四加起来等于五，四个数相加等于十。这也是五和十之用。\u003c/p\u003e\u003cp\u003e阳位有阴数，阴位有阳数。东三南二相加等于五，西四加北一等于五。东与南，数与位的阴阳往来叫木火通明。西和北，数与位的阴阳往来叫金水相成。\u003c/p\u003e\u003cp\u003e这样解读后，你们应该知道河图的奥妙了吧，河图五十在中，用在四象八卦时，就虚五虚十藏在四方。河图数理之严谨可见一斑。\u003c/p\u003e\u003cdiv class\u003d\"pgc-img\"\u003e\u003cimg src\u003d\"https://p3.pstatp.com/large/dfic-imagehandler/f3776cd0-9356-44ac-acc6-98b055f24bb1\" img_width\u003d\"453\" img_height\u003d\"300\" inline\u003d\"0\" alt\u003d\"如何巧妙理解河图中，四象的数理和卦象？\" onerror\u003d\"javascript:errorimg.call(this);\"\u003e\u003cp class\u003d\"pgc-img-caption\"\u003e\u003c/p\u003e\u003c/div\u003e\u003cp\u003e至于第一张图中间，标注的九四三八和二七六一，既是河图、洛书中的数字，又是先天八卦的实数。乾父得九，长、中、少男得震八、坎七、艮六。坤母得一，长、中、少女得巽二、离三、兑四。\u003c/p\u003e\u003cp\u003e有一本《六经奥论》，不知何人所写，把卦之实数的道理说得很透彻。阳之道主变，数以进为极，所以乾父得九。阴之道，以退为极，所以坤母得一。六子次第而得。\u003c/p\u003e\u003cp\u003e上面这串数字，既是河图转洛书的数理，更是八卦先天转后天的奥秘，下节文章为大家讲解。\u003c/p\u003e\u003c/div\u003e",
    "source": "壹圆文化",
    "comment_count": 13,
    "logo_show_strategy": "normal",
    "hupu_content_image_urls": [
      ""
    ],
    "creator_uid": 5442441065
  },
  "success": true
}