{
  "_ck": {},
  "data": {
    "detail_source": "壹圆文化",
    "media_user": {
      "screen_name": "壹圆文化",
      "no_display_pgc_icon": false,
      "avatar_url": "https://p3.pstatp.com/thumb/ff4c0000329fa7e5df8e",
      "id": "1617719604580359",
      "user_auth_info": {
        "auth_type": "0",
        "other_auth": {
          "interest": "优质文化领域创作者"
        },
        "auth_info": "建筑公司总经理 优质文化领域创作者"
      }
    },
    "publish_time": 1573715645,
    "hotwords": [
      {
        "stress_type": 0,
        "hot_word": "录明星整容视频勒索"
      },
      {
        "stress_type": 1,
        "hot_word": "宁静再演孝庄"
      },
      {
        "stress_type": 0,
        "hot_word": "日常佩戴13公斤黄金"
      },
      {
        "stress_type": 0,
        "hot_word": "中国化工集团被约谈"
      },
      {
        "stress_type": 0,
        "hot_word": "医生用筷子紧急救人"
      },
      {
        "stress_type": 1,
        "hot_word": "黄渤回应女版黄渤"
      },
      {
        "stress_type": 1,
        "hot_word": "贾跃亭股份被冻结"
      },
      {
        "stress_type": 1,
        "hot_word": "买老鼠夹送香肠"
      }
    ],
    "title": "家居装修也可以适当考虑风水因素",
    "url": "http://toutiao.com/group/6759057231691383304/",
    "high_quality_flag": "0",
    "impression_count": "357",
    "is_original": true,
    "is_pgc_article": true,
    "content": "\u003cp\u003e上一篇文章讲了阳宅的看龙、喝局、定宅。除非专门从事地理的先生，一般爱好者是难搞明白。\u003c/p\u003e\u003cp\u003e其实在生活当中，我们普通的兴趣爱好者其实也可以简单搞个风水布局，以求居住心安。\u003c/p\u003e\u003cp\u003e拿自建房子来说，学不会寻龙喝局，但可以看看明堂。阳宅明堂不一定要有案有朝，但一定要低洼平坦开阔。杨公说大屋场的明堂要容得下千军万马。\u003c/p\u003e\u003cdiv class\u003d\"pgc-img\"\u003e\u003cimg src\u003d\"https://p3.pstatp.com/large/dfic-imagehandler/f7c13c8f-3b81-4782-a9ee-980295f61a69\" img_width\u003d\"1200\" img_height\u003d\"731\" inline\u003d\"0\" alt\u003d\"家居装修也可以适当考虑风水因素\" onerror\u003d\"javascript:errorimg.call(this);\"\u003e\u003cp class\u003d\"pgc-img-caption\"\u003e\u003c/p\u003e\u003c/div\u003e\u003cp\u003e为什么明堂要低洼开阔？因为阳宅飞布九星，八宅对面一定是五黄关方，就是说，宅主之星入中顺飞，五黄必到对宫，五黄到处必须低洼开阔，如果出门对着就是高山峡谷，五黄到向那就有问题。\u003c/p\u003e\u003cp\u003e城市套房，就可以通过看大门朝向来定宅卦，看看室内布局能否符合内六事，这也是选房考虑的一方面。更高明点就再用坐山九星飞布来进行断验。\u003c/p\u003e\u003cp\u003e下面分别简单说说这两种方法。\u003c/p\u003e\u003cp\u003e第一种是用得最广泛，最有群众基础的八宅法。八宅法就是用八个卦来定八个宅名。后天八卦分布八方定方位吉凶，如果用九宫来划分房屋，中宫是宅主卦，用其它八方之卦跟宅主卦的关系来判断吉凶。\u003c/p\u003e\u003cp\u003e八个卦是用大游年的翻卦方法翻出来的，我以前讲九星翻卦的文章专门讲过，大家也没必要去掌握翻卦方法，也没必要去背口诀，现在很多书都有，包括百度一下都可以，搜下八宅图就可以了，有很多八宅图，比如苏民峰的八宅图，我看过，都没什么问题，拿来用就是了。\u003c/p\u003e\u003cdiv class\u003d\"pgc-img\"\u003e\u003cimg src\u003d\"https://p3.pstatp.com/large/pgc-image/5db1c6c7df4547049edca2dc126ac5a7\" img_width\u003d\"754\" img_height\u003d\"489\" inline\u003d\"0\" alt\u003d\"家居装修也可以适当考虑风水因素\" onerror\u003d\"javascript:errorimg.call(this);\"\u003e\u003cp class\u003d\"pgc-img-caption\"\u003e\u003c/p\u003e\u003c/div\u003e\u003cp\u003e八宅法其实来源于阴阳八卦和河洛数理，也是先天为体，后天为用。\u003c/p\u003e\u003cp\u003e我在以前的文章说过，乾父得九，坤母得一，震八坎七艮六，巽二离三兑四。先天之合就是生气，后天之合是延年，五数之合就是天医，还有绝命、五鬼、祸害、六杀，坐山是伏位。\u003c/p\u003e\u003cp\u003e别看这些词那么吓人，其实也没什么玄乎。古代的人说什么东四命住东四宅，西四命住西四宅，放在现代也并没有多大道理。\u003c/p\u003e\u003cp\u003e你现在去看看古村古镇，里面古代的房子基本上是高宅深院，窗户小，房间小，采光通风基本靠门和天井。所以比较严格遵守八宅的规则。\u003c/p\u003e\u003cdiv class\u003d\"pgc-img\"\u003e\u003cimg src\u003d\"https://p3.pstatp.com/large/dfic-imagehandler/441409b1-8e17-4387-941a-a45fd215df45\" img_width\u003d\"1200\" img_height\u003d\"800\" inline\u003d\"0\" alt\u003d\"家居装修也可以适当考虑风水因素\" onerror\u003d\"javascript:errorimg.call(this);\"\u003e\u003cp class\u003d\"pgc-img-caption\"\u003e\u003c/p\u003e\u003c/div\u003e\u003cp\u003e现代房屋，落地窗，多阳台，差不多都四面通透了，采光、进气完全跟古代的房屋结构不同。基本上记住天医、五鬼、六煞三个位置就行了。\u003c/p\u003e\u003cp\u003e天医就是财位、健康位，最好的位置，坐卧都有利，你完全可以设床和客厅沙发，当然可以放保险箱。那个位置千万不能设厕所。\u003c/p\u003e\u003cp\u003e五鬼是大凶位，属火，这个方位千万不能设厨房灶台，否则火烧五鬼，凶事越烧越旺。对全家健康都不利。五鬼方应该设成厕所，把凶事和秽气一起冲走。\u003c/p\u003e\u003cp\u003e六煞为桃花位，利人缘交往、婚恋等等。设成床位也可，有助夫妻关系。如果本身就比较轻浮之人睡这个地方就会加重。\u003c/p\u003e\u003cp\u003e至于其它各方，都没有多大影响，没有了东四命、西四命的理论基础，个人觉得这些更多是心理作用，心诚则灵。下面再说说坐山飞星。\u003c/p\u003e\u003cp\u003e坐山飞星不用卦，用九宫飞星。我们知道用大门朝向可以定宅主卦，有了主卦就可以定主星。\u003c/p\u003e\u003cp\u003e比如是坐南朝北是离宅，在洛书九宫中，离卦对应九紫火，所以离宅是九紫九宫，属于火山。\u003c/p\u003e\u003cp\u003e用九入中宫，按洛书数顺飞，这样其它八星就飞布八方。八星与宅主的关系就要用五行的相生相克来判断了。\u003c/p\u003e\u003cp\u003e大家都知道九星的五行属性，跟后天八卦一样，如下图\u003c/p\u003e\u003cdiv class\u003d\"pgc-img\"\u003e\u003cimg src\u003d\"https://p3.pstatp.com/large/pgc-image/4023be15657644f1ae32cd54f54bf14f\" img_width\u003d\"640\" img_height\u003d\"606\" inline\u003d\"0\" alt\u003d\"家居装修也可以适当考虑风水因素\" onerror\u003d\"javascript:errorimg.call(this);\"\u003e\u003cp class\u003d\"pgc-img-caption\"\u003e\u003c/p\u003e\u003c/div\u003e\u003cp\u003e宅主和其它八星形成主客关系，生我者父母印绶，即生气方。兄弟比肩就是旺气方。我生星方就是退气方。克我之星方就是杀气方。我克之星方就是死气方。\u003c/p\u003e\u003cp\u003e怎么来用呢？以离宅为例，九入中，一白水飞布在乾宫西北方，水克火主，这是杀气方，这个方位开门和作灶都不利，作则财丁两损。但是如果你的房屋结构已经这样了，怎么办呢？如果西方有路就化解了，有路就可以喝成震局，水生震木，绝处逢生了。\u003c/p\u003e\u003cp\u003e二黑土飞正西兑方，火山生土，西方为泄气方。作灶平平，安床有丁，开门就泄气不利。\u003c/p\u003e\u003cp\u003e三碧木、四绿木，木生火宅，它们飞到之方都是生气方。作床、灶都利，开门就大吉。这样的地方做厕所就不好了。\u003c/p\u003e\u003cp\u003e飞六白金到坤，火山克金，开门为杀不利，作灶，家中妇女健康不利，作床平平，做厕所也不好。\u003c/p\u003e\u003cp\u003e其它各星都按五行相生相克来论。再复杂一点呢？就可以用各星到宫的关系来论六亲，对相关家人的影响，这种断验就更精准了。\u003c/p\u003e\u003cdiv class\u003d\"pgc-img\"\u003e\u003cimg src\u003d\"https://p3.pstatp.com/large/dfic-imagehandler/50c28004-5a33-4b6b-99c9-bc9276d31df4\" img_width\u003d\"379\" img_height\u003d\"379\" inline\u003d\"0\" alt\u003d\"家居装修也可以适当考虑风水因素\" onerror\u003d\"javascript:errorimg.call(this);\"\u003e\u003cp class\u003d\"pgc-img-caption\"\u003e\u003c/p\u003e\u003c/div\u003e\u003cp\u003e用坐山九星的方法，选房可以，最好是用来断验，比如人家的风水出问题了，可以用这个方法来断验或者化解。\u003c/p\u003e\u003cp\u003e在广东这边也比较流行九宫飞星法，利用山、向盘来判断吉凶，什么上山落水，双星到向之类的，运用的基础是三元九运。\u003c/p\u003e\u003cp\u003e提醒大家的是如何飞运盘，应该是元运入中顺飞，比如现在是八运就是八入中，以房子入伙时间的年份来算，如果长期没住，应该重新算。重新装修了厨房更换了灶台要重新算。\u003c/p\u003e\u003cp\u003e其实，根据个人的感悟，还是觉得年、月、日飞星的加临有点应验，其中以流年飞星更准，飞星以一、六、八为吉星，二、五为凶星。凶星到临方千万不要动土，设法化解。吉星方就催旺。\u003c/p\u003e\u003cp\u003e流年飞星是按一定规则推出来的，跟六十甲子一样轮流排，比如上元坎宫起甲子。流年是逆排，比如今年八白入中，明年必定是七赤入中顺飞。\u003c/p\u003e\u003cp\u003e流月也有飞星盘，比如子午卯酉八白求之类，这些也没有必要去记，象流年，直接网上查就可以了。\u003c/p\u003e",
    "source": "壹圆文化",
    "comment_count": 17,
    "logo_show_strategy": "normal",
    "hupu_content_image_urls": [
      ""
    ],
    "creator_uid": 5442441065
  },
  "success": true
}