{
  "_ck": {},
  "data": {
    "detail_source": "壹圆文化",
    "media_user": {
      "screen_name": "壹圆文化",
      "no_display_pgc_icon": false,
      "avatar_url": "https://p3.pstatp.com/thumb/ff4c0000329fa7e5df8e",
      "id": "1617719604580359",
      "user_auth_info": {
        "auth_type": "0",
        "other_auth": {
          "interest": "优质文化领域创作者"
        },
        "auth_info": "建筑公司总经理 优质文化领域创作者"
      }
    },
    "publish_time": 1573823707,
    "hotwords": [
      {
        "stress_type": 0,
        "hot_word": "录明星整容视频勒索"
      },
      {
        "stress_type": 1,
        "hot_word": "宁静再演孝庄"
      },
      {
        "stress_type": 0,
        "hot_word": "日常佩戴13公斤黄金"
      },
      {
        "stress_type": 0,
        "hot_word": "中国化工集团被约谈"
      },
      {
        "stress_type": 0,
        "hot_word": "医生用筷子紧急救人"
      },
      {
        "stress_type": 1,
        "hot_word": "黄渤回应女版黄渤"
      },
      {
        "stress_type": 1,
        "hot_word": "贾跃亭股份被冻结"
      },
      {
        "stress_type": 1,
        "hot_word": "买老鼠夹送香肠"
      }
    ],
    "title": "又输了，能不能跳出足球外来看看中国足球文化？",
    "url": "http://toutiao.com/group/6759340355918758408/",
    "high_quality_flag": "0",
    "impression_count": "482",
    "is_original": true,
    "is_pgc_article": true,
    "content": "\u003cp\u003e昨晚，中国男足在对阵叙利亚的世界杯预选赛中，毫无例外，果然又输了。并且输得窝囊、愚蠢和搞笑，中后卫一个乌龙大礼，就让中国队的世界杯前景又开始变得渺茫。别忘了对手还是一个处在战火纷飞，连主场都没有，差点成为“三无”的队伍。\u003c/p\u003e\u003cdiv class\u003d\"pgc-img\"\u003e\u003cimg src\u003d\"https://p3.pstatp.com/large/dfic-imagehandler/de9d710f-cd51-49c6-ab4a-b566876175db\" img_width\u003d\"1200\" img_height\u003d\"800\" inline\u003d\"0\" alt\u003d\"又输了，能不能跳出足球外来看看中国足球文化？\" onerror\u003d\"javascript:errorimg.call(this);\"\u003e\u003cp class\u003d\"pgc-img-caption\"\u003e\u003c/p\u003e\u003c/div\u003e\u003cp\u003e当然如果在上一场对阵菲律宾能全取三分，也就没那么被动。赛后的新闻发布会上，名帅里皮直接宣布辞职，足协也当即作出了回应。\u003c/p\u003e\u003cp\u003e在新闻发布会上，里皮一针见血指出：“如果球员在场上害怕，没有斗志，不能连续传球，不能踢出练的内容，就是我主教练的责任。”暂不论银狐主动揽责式的批评。赛后几名球员在接受采访时也承认没有强烈的斗志和取胜欲望。\u003c/p\u003e\u003cp\u003e我是看了全场直播的，并且也是个一路跟随观看中国男足比赛的球迷。里皮没有说错，中国队员在场上对抗的表现就是害怕、迟疑、木讷和惊慌失措，甚至在场上显得无所适从。\u003c/p\u003e\u003cp\u003e一到有点强度的正赛，在很多上场队员脸上可以看到迷茫、空洞的眼神，跟在场下和俱乐部时自信从容完全不同，与其说是队员有心理问题，不如说这是一支没有灵魂和精神气质的队伍。\u003c/p\u003e\u003cdiv class\u003d\"pgc-img\"\u003e\u003cimg src\u003d\"https://p3.pstatp.com/large/dfic-imagehandler/c69bce59-b036-431c-ba30-19fe76b42557\" img_width\u003d\"1200\" img_height\u003d\"798\" inline\u003d\"0\" alt\u003d\"又输了，能不能跳出足球外来看看中国足球文化？\" onerror\u003d\"javascript:errorimg.call(this);\"\u003e\u003cp class\u003d\"pgc-img-caption\"\u003e\u003c/p\u003e\u003c/div\u003e\u003cp\u003e从2002年进入世界杯决赛圈以后，中国男足各级队伍就不断在失败的轮回中逐渐沉沦，似乎社会很多方面都在为男足支持、努力，包括国家政策方面，但就是挽救不了它的颓势。\u003c/p\u003e\u003cp\u003e似乎冥冥中有注定一样，中国队永远打不破这个“魔咒”。比较吊诡的是，也许是球迷的心被伤透了，每一次关键大赛前，大多数于球迷都认为中国队必输，甚至很多球迷发表言论恨不得中国队输！好像中国队就是这样被“咒死”的。\u003c/p\u003e\u003cp\u003e这样的扭曲的足球文化在世界上都很少见，也许情绪本身就来自足球运动员高收入低产出，国家队男足运动员个个是富翁，却没有一个拿得出手的成绩。不仅在体育界形成反差，在社会各行各业上看来也是极不公平。\u003c/p\u003e\u003cdiv class\u003d\"pgc-img\"\u003e\u003cimg src\u003d\"https://p3.pstatp.com/large/dfic-imagehandler/4ec80fb5-b330-4a39-a01d-ee2b7865ee9c\" img_width\u003d\"1200\" img_height\u003d\"801\" inline\u003d\"0\" alt\u003d\"又输了，能不能跳出足球外来看看中国足球文化？\" onerror\u003d\"javascript:errorimg.call(this);\"\u003e\u003cp class\u003d\"pgc-img-caption\"\u003e\u003c/p\u003e\u003c/div\u003e\u003cp\u003e包括巨额高薪的外籍主教练，在球迷上看来也是极不相称，很多球迷说，既然都是输，出不了线，还不如随便找个人去，每月发个几千元就行了。这当然只是说笑，但也透出深深的悲哀。很多人认为，是金元足球导致了足球成绩的溃败。\u003c/p\u003e\u003cp\u003e更加诡异的是，每当中国足球队窝囊出局或失败，都会引起全媒体的狂欢和口诛笔伐，简直象一场媒体和球迷的盛筵。果不其然，昨晚里皮一宣布辞职，立即就有大V、专家在帮足协出谋划策了，指点江山，应该聘请谁谁谁来做主教练，土帅、洋帅轮番推荐。\u003c/p\u003e\u003cp\u003e球迷就更不得了，指责主教练度假偷懒又固执。什么某某俱乐部的某某球员有能力，状态好，为什么不招入？进入大名单的某某为什么总是招人家又让上场？进而指点排兵布阵，战术安排，似乎有了好的阵型，上了谁不上谁，至少结果就会怎么样。\u003c/p\u003e\u003cp\u003e难道一个局外人还能比世界冠军的教头更会排兵布阵？那真的是匪夷所思了。拿很多球迷的说法，说上韦世豪下杨旭，艾克森打中锋。拿昨晚的比赛来说，包括队长蒿俊闵在内的中场队员，在对方强对抗下，根本不敢做动作，更别讲向前突破，只能紧张的回传，倒是大家传给艾克森，他才能回来拿球、护球。他在边还能回来一下，如果当个站桩式的中锋，除了长传，估计球都到不了前场。\u003c/p\u003e\u003cp\u003e第二个失球跟韦也是有关的，他就在传球队员身边都没有去干扰一下，里皮早看透了。大家以前都说王刚能力状态好，昨晚两个失球都跟他有关。足球是比谁最少失误的运动，中国队就象吹涨的气球，对方轻轻玩点花招，就会被刺破而泄气，再多准备也白搭。\u003c/p\u003e\u003cdiv class\u003d\"pgc-img\"\u003e\u003cimg src\u003d\"https://p3.pstatp.com/large/dfic-imagehandler/3a7fe306-b76c-4ba5-83c3-aec87378cf92\" img_width\u003d\"1200\" img_height\u003d\"800\" inline\u003d\"0\" alt\u003d\"又输了，能不能跳出足球外来看看中国足球文化？\" onerror\u003d\"javascript:errorimg.call(this);\"\u003e\u003cp class\u003d\"pgc-img-caption\"\u003e\u003c/p\u003e\u003c/div\u003e\u003cp\u003e球迷幻想中国队个别球员能改变比赛，就跟足协幻想请国际名帅来改变中国足球现状一样，纯粹是做梦。前锋、后卫停球都是十米远，连续传递超不过三脚就失误，也不知道训练时会不会这样？你能指望改变什么呢？\u003c/p\u003e\u003cp\u003e有人都说，中国是男子足球的荒漠，没有足球文化。而我就认为，不是中国足球没文化，而是中国足球文化太厉害了。就跟我们历代的中国传统文化一样，既可以包容并蓄，也可以把进来的文化化得一干而净。\u003c/p\u003e\u003cp\u003e比如，中国足球基本请遍了世界传统足球强国的主教练，今天斯拉夫，明天是德国，今天学荷兰，后天学意大利，还有法国、英国等等。但是他们都没有改变我们，反而中国足球名符其实成了世界名帅的火葬场。多少人一世英名折在这里，他们在别处可以成功，在中国就不容许。\u003c/p\u003e\u003cp\u003e还有归化球员，受到很多足球明星赞扬的艾克森，归化中国后，不管是球技还是气质，都逐步向中国传统足球队靠拢。\u003c/p\u003e\u003cp\u003e中国足球更是折射了中国社会的人生万象。足协似官非商，当了足球各方面的保姆，很多事也无能为力而强为之，有时还要受到舆论裹挟，一会儿往东，一会往西，第一要务是经常要找锅盖。\u003c/p\u003e\u003cp\u003e足球投资人也好玩，不赚钱、亏损累累的足球也去投资。他们投资俱乐部并不是为了赚钱，而是把它当成获取其它利益的工具。其实他们也不是真心喜欢足球。\u003c/p\u003e\u003cdiv class\u003d\"pgc-img\"\u003e\u003cimg src\u003d\"https://p3.pstatp.com/large/dfic-imagehandler/8fb861b6-cb3e-40ac-899c-ac7376c666f0\" img_width\u003d\"1200\" img_height\u003d\"800\" inline\u003d\"0\" alt\u003d\"又输了，能不能跳出足球外来看看中国足球文化？\" onerror\u003d\"javascript:errorimg.call(this);\"\u003e\u003cp class\u003d\"pgc-img-caption\"\u003e\u003c/p\u003e\u003c/div\u003e\u003cp\u003e那么踢球的人喜不喜欢足球呢？也不怎么样。我记得有国外的足球名宿说过这样的话，他说，中国人其实不太爱好足球这项运动的。足球运员也不会从足球中找那种朴实的快乐，只是把它当作谋生的工具，在大染缸里追逐名和利而已。\u003c/p\u003e\u003cp\u003e足球运动为什么吸引人？核心就是争强好胜，就是团队战斗对抗。球场如战场，即使战败，也要不服输，你看战火中的叙利亚球员，在球场上照样争强好胜。而我们的主教练（外籍当然除外）和队员，经常是输得心服口服，连不服输的精气神都没有。\u003c/p\u003e\u003cp\u003e所以不要谈什么足球素养，连最基本的足球理念都不具备，再加上足球管理部门的急功近利，原有的一些传统都没有了。慢慢一代不如一代，重复着犯错误的轮回。\u003c/p\u003e\u003cdiv class\u003d\"pgc-img\"\u003e\u003cimg src\u003d\"https://p3.pstatp.com/large/dfic-imagehandler/d7edc21b-7f64-46f4-a884-d5d7350fb7ef\" img_width\u003d\"755\" img_height\u003d\"1200\" inline\u003d\"0\" alt\u003d\"又输了，能不能跳出足球外来看看中国足球文化？\" onerror\u003d\"javascript:errorimg.call(this);\"\u003e\u003cp class\u003d\"pgc-img-caption\"\u003e\u003c/p\u003e\u003c/div\u003e\u003cp\u003e球迷呢？真正懂球的球迷也不多，大家基本上把中国足球队当作发泄情绪的痰盂，比如一失败，很多球迷就喊出要解散男足国家队。有时偶尔赢一下也会自嗨。\u003c/p\u003e\u003cp\u003e这样也好，生活的压力，好不容易找到一个发泄的地方，而我们的球员挨骂也照样没皮没脸拿着高薪。这种和谐的生态还真是少见。\u003c/p\u003e\u003cp\u003e中国足球为什么会落后，大家跟其它竞技体育比，找了很多方面的问题，比如体制、青训、教育、球场、教练、比赛后勤的完备等等，也找了很多项目的成功经验。\u003c/p\u003e\u003cp\u003e青训喊了几十年，其实也做了几十年，可是有什么成果呢？大家说没有球场，都做房地产了。其实我看到过很多免费的场并没有人踢。成人上班够累了，小孩要做作业，打个篮球还可以单干，足球一个人就没什么玩。其实现在的小球场比我们小时候多得多，哪个大点的学校没有呢？\u003c/p\u003e\u003cp\u003e至于中国队比赛的后勤问题，已经好得不能再好了，照样还是踢不过困难的叙利亚。至于教练问题，二进宫的里皮还不能证明是球员问题还是教练问题？可笑现在很多媒体还在对里皮教练方法指手画脚。现在都还看不明白的，还能做足球专家和媒体人？\u003c/p\u003e\u003cdiv class\u003d\"pgc-img\"\u003e\u003cimg src\u003d\"https://p3.pstatp.com/large/dfic-imagehandler/f20419e3-8f68-463f-9277-ba34414d1484\" img_width\u003d\"1023\" img_height\u003d\"682\" inline\u003d\"0\" alt\u003d\"又输了，能不能跳出足球外来看看中国足球文化？\" onerror\u003d\"javascript:errorimg.call(this);\"\u003e\u003cp class\u003d\"pgc-img-caption\"\u003e\u003c/p\u003e\u003c/div\u003e\u003cp\u003e中国足球就是一个折射社会人生百态的万花筒，扭曲的万花筒在很多社会方面都可以找到它的影子。踢球的孩子渐渐长大就远离了足球的快乐。我们球迷也很难从中国足球上找到快乐。\u003c/p\u003e\u003cp\u003e成文之时，国奥队上半场就被澳大利亚灌了三个球，希丁克早就看穿了这些人员，可惜前段时间土帅上马，很多球迷还是自嗨了一把。\u003c/p\u003e",
    "source": "壹圆文化",
    "comment_count": 20,
    "logo_show_strategy": "normal",
    "hupu_content_image_urls": [
      ""
    ],
    "creator_uid": 5442441065
  },
  "success": true
}