{
  "_ck": {},
  "data": {
    "detail_source": "壹圆文化",
    "media_user": {
      "screen_name": "壹圆文化",
      "no_display_pgc_icon": false,
      "avatar_url": "https://p3.pstatp.com/thumb/ff4c0000329fa7e5df8e",
      "id": "1617719604580359",
      "user_auth_info": {
        "auth_type": "0",
        "other_auth": {
          "interest": "优质文化领域创作者"
        },
        "auth_info": "建筑公司总经理 优质文化领域创作者"
      }
    },
    "publish_time": 1577015598,
    "hotwords": [
      {
        "stress_type": 0,
        "hot_word": "录明星整容视频勒索"
      },
      {
        "stress_type": 1,
        "hot_word": "宁静再演孝庄"
      },
      {
        "stress_type": 0,
        "hot_word": "日常佩戴13公斤黄金"
      },
      {
        "stress_type": 0,
        "hot_word": "中国化工集团被约谈"
      },
      {
        "stress_type": 0,
        "hot_word": "医生用筷子紧急救人"
      },
      {
        "stress_type": 1,
        "hot_word": "黄渤回应女版黄渤"
      },
      {
        "stress_type": 1,
        "hot_word": "贾跃亭股份被冻结"
      },
      {
        "stress_type": 1,
        "hot_word": "买老鼠夹送香肠"
      }
    ],
    "title": "冬至一阳生，一元复始记复卦之象",
    "url": "http://toutiao.com/group/6773230419279086083/",
    "high_quality_flag": "0",
    "impression_count": "36",
    "is_original": true,
    "is_pgc_article": true,
    "content": "\u003cdiv\u003e\u003cp\u003e上篇文章为大家树立了一个摩天轮似的先天圆图的大象。这个圆就是我们中华文明代表时空统一的周天公度。六十四卦圆图就是全息的周天360度。\u003c/p\u003e\u003cp\u003e我们中华先民仰观天文，最大的两个天象就是太阳和月亮。长期观测就发现了太阳回归年和月亮朔望周期。\u003c/p\u003e\u003cdiv class\u003d\"pgc-img\"\u003e\u003cimg src\u003d\"https://p3.pstatp.com/large/dfic-imagehandler/b379126f-8cfd-484a-8bd7-63ba40dda529\" img_width\u003d\"1200\" img_height\u003d\"1164\" inline\u003d\"0\" alt\u003d\"冬至一阳生，一元复始记复卦之象\" onerror\u003d\"javascript:errorimg.call(this);\"\u003e\u003cp class\u003d\"pgc-img-caption\"\u003e\u003c/p\u003e\u003c/div\u003e\u003cp\u003e月亮朔望周期为29.53天，一年12个月，共354天，称之为\"平年\"。\u003c/p\u003e\u003cp\u003e太阳回归年为365.25天，累积四年就有366天，所以要三年一闰，阴阳合历要用\"闰年\"来调整。\u003c/p\u003e\u003cp\u003e阳进阴退，乾进坤退，乾坤各六爻。累积四年得366天（360+6），相当于在周天360的基础上加了乾卦六爻，这就是乾卦阳进。\u003c/p\u003e\u003cp\u003e平年354天（360-6），相当于在周天360的基础上减了坤卦六爻，这就是坤卦阴退。\u003c/p\u003e\u003cp\u003e闰年是在平年基础上加一个月，这样闰年就有384天（354+30）。六十四卦，每卦六爻，共384爻，刚好一爻对应一天。\u003c/p\u003e\u003cp\u003e六十四卦共384爻，其中乾兑离震巽坎艮坤八个经卦的六爻，实际上每卦重复了三爻，一共重复二十四爻，384减24等于360，又回到周天360度。\u003c/p\u003e\u003cp\u003e所以六十四卦就是全息的周天360度时空统一模式，这是中华先民的智慧。\u003c/p\u003e\u003cdiv class\u003d\"pgc-img\"\u003e\u003cimg src\u003d\"https://p3.pstatp.com/large/pgc-image/068fccf0e9234d7bbe7b7cce057be63e\" img_width\u003d\"822\" img_height\u003d\"484\" inline\u003d\"0\" alt\u003d\"冬至一阳生，一元复始记复卦之象\" onerror\u003d\"javascript:errorimg.call(this);\"\u003e\u003cp class\u003d\"pgc-img-caption\"\u003e\u003c/p\u003e\u003c/div\u003e\u003cp\u003e在先天八卦的体系上，八卦相摩。春夏阳进阴退，秋冬阴长阳消。\u003c/p\u003e\u003cp\u003e上文已经说过，内卦按先天八卦定位，\u003cspan\u003e外卦在\u003c/span\u003e春夏阳仪中是按坤艮坎巽震离兑乾这样的阴退次序相摩。\u003c/p\u003e\u003cp\u003e在秋冬，\u003cspan\u003e外卦\u003c/span\u003e在阴仪是按乾兑离震巽坎艮坤这样的阳消次序相摩。\u003c/p\u003e\u003cp\u003e阳进阴退，阴长阳消，就是这样首尾相连，循环无端，就构成了先天六十四卦圆图。\u003c/p\u003e\u003cp\u003e今天是冬至，非常应景，冬至一阳生，一元复始。\u003c/p\u003e\u003cdiv class\u003d\"pgc-img\"\u003e\u003cimg src\u003d\"https://p3.pstatp.com/large/dfic-imagehandler/7c3767d7-2918-4841-b6f0-4407e8a1f59e\" img_width\u003d\"1200\" img_height\u003d\"798\" inline\u003d\"0\" alt\u003d\"冬至一阳生，一元复始记复卦之象\" onerror\u003d\"javascript:errorimg.call(this);\"\u003e\u003cp class\u003d\"pgc-img-caption\"\u003e\u003c/p\u003e\u003c/div\u003e\u003cp\u003e从北开始，天道左旋，内卦一阳始生为震卦，外卦阴退首先从坤卦开始。上坤下震，这就是十二辟卦中的地雷复卦。\u003c/p\u003e\u003cp\u003e记忆复卦之象可以从杜甫的一首诗《小至》开始：\u003c/p\u003e\u003cp\u003e\u003cstrong\u003e天时人事日相催，冬至阳生春\u003c/strong\u003e\u003cstrong\u003e又来\u003c/strong\u003e\u003cstrong\u003e。刺绣五纹添弱线，吹葭六管动飞灰。岸容待腊将舒柳，山意冲寒欲放梅。云物不殊乡国异，教儿且覆掌中杯。\u003c/strong\u003e\u003c/p\u003e\u003cp\u003e大家记住上面一句：\u003cstrong\u003e刺绣五纹添弱线，吹葭六管动飞灰。\u003c/strong\u003e\u003c/p\u003e\u003cp\u003e地雷复卦，上坤下震。坤为布，复卦上面五个阴爻象五条纹。最下面一个阳爻，\u003cspan\u003e就象\u003c/span\u003e在五纹布下面添了一根细细的弱线。\u003c/p\u003e\u003cdiv class\u003d\"pgc-img\"\u003e\u003cimg src\u003d\"https://p3.pstatp.com/large/dfic-imagehandler/5e43f5eb-797c-4adc-b14c-0d623bdd2650\" img_width\u003d\"1023\" img_height\u003d\"682\" inline\u003d\"0\" alt\u003d\"冬至一阳生，一元复始记复卦之象\" onerror\u003d\"javascript:errorimg.call(this);\"\u003e\u003cp class\u003d\"pgc-img-caption\"\u003e\u003c/p\u003e\u003c/div\u003e\u003cp\u003e\u003cstrong\u003e刺绣五纹添弱线，\u003c/strong\u003e这句诗来描述复卦的\u003cspan\u003e卦画\u003c/span\u003e是多么形象啊！\u003c/p\u003e\u003cp\u003e\u003cstrong\u003e吹葭六管动飞灰\u003c/strong\u003e，这就是讲\"吹灰候气\"，六律为阳共六根管，六吕为阴共六根管。\u003c/p\u003e\u003cp\u003e冬至一阳生，一阳初始为震卦，冬至节，地气始动，黄钟九寸管的葭灰因地气而吹出，发出中正平和的黄钟之音。\u003c/p\u003e\u003cp\u003e\u003cstrong\u003e闰余成岁，律吕调阳\u003c/strong\u003e。这就是大自然的节拍。\u003c/p\u003e\u003cp\u003e地雷复卦，上坤下震，动而顺。从冬至节开始，太阳又慢慢从南回归线向北回来了，一阳初动，一阳复始，所以叫复卦。\u003c/p\u003e\u003cp\u003e冬至大概在阳历的12月21日至23日间。一爻对应一日，我们可以把复卦六爻代表每年的12月23日到12月28日，刚好西方的圣诞节也在这个期间。\u003c/p\u003e\u003cp\u003e在农耕文化时代，冬至这个节日值得庆贺，太阳回归，万物复苏有希望。所以南方很多地方有\"冬至大过年\"的说法。\u003c/p\u003e\u003cdiv class\u003d\"pgc-img\"\u003e\u003cimg src\u003d\"https://p3.pstatp.com/large/dfic-imagehandler/e681dea6-19f6-498e-a5f2-5a5d1621c7e3\" img_width\u003d\"451\" img_height\u003d\"300\" inline\u003d\"0\" alt\u003d\"冬至一阳生，一元复始记复卦之象\" onerror\u003d\"javascript:errorimg.call(this);\"\u003e\u003cp class\u003d\"pgc-img-caption\"\u003e\u003c/p\u003e\u003c/div\u003e\u003cp\u003e复卦五阴一阳，阳气微弱，阴气旺盛。冬至日太阳高度最低，日照时间最短，地面吸收热量不多，虽然太阳开始北移，地面温度却在降低。冬至后反而是数九寒冬。\u003c/p\u003e\u003cp\u003e卦有六爻，从阳气剥尽到阳气初生，一共七天时间，所以有\"七日来复\"的说法，剥极必有复，复见天地心。\u003c/p\u003e\u003cp\u003e复卦，震行坤顺，所以出入无疾，朋来无咎。从卦象来看，雷在地中，雷阳蛰伏，这微弱的阳还是不能随便挥霍，所以古人在这时要顺应天道，静心养阳。\u003c/p\u003e\u003cp\u003e正因为养阳的重要性，所以易经《象传》中说：\"雷在地中，复。先王以至日闭关，商旅不行，后不省方。\"\u003c/p\u003e\u003cp\u003e在古代，冬至日要关闭要塞，道路不行商贾旅客，君王不省视四方。就是领导带头休养生息，安静养阳，这真是一个全国性的节日。\u003c/p\u003e\u003c/div\u003e",
    "source": "壹圆文化",
    "comment_count": 2,
    "logo_show_strategy": "normal",
    "hupu_content_image_urls": [
      ""
    ],
    "creator_uid": 5442441065
  },
  "success": true
}