{
  "_ck": {},
  "data": {
    "detail_source": "壹圆文化",
    "media_user": {
      "screen_name": "壹圆文化",
      "no_display_pgc_icon": false,
      "avatar_url": "https://p3.pstatp.com/thumb/ff4c0000329fa7e5df8e",
      "id": "1617719604580359",
      "user_auth_info": {
        "auth_type": "0",
        "other_auth": {
          "interest": "优质文化领域创作者"
        },
        "auth_info": "建筑公司总经理 优质文化领域创作者"
      }
    },
    "publish_time": 1577278542,
    "hotwords": [
      {
        "stress_type": 0,
        "hot_word": "录明星整容视频勒索"
      },
      {
        "stress_type": 1,
        "hot_word": "宁静再演孝庄"
      },
      {
        "stress_type": 0,
        "hot_word": "日常佩戴13公斤黄金"
      },
      {
        "stress_type": 0,
        "hot_word": "中国化工集团被约谈"
      },
      {
        "stress_type": 0,
        "hot_word": "医生用筷子紧急救人"
      },
      {
        "stress_type": 1,
        "hot_word": "黄渤回应女版黄渤"
      },
      {
        "stress_type": 1,
        "hot_word": "贾跃亭股份被冻结"
      },
      {
        "stress_type": 1,
        "hot_word": "买老鼠夹送香肠"
      }
    ],
    "title": "学习奇门遁甲，最好先读读烟波钓叟歌",
    "url": "http://toutiao.com/group/6774358627089121796/",
    "high_quality_flag": "0",
    "impression_count": "11560",
    "is_original": true,
    "is_pgc_article": true,
    "content": "\u003cp\u003e上古时代，黄帝大战蚩尤于涿鹿。黄帝梦见天神授符，为了赢得战争，黄帝就命令风后推演奇门，始有遁甲。\u003c/p\u003e\u003cdiv class\u003d\"pgc-img\"\u003e\u003cimg src\u003d\"https://p3.pstatp.com/large/dfic-imagehandler/53ff6df4-58a4-41b6-a131-578335a54d5f\" img_width\u003d\"1200\" img_height\u003d\"801\" inline\u003d\"0\" alt\u003d\"学习奇门遁甲，最好先读读烟波钓叟歌\" onerror\u003d\"javascript:errorimg.call(this);\"\u003e\u003cp class\u003d\"pgc-img-caption\"\u003e\u003c/p\u003e\u003c/div\u003e\u003cp\u003e尧命大禹治水，得九天玄女所传，根据洛龟画九畴，才得以著成奇门遁甲。\u003c/p\u003e\u003cp\u003e上述就是明朝刘伯温为《奇门遁甲》写的序。什么神仙授符当然是故弄玄虚。但是上面这段话告诉我们，不懂河图、洛书是没办法学奇门的。\u003c/p\u003e\u003cp\u003e历史上能够用奇门遁甲的都是赫赫有名的开国军师，汉朝的张良、三国的诸葛亮、明朝的刘伯温。看来《奇门遁甲》当初就是用来用兵打仗。他们几位在长期的实践中，也作了适当精减和丰富。\u003c/p\u003e\u003cp\u003e带兵打仗我们普罗大众是没有机会了，奇门遁甲的用处也不仅仅用于兵法阵仗。后来，没想到奇门在术数上能够大放异彩。\u003c/p\u003e\u003cp\u003e当然，奇门能在术数上应用得这么好，少不了一首《烟波钓叟歌》的作用。此歌算是术数派奇门的经典文献。字数不多，朗朗上口。一是讲述了奇门的基本原理，二是讲解奇门遁甲的操作方法。算是学奇门的入门和必读。\u003c/p\u003e\u003cdiv class\u003d\"pgc-img\"\u003e\u003cimg src\u003d\"https://p3.pstatp.com/large/pgc-image/98a1b0771627468c9ec2c3c2389fb3e0\" img_width\u003d\"2166\" img_height\u003d\"1786\" inline\u003d\"0\" alt\u003d\"学习奇门遁甲，最好先读读烟波钓叟歌\" onerror\u003d\"javascript:errorimg.call(this);\"\u003e\u003cp class\u003d\"pgc-img-caption\"\u003e\u003c/p\u003e\u003c/div\u003e\u003cp\u003e《烟波钓叟歌》到底是谁写的？书于哪朝哪代？作者是何方大神？这些都成了谜。但从书名来看，似乎是一位精通奇门的易学隐士所撰写。\u003c/p\u003e\u003cp\u003e明代正德年间的罗通在《奇门遁甲总龟》的序文中写道：\u0026#34;\u003cstrong\u003e今参考宋平章赵公所作歌诀，发明奇门遁甲之要，予集成增韵，名曰\u0026#39;钓叟歌\u0026#39;\u0026#34;\u003c/strong\u003e。似乎透露了作者信息。\u003c/p\u003e\u003cp\u003e赵平章是谁？就是说过\u0026#34;半部论语治天下\u0026#34;的赵普。他辅助宋太祖赵匡胤发动\u0026#34;陈桥兵变\u0026#34;夺得天下，历任太祖和太宗两朝的宰相。\u003c/p\u003e\u003cp\u003e赵普读书不多，却是耍弄权术、手腕的高手，也是一个彻底的儒家。按照上面序文的说法，《烟波钓叟歌》第一作者是赵普，第二作者是罗通。\u003c/p\u003e\u003cp\u003e这个说法我是不相信的！因为赵普是弄权术的，不懂术数。古代很多文献的作者没有名气，就假托名人所作。《论语》上都不一定全是孔子说过的话。\u003c/p\u003e\u003cp\u003e明朝罗通整理过《烟波钓叟歌》是无疑的，说明成书肯定在明朝以前。所以清代很多学者认为此书应该是宋朝人所作。\u003c/p\u003e\u003cp\u003e《烟波钓叟歌》问世后，很多易学家对此做过注解。其中影响最大的大概有两个人。一个是明朝人池本理，就是写《禽星易见》的那个，赣州人。他写了《烟波钓叟歌句解》。另外一个人是清朝丁凯曾，他的作品叫《烟波钓叟歌直解》。\u003c/p\u003e\u003cdiv class\u003d\"pgc-img\"\u003e\u003cimg src\u003d\"https://p3.pstatp.com/large/pgc-image/47fda15c65174ee38dbb2afd5b00c3b7\" img_width\u003d\"2166\" img_height\u003d\"1786\" inline\u003d\"0\" alt\u003d\"学习奇门遁甲，最好先读读烟波钓叟歌\" onerror\u003d\"javascript:errorimg.call(this);\"\u003e\u003cp class\u003d\"pgc-img-caption\"\u003e\u003c/p\u003e\u003c/div\u003e\u003cp\u003e这两本书都把歌诀通俗化了，还加上了他们自己的见解。不过我觉得《烟波钓叟歌》本来也不难，关键你得理解先天八卦体系，还要通晓河图、洛书，更要懂得后天八卦与九宫的应用。\u003c/p\u003e\u003cp\u003e刘伯温在《奇门遁甲总序》就把这些基本要求也说清楚了，比如后天九宫八卦：一坎二坤三震四巽五中六乾七兑八艮九离。洛书数对应后天八卦方位。\u003c/p\u003e\u003cdiv class\u003d\"pgc-img\"\u003e\u003cimg src\u003d\"https://p3.pstatp.com/large/pgc-image/e90695dd5d554b4a939d88875a66c0c1\" img_width\u003d\"640\" img_height\u003d\"606\" inline\u003d\"0\" alt\u003d\"学习奇门遁甲，最好先读读烟波钓叟歌\" onerror\u003d\"javascript:errorimg.call(this);\"\u003e\u003cp class\u003d\"pgc-img-caption\"\u003e\u003c/p\u003e\u003c/div\u003e\u003cp\u003e再用八卦分八节，一节统三气，这样时空方位就结合起来了，也没有多复杂。\u003c/p\u003e\u003cp\u003e奇门当然要立门，八卦对八门：休门坎、生门艮、伤门震、杜门巽、景门离、死门坤、惊门兑。\u003c/p\u003e\u003cp\u003e所以学奇门遁甲并不难，没有基础的可以回去看我写的河图、洛书和先、后天八卦的文章。后面的文章为各位易友解读《烟波钓叟歌》。\u003c/p\u003e",
    "source": "壹圆文化",
    "comment_count": 42,
    "logo_show_strategy": "normal",
    "hupu_content_image_urls": [
      ""
    ],
    "creator_uid": 5442441065
  },
  "success": true
}