{
  "_ck": {},
  "data": {
    "detail_source": "壹圆文化",
    "media_user": {
      "screen_name": "壹圆文化",
      "no_display_pgc_icon": false,
      "avatar_url": "https://p3.pstatp.com/thumb/ff4c0000329fa7e5df8e",
      "id": "1617719604580359",
      "user_auth_info": {
        "auth_type": "0",
        "other_auth": {
          "interest": "优质文化领域创作者"
        },
        "auth_info": "建筑公司总经理 优质文化领域创作者"
      }
    },
    "publish_time": 1578908719,
    "hotwords": [
      {
        "stress_type": 0,
        "hot_word": "录明星整容视频勒索"
      },
      {
        "stress_type": 1,
        "hot_word": "宁静再演孝庄"
      },
      {
        "stress_type": 0,
        "hot_word": "日常佩戴13公斤黄金"
      },
      {
        "stress_type": 0,
        "hot_word": "中国化工集团被约谈"
      },
      {
        "stress_type": 0,
        "hot_word": "医生用筷子紧急救人"
      },
      {
        "stress_type": 1,
        "hot_word": "黄渤回应女版黄渤"
      },
      {
        "stress_type": 1,
        "hot_word": "贾跃亭股份被冻结"
      },
      {
        "stress_type": 1,
        "hot_word": "买老鼠夹送香肠"
      }
    ],
    "title": "在奇门遁甲中，如何正确理解三奇及六仪？",
    "url": "http://toutiao.com/group/6781361310996103684/",
    "high_quality_flag": "0",
    "impression_count": "10249",
    "is_original": true,
    "is_pgc_article": true,
    "content": "\u003cp\u003e《烟波钓叟歌》中说：\u0026#34;\u003cstrong\u003e六甲元号六仪名，三奇即是乙丙丁\u003c/strong\u003e。\u0026#34;这就是奇门遁甲的由来和含义。\u003c/p\u003e\u003cp\u003e也解释了什么是三奇和六仪。\u003c/p\u003e\u003cp\u003e《符应经》云：\u0026#34;六甲者，天之贵神也，常隐于六仪之下。六仪者，戊、己、庚、辛、壬、癸是也。 甲子同六戊，甲戌同六己，甲申同六庚，甲午同六辛，甲辰同六壬，甲寅同六癸。\u0026#34;\u003c/p\u003e\u003cp\u003e上面说的就是\u0026#34;六甲元号六仪名\u0026#34;的意思。\u003c/p\u003e\u003cdiv class\u003d\"pgc-img\"\u003e\u003cimg src\u003d\"https://p3.pstatp.com/large/pgc-image/84b0a354122446d4aead8666c4a51aa2\" img_width\u003d\"512\" img_height\u003d\"251\" inline\u003d\"0\" alt\u003d\"在奇门遁甲中，如何正确理解三奇及六仪？\" onerror\u003d\"javascript:errorimg.call(this);\"\u003e\u003cp class\u003d\"pgc-img-caption\"\u003e\u003c/p\u003e\u003c/div\u003e\u003cp\u003e《符应经》又云：\u0026#34;三奇，乙、丙、丁也。六乙属太阳，为日奇。六丙属太阴，为月奇。六丁属星曜，为星奇。乃三光也。\u0026#34;\u003c/p\u003e\u003cp\u003e天干、地支都是时间，为什么又要定三奇、六仪呢？按照《符应经》的说法，甲为十天干之首，为太乙人君之象，是天上的贵神，统领其它天干。\u003c/p\u003e\u003cp\u003e甲五行属木，五常为仁，主生发。所以世间趋避之事，常利用它来作为生气。庚金能克甲木，庚为七煞之仇。甲木作为至尊至贵，不能轻易显身被克，所以要常隐藏在六仪之下，这就是\u0026#34;遁甲\u0026#34;的由来。\u003c/p\u003e\u003cp\u003e甲木身份尊贵，当然不会与庚金恃气斗勇，它隐于六仪，而以奇制庚，使其不露锋芒。怎么用呢？有下面的说法。\u003c/p\u003e\u003cp\u003e天干乙原来是甲的妹妹，甲把它妹妹嫁给庚，以妻道事庚，乙庚虽然也是合化成金，但已敛其锐气且不与甲为敌，乙庚合而能救甲，所以乙为第一奇。\u003c/p\u003e\u003cp\u003e天干丙是甲的儿子，丙火能克庚金而救甲，所以丙为第二奇。天干丁是甲的女儿，丁火虽柔，即使不能熔化庚金，也能软化庚金，庚软锋钝则不能伤甲木。\u003c/p\u003e\u003cdiv class\u003d\"pgc-img\"\u003e\u003cimg src\u003d\"https://p3.pstatp.com/large/pgc-image/d7dff47c2d504f79b1b091747c6a04f9\" img_width\u003d\"640\" img_height\u003d\"271\" inline\u003d\"0\" alt\u003d\"在奇门遁甲中，如何正确理解三奇及六仪？\" onerror\u003d\"javascript:errorimg.call(this);\"\u003e\u003cp class\u003d\"pgc-img-caption\"\u003e\u003c/p\u003e\u003c/div\u003e\u003cp\u003e说白了，三奇就是尊贵之甲的一家子。遁甲是为了保护自己，隐藏在六仪之下。我们知道六甲是甲子、甲戌、甲申、甲午、甲辰、甲寅。遁甲就是分别隐藏在戊、已、庚、辛、壬、癸这六仪下面。\u003c/p\u003e\u003cp\u003e在天干地支中，每仪也有六个，就是上面说的甲子同六戊，甲午同六辛等等。在布局推演时，就用戊、己、庚、辛、壬、癸分别代表甲子、甲戌、甲申、甲午、甲辰、甲寅这六甲。\u003c/p\u003e\u003cp\u003e我们知道，奇门遁甲是在九宫上来排盘的，六仪也是六甲，只能占据其中六宫，其余三宫就是布三奇乙、丙、丁了，也就是日、月、星三光。\u003c/p\u003e\u003cp\u003e知道了三奇六仪，下面就要了解它们是如何排布。《烟波钓叟歌》中说：\u0026#34;\u003cstrong\u003e阳遁顺仪奇逆布，阴遁逆仪奇顺行\u003c/strong\u003e。\u0026#34;阴阳二遁分顺逆。\u003c/p\u003e\u003ch1 class\u003d\"pgc-h-arrow-right\"\u003e一、冬至过后的十二节，为阳遁，这时要顺布六仪，逆布三奇。星符也随时干行。\u003c/h1\u003e\u003cp\u003e比如冬至阳一局，坎上起甲子（戊），坤上甲戌（己），震上甲申（庚），巽上甲午（辛），中宫甲辰（壬），乾上甲寅（癸），都是由一、二、三、四、五、六宫顺行。\u003c/p\u003e\u003cdiv class\u003d\"pgc-img\"\u003e\u003cimg src\u003d\"https://p3.pstatp.com/large/pgc-image/df76d069d71242a789b45858aab22a35\" img_width\u003d\"3682\" img_height\u003d\"1646\" inline\u003d\"0\" alt\u003d\"在奇门遁甲中，如何正确理解三奇及六仪？\" onerror\u003d\"javascript:errorimg.call(this);\"\u003e\u003cp class\u003d\"pgc-img-caption\"\u003e\u003c/p\u003e\u003c/div\u003e\u003cp\u003e布完六仪即布三奇，六仪顺则三奇逆。所以兑上丁奇，艮上丙奇，离上乙奇。乙、丙、丁逆布七、八、九宫。\u003c/p\u003e\u003ch1 class\u003d\"pgc-h-arrow-right\"\u003e二、夏至过后十二节用阴遁，这时要逆布六仪，顺布三奇。星符也随时干行。\u003c/h1\u003e\u003cp\u003e比如夏至阴九局，离上起甲子（戊），艮上甲戌（己），兑上甲申（庚），乾上甲午（辛），中宫甲辰（壬），巽上甲寅（癸），都是由九、八、七、六、五、四宫逆行。\u003c/p\u003e\u003cp\u003e布完六仪即布三奇，六仪逆则三奇顺。所以震上丁奇，坤上丙奇，坎上乙奇。乙、丙、丁顺布一、二、三宫。\u003c/p\u003e\u003cp\u003e这里要注意，六仪、三奇，在奇门遁甲中代表时间。在奇门遁甲的定局中，得三奇的方位则得吉祥。\u003c/p\u003e\u003cp\u003e《烟波钓叟歌》中说：\u0026#34;\u003cstrong\u003e吉门偶尔合三奇，万事开三万事宜\u003c/strong\u003e。\u0026#34;三吉门就是北方三白（一、六、八），即开、休、生三门。\u003c/p\u003e\u003cp\u003e《五总龟》上说：\u0026#34;大抵要得开、休、生三门，则用事为吉，更有三奇临之，可用无疑。如得门不得奇，亦可用。得奇不得门，终非吉。奇门俱不得，即凶。\u0026#34;\u003c/p\u003e\u003cp\u003e大家好好理解这段话。\u003c/p\u003e",
    "source": "壹圆文化",
    "comment_count": 14,
    "logo_show_strategy": "normal",
    "hupu_content_image_urls": [
      ""
    ],
    "creator_uid": 5442441065
  },
  "success": true
}