{
  "_ck": {},
  "data": {
    "detail_source": "壹圆文化",
    "media_user": {
      "screen_name": "壹圆文化",
      "no_display_pgc_icon": false,
      "avatar_url": "https://p3.pstatp.com/thumb/ff4c0000329fa7e5df8e",
      "id": "1617719604580359",
      "user_auth_info": {
        "auth_type": "0",
        "other_auth": {
          "interest": "优质文化领域创作者"
        },
        "auth_info": "建筑公司总经理 优质文化领域创作者"
      }
    },
    "publish_time": 1579073078,
    "hotwords": [
      {
        "stress_type": 0,
        "hot_word": "录明星整容视频勒索"
      },
      {
        "stress_type": 1,
        "hot_word": "宁静再演孝庄"
      },
      {
        "stress_type": 0,
        "hot_word": "日常佩戴13公斤黄金"
      },
      {
        "stress_type": 0,
        "hot_word": "中国化工集团被约谈"
      },
      {
        "stress_type": 0,
        "hot_word": "医生用筷子紧急救人"
      },
      {
        "stress_type": 1,
        "hot_word": "黄渤回应女版黄渤"
      },
      {
        "stress_type": 1,
        "hot_word": "贾跃亭股份被冻结"
      },
      {
        "stress_type": 1,
        "hot_word": "买老鼠夹送香肠"
      }
    ],
    "title": "奇门遁甲有三奇得使格，该如何理解？",
    "url": "http://toutiao.com/group/6782067228150858252/",
    "high_quality_flag": "0",
    "impression_count": "293",
    "is_original": true,
    "is_pgc_article": true,
    "content": "\u003cp\u003e上一篇文章写了开、休、生为三吉门，合三吉门则用事大吉，如果得乙、丙、丁三奇加临，更是吉上加吉，肯定可用无疑。\u003c/p\u003e\u003cdiv class\u003d\"pgc-img\"\u003e\u003cimg src\u003d\"https://p3.pstatp.com/large/pgc-image/1bf3094c55b3445c90b42e0ee5a43cb0\" img_width\u003d\"2823\" img_height\u003d\"2430\" inline\u003d\"0\" alt\u003d\"奇门遁甲有三奇得使格，该如何理解？\" onerror\u003d\"javascript:errorimg.call(this);\"\u003e\u003cp class\u003d\"pgc-img-caption\"\u003e\u003c/p\u003e\u003c/div\u003e\u003cp\u003e如果得门不得奇，也可以用，得奇不得门，最终还是不吉利，奇门都不得，肯定为凶。《烟波钓叟歌》上说：\u0026#34;\u003cstrong\u003e吉门偶尔合三奇，万事开三万事宜。\u003c/strong\u003e\u0026#34;\u003c/p\u003e\u003cp\u003e后面又有一句：\u0026#34;\u003cstrong\u003e更合从旁加检点，余宫不可有微疵。\u003c/strong\u003e\u0026#34;很多易学家认为，有门有奇三盘皆吉，余七宫若犯凶星，则此宫也不可用。\u003c/p\u003e\u003cp\u003e如果按上面这样去理解，如果要八方都能吉利，即使把十八局择尽也不一定能选择到。奇门择日也只是一方用事，其它方有微疵，也只是指庚加日干之类，虽然在其它宫，但关系到一个时辰，这种格也不常遇到。\u003c/p\u003e\u003cp\u003e除了三门得三奇是吉格，同时还有三奇得三使的吉格，本文就来论述一下。\u003c/p\u003e\u003cp\u003e三门得三奇，是人盘针对天盘来说的。三奇得三使，是天盘针对地盘来说的。《烟波钓叟歌》中说：\u0026#34;\u003cstrong\u003e三奇得使诚堪使，六甲遇之非小补\u003c/strong\u003e。\u0026#34;\u003c/p\u003e\u003cp\u003e这两句讲的是三奇得使这样的吉格，如果天盘三奇中的一奇与地盘特定的六甲相遇，就形成三奇得使格，非常吉利。\u003c/p\u003e\u003cp\u003e天盘乙奇遇地盘甲戌、甲午为乙奇得使。天盘丙奇遇地盘甲子、甲申为丙奇得使。天盘丁奇遇地盘甲辰、甲寅为丁奇得使。\u003c/p\u003e\u003cp\u003e甲戌为犬，甲午为马，甲子为鼠，甲申为猴，甲辰为龙，甲寅为虎，所以《烟波钓叟歌》中又有下一句：\u0026#34;\u003cstrong\u003e乙逢犬马丙鼠猴，六丁玉女骑龙虎\u003c/strong\u003e。\u0026#34;其实讲的也是三奇得使。\u003c/p\u003e\u003cdiv class\u003d\"pgc-img\"\u003e\u003cimg src\u003d\"https://p3.pstatp.com/large/dfic-imagehandler/29674f7b-27a9-4668-8715-b485541b385c\" img_width\u003d\"1200\" img_height\u003d\"826\" inline\u003d\"0\" alt\u003d\"奇门遁甲有三奇得使格，该如何理解？\" onerror\u003d\"javascript:errorimg.call(this);\"\u003e\u003cp class\u003d\"pgc-img-caption\"\u003e\u003c/p\u003e\u003c/div\u003e\u003cp\u003e关于三奇得使的看法，历史上是有争论的。\u003c/p\u003e\u003cp\u003e一、一种是池本理为代表，就是说三奇得使就是吉。\u003c/p\u003e\u003cp\u003e池本理认为，甲为君位，三奇是他的宰辅，避旺地，只居生库宫，为自得所使。自午起甲顺行，乙奇到未，就是到了木库宫。\u003c/p\u003e\u003cp\u003e自戌起甲顺行，那么乙奇到亥，到了长生宫。自子起甲顺行，那么丙奇到寅，到火生宫。自申起甲顺行，那么丙奇到戌，到了火库。丁奇属火也属金，丙既居生库宫，丁则到临官宫。\u003c/p\u003e\u003cp\u003e上面的说法是用十二长生的原理。\u003c/p\u003e\u003cp\u003e经文上说：\u0026#34;时加六甲一开一合，上下交接。\u0026#34;阳星（天逢、天任、天辅、天冲、天禽）加时为开，阴星（天英、天芮、天柱、天心）加时为合。\u003c/p\u003e\u003cp\u003e六甲之时，合时百事凶，开时百事吉。若无奇门合得此局，也是次吉，这就是\u0026#34;小补\u0026#34;的意思。\u003c/p\u003e\u003cp\u003e二、另外一种是丁凯曾的看法。他认为三奇得使，是对得奇得门的补充，非常吉利。\u003c/p\u003e\u003cp\u003e\u0026#34;\u003cstrong\u003e乙逢犬马丙鼠猴，六丁玉女骑龙虎\u003c/strong\u003e\u0026#34;就是讲乙奇加甲戌、甲午值符，丙奇加甲子、甲申值符，丁奇加甲寅、甲辰值符。\u003c/p\u003e\u003cp\u003e如果奇与吉门加临一方，同时又加临于六甲值符之宫，是奇门共加值符之位。这种吉利非同小可。也是后面一句\u0026#34;\u003cstrong\u003e六甲遇之非小补\u003c/strong\u003e\u0026#34;的真正含义。\u003c/p\u003e\u003cp\u003e值符是值十时之生气神将，与六仪之甲不同，其神本吉，又得奇与吉门同加临，当然更加吉利。\u003c/p\u003e\u003cp\u003e高修也有相似说法，认为：\u0026#34;凡遇六甲值符为自得所使之奇合得吉门，非同小补\u0026#34;。差不多是一个意思。并且他讲甲戌、甲午顺行起乙奇，就是亥、卯、未合木局，自得旺气。\u003c/p\u003e\u003cdiv class\u003d\"pgc-img\"\u003e\u003cimg src\u003d\"https://p3.pstatp.com/large/pgc-image/47e882e2ad9745c8a8c36b07ab29ebbd\" img_width\u003d\"2866\" img_height\u003d\"2095\" inline\u003d\"0\" alt\u003d\"奇门遁甲有三奇得使格，该如何理解？\" onerror\u003d\"javascript:errorimg.call(this);\"\u003e\u003cp class\u003d\"pgc-img-caption\"\u003e\u003c/p\u003e\u003c/div\u003e\u003cp\u003e甲子、甲申顺行起丙奇，就是寅、午、戌合火局，也是自得旺气。甲辰、甲寅顺行起丁奇，就是巳、午、未南方会火局，也是自得旺气。\u003c/p\u003e\u003cp\u003e我个人还是比较倾向于第二种说法，歌诀要联系上下文来解读。\u003c/p\u003e",
    "source": "壹圆文化",
    "comment_count": 5,
    "logo_show_strategy": "normal",
    "hupu_content_image_urls": [
      ""
    ],
    "creator_uid": 5442441065
  },
  "success": true
}