{
  "_ck": {},
  "data": {
    "detail_source": "壹圆文化",
    "media_user": {
      "screen_name": "壹圆文化",
      "no_display_pgc_icon": false,
      "avatar_url": "https://p3.pstatp.com/thumb/ff4c0000329fa7e5df8e",
      "id": "1617719604580359",
      "user_auth_info": {
        "auth_type": "0",
        "other_auth": {
          "interest": "优质文化领域创作者"
        },
        "auth_info": "建筑公司总经理 优质文化领域创作者"
      }
    },
    "publish_time": 1581824999,
    "hotwords": [
      {
        "stress_type": 0,
        "hot_word": "录明星整容视频勒索"
      },
      {
        "stress_type": 1,
        "hot_word": "宁静再演孝庄"
      },
      {
        "stress_type": 0,
        "hot_word": "日常佩戴13公斤黄金"
      },
      {
        "stress_type": 0,
        "hot_word": "中国化工集团被约谈"
      },
      {
        "stress_type": 0,
        "hot_word": "医生用筷子紧急救人"
      },
      {
        "stress_type": 1,
        "hot_word": "黄渤回应女版黄渤"
      },
      {
        "stress_type": 1,
        "hot_word": "贾跃亭股份被冻结"
      },
      {
        "stress_type": 1,
        "hot_word": "买老鼠夹送香肠"
      }
    ],
    "title": "喜欢学易的朋友，一定要读读焦氏易林，读不懂也要读",
    "url": "http://toutiao.com/group/6793886638205305348/",
    "high_quality_flag": "0",
    "impression_count": "1180",
    "is_original": true,
    "is_pgc_article": true,
    "content": "\u003cdiv\u003e\u003cp\u003e平台对涉易文章审核相当严格，看来后面很难将其余的写完，就教教大家如何学习和提高吧。\u003c/p\u003e\u003cdiv class\u003d\"pgc-img\"\u003e\u003cimg src\u003d\"https://p3.pstatp.com/large/dfic-imagehandler/aac1f820-b9a3-4695-89d2-23edf4930a1f\" img_width\u003d\"1200\" img_height\u003d\"798\" inline\u003d\"0\" alt\u003d\"喜欢学易的朋友，一定要读读焦氏易林，读不懂也要读\" onerror\u003d\"javascript:errorimg.call(this);\"\u003e\u003cp class\u003d\"pgc-img-caption\"\u003e\u003c/p\u003e\u003c/div\u003e\u003cp\u003e《焦氏易林》又称《易林》，是西汉易学大师焦赣所作，此书上承孟喜及先秦易学，下启京房象数易学。\u003c/p\u003e\u003cp\u003e《易林》集秦汉易学之大成，开易学象数理论的先河，在易学史上有着重要的地位，收入在《四库全书》和《道藏》中。\u003c/p\u003e\u003cp\u003e焦赣是汉元帝时为卦为三老之人，一辈子潜心攻读《易经》。应该说他是通晓了易经，并且用自己的语言写出来了的大师。\u003c/p\u003e\u003cp\u003e我们可以看看南怀瑾是如何评价焦延寿的。\u003c/p\u003e\u003cp\u003e他说：\"焦赣写《易林》，其中把八八六十四卦所演变的卦都解释出来，所用的卦辞，统统不用《周易》，而是自己另外创造一套，他是把《易经》研究通了。\"\u003c/p\u003e\u003cp\u003e\"法则通了，不一定要照原来的东西，等于每个庙的签诗，有关帝签、观音签、济颠和尚签等等，各有各的签诗，都不相同。\"\u003c/p\u003e\u003cdiv class\u003d\"pgc-img\"\u003e\u003cimg src\u003d\"https://p3.pstatp.com/large/dfic-imagehandler/662c3180-dbf1-465c-a39b-ba08b4cc1e95\" img_width\u003d\"1200\" img_height\u003d\"798\" inline\u003d\"0\" alt\u003d\"喜欢学易的朋友，一定要读读焦氏易林，读不懂也要读\" onerror\u003d\"javascript:errorimg.call(this);\"\u003e\u003cp class\u003d\"pgc-img-caption\"\u003e\u003c/p\u003e\u003c/div\u003e\u003cp\u003e\"所以焦赣的易林，卜卦的解释方法，和《周易》不一样，可以说是一种革命。因为他懂了，他的智慧够了，所以才能产生出来他的一套方法。\"\u003c/p\u003e\u003cp\u003e\"焦赣传《易》给京房，京房在东汉的时候，言无不中，皇帝有什么事都去问他。但是焦赣说，京房把我的易学学通了，可是将来必死于易学，结果京房果然是因易而被杀头了。\"\u003c/p\u003e\u003cp\u003e从上面评价中，我个人认为，从贴近易经本质的角度来说，《焦氏易林》要高于孔子的《十翼》。\u003c/p\u003e\u003cp\u003e文王拘而演《周易》，焦赣读通《周易》写《易林》，两者地位差不多。\u003c/p\u003e\u003cp\u003e《易林》是用四言诗的方式，用断辞来描述卦变之间的内在逻辑和事物发展规律，其应用工具就是本卦、互卦、之卦。\u003c/p\u003e\u003cp\u003e可惜《易林》的断辞实在是诘屈聱牙、晦涩难懂。很多朋友说，不仅仅《易林》看不懂，甚至《易林》的注解都看不懂。\u003c/p\u003e\u003cp\u003e如果你能看懂，那么学易至少五成功力了。\u003c/p\u003e\u003cdiv class\u003d\"pgc-img\"\u003e\u003cimg src\u003d\"https://p3.pstatp.com/large/dfic-imagehandler/91181a0c-f44e-40a5-8148-11518f358ecc\" img_width\u003d\"1200\" img_height\u003d\"800\" inline\u003d\"0\" alt\u003d\"喜欢学易的朋友，一定要读读焦氏易林，读不懂也要读\" onerror\u003d\"javascript:errorimg.call(this);\"\u003e\u003cp class\u003d\"pgc-img-caption\"\u003e\u003c/p\u003e\u003c/div\u003e\u003cp\u003e下面我们举例来说明。比如乾之乾，之就是变化中\"去到\"的意思，乾之乾，就是本卦是乾，变化后的之卦也是乾。中间四爻组成的互卦也是乾。\u003c/p\u003e\u003cp\u003e它的四言诗是这样的，\"\u003cstrong\u003e道陟石阪，胡言连謇。译瘖且聋，莫使道通。请谒不行，求事无功。\u003c/strong\u003e\"\u003c/p\u003e\u003cp\u003e是不是看了满脑门子浆糊？但是，《易林》断辞中的每一个字都是有用的，就跟《周易》的卦爻辞一样。\u003c/p\u003e\u003cp\u003e乾为天道，着落在第一个\"道\"字，\"陟\"为两脚交替上台阶的样子，可\u003c/p\u003e{!-- PGC_COLUMN --}\u003cp\u003e以理解为登高的意思。\u003c/p\u003e\u003cp\u003e\"阪\"是山腰上的登山小道，古代没有混凝土，台阶只能用条石铺成，所以叫\"石阪\"。\u003c/p\u003e\u003cp\u003e这样一解释，第一句是不是很有画面感？乾为天道，从初至六就象一条登山的石阶，就象一条天梯。\u003c/p\u003e\u003cdiv class\u003d\"pgc-img\"\u003e\u003cimg src\u003d\"https://p3.pstatp.com/large/dfic-imagehandler/0086a88f-dcda-44c8-b0e0-7c3c88546061\" img_width\u003d\"1200\" img_height\u003d\"800\" inline\u003d\"0\" alt\u003d\"喜欢学易的朋友，一定要读读焦氏易林，读不懂也要读\" onerror\u003d\"javascript:errorimg.call(this);\"\u003e\u003cp class\u003d\"pgc-img-caption\"\u003e\u003c/p\u003e\u003c/div\u003e\u003cp\u003e在《周易》的初至六的爻辞也是这样描述的。\u003c/p\u003e\u003cp\u003e\"胡\"是西北的少数民族地区，乾又为言，所以是\"胡言\"。\"謇\"是口吃、结巴的意思，初至六都为阳，所以是\"连謇\"。\u003c/p\u003e\u003cp\u003e译可理解成翻译，从少数民族语言翻译成自己的语言。\"瘖\"就是哑巴只能发声，说不出话。\u003c/p\u003e\u003cp\u003e中间两句什么意思？\u003c/p\u003e\u003cp\u003e震为鸣，坎为耳，艮为道，乾之乾，阳变还是阳，纯乾使得三子都不见，所以翻译胡言成了哑巴，成了聋子，道路不通。\u003c/p\u003e\u003cp\u003e\"谒\"是拜见的意思，后面两句其实很好理解了，就是求人也不成，办事也不成，这就是乾之乾变化提示的道理。\u003c/p\u003e\u003cdiv class\u003d\"pgc-img\"\u003e\u003cimg src\u003d\"https://p3.pstatp.com/large/dfic-imagehandler/8ad03f72-1679-458a-b9ff-3c036a94431c\" img_width\u003d\"1200\" img_height\u003d\"674\" inline\u003d\"0\" alt\u003d\"喜欢学易的朋友，一定要读读焦氏易林，读不懂也要读\" onerror\u003d\"javascript:errorimg.call(this);\"\u003e\u003cp class\u003d\"pgc-img-caption\"\u003e\u003c/p\u003e\u003c/div\u003e\u003cp\u003e是不是解通了就很有画面感，初看晦涩难懂，莫名所以，真正通晓后就会觉得奥妙无穷。\u003c/p\u003e\u003c/div\u003e",
    "source": "壹圆文化",
    "comment_count": 16,
    "logo_show_strategy": "normal",
    "hupu_content_image_urls": [
      ""
    ],
    "creator_uid": 5442441065
  },
  "success": true
}