{
  "_ck": {},
  "data": {
    "detail_source": "壹圆文化",
    "media_user": {
      "screen_name": "壹圆文化",
      "no_display_pgc_icon": false,
      "avatar_url": "https://p3.pstatp.com/thumb/ff4c0000329fa7e5df8e",
      "id": "1617719604580359",
      "user_auth_info": {
        "auth_type": "0",
        "other_auth": {
          "interest": "优质文化领域创作者"
        },
        "auth_info": "建筑公司总经理 优质文化领域创作者"
      }
    },
    "publish_time": 1582616956,
    "hotwords": [
      {
        "stress_type": 0,
        "hot_word": "录明星整容视频勒索"
      },
      {
        "stress_type": 1,
        "hot_word": "宁静再演孝庄"
      },
      {
        "stress_type": 0,
        "hot_word": "日常佩戴13公斤黄金"
      },
      {
        "stress_type": 0,
        "hot_word": "中国化工集团被约谈"
      },
      {
        "stress_type": 0,
        "hot_word": "医生用筷子紧急救人"
      },
      {
        "stress_type": 1,
        "hot_word": "黄渤回应女版黄渤"
      },
      {
        "stress_type": 1,
        "hot_word": "贾跃亭股份被冻结"
      },
      {
        "stress_type": 1,
        "hot_word": "买老鼠夹送香肠"
      }
    ],
    "title": "学而时习之，不亦悦乎即为兑，彬彬有礼即为履",
    "url": "http://toutiao.com/group/6797288066147942924/",
    "high_quality_flag": "0",
    "impression_count": "79",
    "is_original": true,
    "is_pgc_article": true,
    "content": "\u003cdiv\u003e\u003cp\u003e以兑卦为内卦，外卦用阳仪最后两卦兑、乾，与之相摩，即成兑卦和履卦。\u003c/p\u003e\u003ch1\u003e一、兑为喜悦、讲习之卦\u003c/h1\u003e\u003cp\u003e阳仪兑与内卦兑卦相摩，上兑下兑，为重兑卦。\u003c/p\u003e\u003cp\u003e认字认半边，喜悦的\"悦\"字的半边就是\"兑\"。兑卦为什么有喜悦之意？我在前面的文章说过，同阴同阳相敌不叫同类，阴阳相遇才叫同类，同门为朋，同志为友。\u003c/p\u003e\u003cp\u003e兑卦，以一阴见两阳，阴阳相遇当然喜悦，就是说阳得阴而悦。中爻为阳，上爻为阴，所以又叫刚中柔外，就跟地天泰卦一样，所以兑卦的卦辞跟泰卦一样：\"\u003cstrong\u003e亨\u003c/strong\u003e\"，阴阳相遇又是\"\u003cstrong\u003e利贞\u003c/strong\u003e\"。\u003c/p\u003e\u003cdiv class\u003d\"pgc-img\"\u003e\u003cimg src\u003d\"https://p3.pstatp.com/large/dfic-imagehandler/3b3ada62-28ea-4ecf-ae94-be39eaa66a89\" img_width\u003d\"1200\" img_height\u003d\"675\" inline\u003d\"0\" alt\u003d\"学而时习之，不亦悦乎即为兑，彬彬有礼即为履\" onerror\u003d\"javascript:errorimg.call(this);\"\u003e\u003cp class\u003d\"pgc-img-caption\"\u003e\u003c/p\u003e\u003c/div\u003e\u003cp\u003e兑卦位于后天八卦的正西，正是金秋时节，收获的季节肯定是让人开心、喜悦。要想秋天有喜悦的收获，那么春天肯定要好好的劳作。\u003c/p\u003e\u003cp\u003e按先天圆图爻日计算，兑卦正处于四月底五月初，也就是立夏前的五、六天。春夏之交正是农忙的时候，农谚说：\"春争日，夏争时。\"\"四月插秧谷满仓，五月插秧一场光。\"\u003c/p\u003e\u003cp\u003e春夏之交的农忙是很辛苦的。所以古代有\"劝农\"的说法。这在兑卦《彖辞》中有这么一段：\"\u003cstrong\u003e是以顺乎天而应乎人，说以先民，民忘其劳。说以犯难，民忘其死。说之大，民劝矣哉！\u003c/strong\u003e\"\u003c/p\u003e\u003cp\u003e\"劝农\"就是古代鼓励农耕，地方官员要在春夏农忙季节，巡行乡间，劝课农桑。这是地方官员重要政绩之一，如果有抛荒的现象，是要追责的。\u003c/p\u003e\u003cp\u003e说服教育百姓顺应天时，辛勤劳作，就要讲习。劳动时能忘其劳，最好喊喊劳动号子。这都是要靠一张嘴。陶渊明也有一首《劝农》长诗。\u003c/p\u003e\u003cdiv class\u003d\"pgc-img\"\u003e\u003cimg src\u003d\"https://p3.pstatp.com/large/dfic-imagehandler/e532207c-7c30-48ed-a7c7-4846ba2d7258\" img_width\u003d\"1200\" img_height\u003d\"799\" inline\u003d\"0\" alt\u003d\"学而时习之，不亦悦乎即为兑，彬彬有礼即为履\" onerror\u003d\"javascript:errorimg.call(this);\"\u003e\u003cp class\u003d\"pgc-img-caption\"\u003e\u003c/p\u003e\u003c/div\u003e\u003cp\u003e兑卦三、六两个阴爻就是口，这就是兑卦之象。兑卦象曰：\"\u003cstrong\u003e丽泽，兑。君子以朋友讲习。\u003c/strong\u003e\"\"丽\"通\"俪\"，是偶的意思，\"丽泽\"就是重兑，两个泽卦。兑口就是讲习。\u003c/p\u003e\u003cp\u003e所以兑卦几爻基本上是讲喜悦、说话的要求，喜悦也有克制，因为兑卦伏艮，艮为止。祸从口出。\u003c/p\u003e\u003cp\u003e大喜过望、得意忘形都容易出问题，因为三至五爻是大坎之象，就是棺椁，所以有\"\u003cstrong\u003e民忘其死\u003c/strong\u003e\"的辞句。\u003c/p\u003e\u003ch1\u003e二、履卦是要识礼明理，又有鞋子的卦象\u003c/h1\u003e\u003cp\u003e乾卦与兑卦相摩，上乾下兑，天泽履卦。\u003c/p\u003e\u003cp\u003e履者，礼也。《太玄》、《尔雅.\u003c/p\u003e{!-- PGC_COLUMN --}\u003cp\u003e释言》都把履解成\"礼\"。礼最大的功用应该是辩上下、分等级、定尊卑。就象穿鞋子要合适的尺码一样，乱了等级就象穿错了鞋。\u003c/p\u003e\u003cp\u003e上为乾天，下为兑泽，自然等级分明，尊卑判然。所以《象传》说：\"\u003cstrong\u003e上天下泽，履。君子以辩上下，定民志。\u003c/strong\u003e\"\u003c/p\u003e\u003cp\u003e但是等级森严的履卦的卦辞却比较轻松，卦辞为：\"\u003cstrong\u003e履虎尾，不咥人，亨。\u003c/strong\u003e\"踩了老虎尾巴还不咬人，还比较亨通。这是为什么呢？平时我们都讲老虎屁股都摸不得。\u003c/p\u003e\u003cdiv class\u003d\"pgc-img\"\u003e\u003cimg src\u003d\"https://p3.pstatp.com/large/dfic-imagehandler/9fa3b6c7-4c00-4896-b58c-e2f99c666dd1\" img_width\u003d\"1200\" img_height\u003d\"798\" inline\u003d\"0\" alt\u003d\"学而时习之，不亦悦乎即为兑，彬彬有礼即为履\" onerror\u003d\"javascript:errorimg.call(this);\"\u003e\u003cp class\u003d\"pgc-img-caption\"\u003e\u003c/p\u003e\u003c/div\u003e\u003cp\u003e上乾为虎，四爻为尾，兑在乾后，跟随老虎，踩了老虎尾巴，但好在三爻是下兑的三爻。\u003c/p\u003e\u003cp\u003e上乾为严父，下兑为天真浪漫的小女，再严厉的父亲也疼爱娇憨的幼女。甚至小女不小心拔了父亲胡须，也不是惹了天大的祸。\u003c/p\u003e\u003cp\u003e整个履卦也象只鞋子，上面三阳爻是鞋尖、鞋面、鞋帮，下面两阳爻是鞋跟、鞋底，中间开口阴爻，就是穿脚进去的鞋口。鞋是要成双成对的，所以最底下是两阳爻。\u003c/p\u003e\u003cp\u003e按先天圆图爻日推算，天泽履卦在5月3日至8日之间。5月4日是中国青年节，履卦有履行、实践的意思，青年人就要多进行社会实践，履行应尽的义务，并且要知礼、守礼，踏踏实实走好人生道路。\u003c/p\u003e\u003cdiv class\u003d\"pgc-img\"\u003e\u003cimg src\u003d\"https://p3.pstatp.com/large/dfic-imagehandler/84b8b082-22ea-46e1-b263-150f3dc0e2e2\" img_width\u003d\"1200\" img_height\u003d\"801\" inline\u003d\"0\" alt\u003d\"学而时习之，不亦悦乎即为兑，彬彬有礼即为履\" onerror\u003d\"javascript:errorimg.call(this);\"\u003e\u003cp class\u003d\"pgc-img-caption\"\u003e\u003c/p\u003e\u003c/div\u003e\u003cp\u003e兑卦正处立夏时节，万物繁茂，夏收作物进入生长期，这时要及时施肥、除害、管水、间苗，错了一步，都容易造成损失。\u003c/p\u003e\u003cp\u003e所以人生也好，农耕也好，都要象穿鞋走路，走好每一步。\u003c/p\u003e\u003c/div\u003e",
    "source": "壹圆文化",
    "comment_count": 0,
    "logo_show_strategy": "normal",
    "hupu_content_image_urls": [
      ""
    ],
    "creator_uid": 5442441065
  },
  "success": true
}