{
  "_ck": {},
  "data": {
    "detail_source": "壹圆文化",
    "media_user": {
      "screen_name": "壹圆文化",
      "no_display_pgc_icon": false,
      "avatar_url": "https://p3.pstatp.com/thumb/ff4c0000329fa7e5df8e",
      "id": "1617719604580359",
      "user_auth_info": {
        "auth_type": "0",
        "other_auth": {
          "interest": "优质文化领域创作者"
        },
        "auth_info": "建筑公司总经理 优质文化领域创作者"
      }
    },
    "publish_time": 1582789656,
    "hotwords": [
      {
        "stress_type": 0,
        "hot_word": "录明星整容视频勒索"
      },
      {
        "stress_type": 1,
        "hot_word": "宁静再演孝庄"
      },
      {
        "stress_type": 0,
        "hot_word": "日常佩戴13公斤黄金"
      },
      {
        "stress_type": 0,
        "hot_word": "中国化工集团被约谈"
      },
      {
        "stress_type": 0,
        "hot_word": "医生用筷子紧急救人"
      },
      {
        "stress_type": 1,
        "hot_word": "黄渤回应女版黄渤"
      },
      {
        "stress_type": 1,
        "hot_word": "贾跃亭股份被冻结"
      },
      {
        "stress_type": 1,
        "hot_word": "买老鼠夹送香肠"
      }
    ],
    "title": "文人相亲不相轻，历史上的王安石和苏轼，他俩就是典范",
    "url": "http://toutiao.com/group/6798029809399104008/",
    "high_quality_flag": "0",
    "impression_count": "230",
    "is_original": true,
    "is_pgc_article": true,
    "content": "\u003cp\u003e王安石和苏轼，同被尊称为\u0026#34;唐宋八大家\u0026#34;。都是当时才华横溢的诗人、散文家，也是同朝为臣的年轻有为的国家栋梁。\u003c/p\u003e\u003cdiv class\u003d\"pgc-img\"\u003e\u003cimg src\u003d\"https://p3.pstatp.com/large/dfic-imagehandler/981e313b-9f16-4a7e-85f2-ed60f55c48a8\" img_width\u003d\"1200\" img_height\u003d\"802\" inline\u003d\"0\" alt\u003d\"文人相亲不相轻，历史上的王安石和苏轼，他俩就是典范\" onerror\u003d\"javascript:errorimg.call(this);\"\u003e\u003cp class\u003d\"pgc-img-caption\"\u003e\u003c/p\u003e\u003c/div\u003e\u003cp\u003e两人因缘际会，相逢于北宋积贫积弱又内忧外患的时代。两人身不由己同时卷入变法的党争漩涡中。\u003c/p\u003e\u003cp\u003e政见上的针锋相对，让两人相背而离，更是被反对变法的保守派大做文章，把两人传为不共戴天的仇人，两派势同水火。\u003c/p\u003e\u003cp\u003e当时，王安石是变法的领袖，而犹豫不定的苏轼看着在新法的实施过程中，被贪赃枉法之人利用来盘剥百姓，他对王安石激进的改革作风更是不敢苟同，于是走上了积极反对变法的道路。\u003c/p\u003e\u003cp\u003e熙宁二年（1069），王安石准备变更科举制度，请求兴办学校，在科举考试罢除诗赋等科目，专以经、论、策来考试。苏轼随即上《议学校贡举状》，论述贡举之法百年，不可轻易改动。\u003c/p\u003e\u003cp\u003e宋神宗看到此奏本后，召见了苏轼，这事引起王安石的强烈不满。\u003c/p\u003e\u003cp\u003e之后，宋神宗想让苏轼编修中书条例，这时，王安石马上跳出来反对，\u0026#34;轼与臣所学及议论皆异，别试以事可也。\u0026#34;\u003c/p\u003e\u003cp\u003e当王安石得知神宗打算任用苏轼当谏官时，更是极力阻止，并使了一计，让苏轼去开封府做了一个管杂事的小官。\u003c/p\u003e\u003cp\u003e苏轼去了开卦府，当了一个叫推官这样的小官职，可他还是忧国忧民，不那么安分。又写了《上神宗皇帝书》、《再上神宗皇帝》，直接反对新法。\u003c/p\u003e\u003cdiv class\u003d\"pgc-img\"\u003e\u003cimg src\u003d\"https://p3.pstatp.com/large/dfic-imagehandler/ac8e6c68-3e94-4d25-b48e-54266d052239\" img_width\u003d\"1200\" img_height\u003d\"799\" inline\u003d\"0\" alt\u003d\"文人相亲不相轻，历史上的王安石和苏轼，他俩就是典范\" onerror\u003d\"javascript:errorimg.call(this);\"\u003e\u003cp class\u003d\"pgc-img-caption\"\u003e\u003c/p\u003e\u003c/div\u003e\u003cp\u003e最令王安石忍无可忍的是，苏轼在《拟进士对御试策》中说到：\u0026#34;晋武平吴，独断而克；苻坚伐晋，独断而亡；齐桓专任管仲而霸，燕哙专任子之而败；事同功异。\u0026#34;直接影射王安石变法中的独断专行。\u003c/p\u003e\u003cp\u003e王安石怒不可遏，向神宗进言：\u0026#34;轼才亦高，但所学不正……请黜之。\u0026#34;几天后，又对神宗说：\u0026#34;如轼者，不困之使自悔而绌其不逞之心，安肯为陛下用?\u0026#34;\u003c/p\u003e\u003cp\u003e这时，恰巧有人告发苏氏兄弟在运父亲灵柩回乡的过程中偷运私盐，王安石立即下令彻查，并拘捕了相关的人士来询问。\u003c/p\u003e\u003cp\u003e后来，虽然查明此事实属诬陷，但经历这样一次次的交锋，苏轼知道自己已经无法在朝廷中再呆下去，于是请求外放，去杭州当了太守。\u003c/p\u003e\u003cp\u003e苏轼虽去，但朝中反对变法的声势并没有减少。王安石在遭逢诬陷之冤和丧子之痛后，罢相辞官，回到江宁老家。两人前后离开朝廷，终于有机会冰释前嫌。\u003c/p\u003e\u003cp\u003e元丰初年，王安石的朋党李定、舒亶、何正臣等人向神宗皇帝上奏，说苏轼\u0026#34;谤仙朝廷\u0026#34;。神宗大怒，传旨将苏轼逮捕，不久就定罪问斩。除其弟苏辙外，满朝文武无人敢为其求情。\u003c/p\u003e\u003cp\u003e此时，王安石身在江宁，待他得知这场轰动朝野的\u0026#34;乌台诗案\u0026#34;时，苏轼罪名已定，性命危在旦夕。想到国家正值多事之秋，苏轼人才难得。他连夜修书，请人快马加鞭送往京城。\u003c/p\u003e\u003cp\u003e信中说到，目前国家正值用人之际，切不能因为苏轼写了一些不中听的小诗就错杀良材。神宗对王安石敬重有加，看过信后，也觉得有道理，便下旨释放苏轼，将他贬到黄州。\u003c/p\u003e\u003cp\u003e元丰三年（1080）年，苏轼奉命从黄州移居汝州。途经江宁，想起隐居于此的王安石，深为过去王安石不计前嫌冒死相救而感动不已，于是趁此机会专程拜访，以消除多年的隔阂。\u003c/p\u003e\u003cdiv class\u003d\"pgc-img\"\u003e\u003cimg src\u003d\"https://p3.pstatp.com/large/dfic-imagehandler/ebf61775-7fe7-4a54-89be-777afbb6e512\" img_width\u003d\"1200\" img_height\u003d\"659\" inline\u003d\"0\" alt\u003d\"文人相亲不相轻，历史上的王安石和苏轼，他俩就是典范\" onerror\u003d\"javascript:errorimg.call(this);\"\u003e\u003cp class\u003d\"pgc-img-caption\"\u003e\u003c/p\u003e\u003c/div\u003e\u003cp\u003e王安石听到苏轼来到江宁，马上披蓑衣戴斗笠，骑着瘦驴，风尘仆仆赶到渡口与之相会。两人在江边煮酒和诗，通宵达旦。此后两人同游数日，相谈甚欢。\u003c/p\u003e\u003cp\u003e事实上，两位集文学底蕴与政治卓见于一身的风流人物，从未成为真正的敌人。政见上不可调和的矛盾，仅仅在于各自看问题的角度不同，而两人的初衷，都是为国为民，绝不存在对错之分、忠奸之别。\u003c/p\u003e\u003cp\u003e王安石和苏轼，于文学上互相敬佩，于政治上互相宽容，使多年的官场恩怨最终烟消云散，成为\u0026#34;文人相亲\u0026#34;的典范，非常值得我们敬佩和学习。\u003c/p\u003e",
    "source": "壹圆文化",
    "comment_count": 6,
    "logo_show_strategy": "normal",
    "hupu_content_image_urls": [
      ""
    ],
    "creator_uid": 5442441065
  },
  "success": true
}