{
  "source": "壹圆文化",
  "detail_source": "壹圆文化",
  "screen_name": "壹圆文化",
  "avatar_url": "https://p3.pstatp.com/thumb/ff4c0000329fa7e5df8e",
  "auth_id": "1617719604580359",
  "auth_info": "建筑公司总经理 优质文化领域创作者",
  "publish_time": 1543311363,
  "title": "人算不如天算，风水命理有时准有时不准，天机在阴阳",
  "url": "http://toutiao.com/group/6628471833412764168/",
  "comment_count": 8,
  "is_original": false,
  "data": [
    {
      "text": "最后一篇说阴阳的文章了，有慧根自然就被点透了，看不懂也办法，孔子也说，乾坤易之门，乾是纯阳卦，坤是纯阴卦，你得明白阴阳就是易之门。后面的文章开始讲卦了。继续昨天的例子，诠释下为何风水命理有时准有时不准，背后都是阴阳在起作用，只是用这样的例子告诉大家要学会阴阳的运用，叫见机行事。先看下图，单数位是阳位，偶数是阴位，爻位基本知识要搞清楚，否则你周易都看不懂，六爻卦从初到上一样的规则，下图乾宅变卦为震，按照天人合一理论为假天医真五鬼，上次有朋友说变上中为五鬼，确实乾宅推对了。"
    },
    {
      "img": "https://p3.pstatp.com/large/pgc-image/5f89f8998b0f462abcbae8b8e8f459d2"
    },
    {
      "text": "为什么是假天医真五鬼呢，阳爻是有力量的，阴爻是没有力量的，阳爻是卦主又是阳爻又当位，它在地道发动力量，再多阴爻都会干掉，上爻在天位，本来就不当位，又没有力量，它如何罩住跟它走的中爻呢，中爻为阴本身也没力量，所以震卦的力量就是从地底发动的，震卦代表雷，周易也会告诉你雷是从地生出来的，你真正融会贯通了吗。再看真正的天医，坤宅就不一样，坤变上中爻是巽卦，如下图："
    },
    {
      "img": "https://p3.pstatp.com/large/pgc-image/5729edc95cdf4377b198968c056787d1"
    },
    {
      "text": "你看上阳爻在天位，又是阳爻又是当位，位高权重，人在中爻虽不当位但是是阳爻有力量，阴爻在下虽是卦主，但是没有力量又不当位，他再想反对也无能为力。而你在中爻随位高权重的阳爻走，会有什么麻烦呢，天塌下来还有高个子顶着，它完全有实力罩住你，你自身也有力量，这才是真正的天医，真正的安而无危，危而有救，其中的易理你能真正明白吗。"
    },
    {
      "text": "而风水师把财位叫成天医，因为按他们的法则是变中下爻，就是人随地走，地能生财嘛，变中下爻就不会碰到这样的问题，不信你们自己推一推。好了不多说了，很多风水命理的书都是兜兜转转、真真假假、真伪难辩。所以风水命理一定要跟师傅，这些关键之处就会点醒你，有自己的秘诀口口相授。看点风水命理书就照搬照套帮人算命看风水，那是害人害己。"
    },
    {
      "text": "还有的朋友说三爻全变是延年啊，风水师会告诉你这个延年其实没什么意义，有意义的是财位、病位、桃花位。三爻全变了，你的屋子也吹不走，所以这个卦用在风水没点意义，但是病人占卦占到这个就麻烦了，就象游魂卦一样，基本可以准备后事了。所以易经要活学活用，就象邵雍在梅花易数批评他儿子一样，邻居傍晚敲门，占到是借物，这物一头是金属，长柄木，儿子说是锄头，邵雍说哪有晚上借锄下地的，明明是斧子，后来果然是。"
    },
    {
      "text": "真正弄通阴阳，明白易经真正的变化在时与位，你才能洞察背后的天机。后面的文章会讲河洛，讲先后八卦，讲五行及天干地支的由来，阴阳思维建立了，看什么都能通。"
    },
    {
      "img": "https://p3.pstatp.com/large/pgc-image/e9603077d1b842cb808796a99fa7455d"
    }
  ]
}