{
  "source": "壹圆文化",
  "detail_source": "壹圆文化",
  "screen_name": "壹圆文化",
  "avatar_url": "https://p3.pstatp.com/thumb/ff4c0000329fa7e5df8e",
  "auth_id": "1617719604580359",
  "auth_info": "建筑公司总经理 优质文化领域创作者",
  "publish_time": 1544961656,
  "title": "河图洛书的数理是在揭示太阳系的运转法则吗",
  "url": "http://toutiao.com/group/6635506675346309640/",
  "comment_count": 30,
  "is_original": false,
  "data": [
    {
      "text": "易与天地准。很多人认为，河图洛书的数字排列方法与天文参数、自然规律都存在一定程度上的对应关系。"
    },
    {
      "img": "https://p3.pstatp.com/large/pgc-image/af63361f6c6e4f1d8d45d7d19bc5717f"
    },
    {
      "text": "一、河图洛书的数字排序与一些天文参数相对应"
    },
    {
      "text": "1、极移是指在地球自转中，南北极点偏离地球自转轴的现象。一个周期内，南北极偏离自转轴后又会回到原来的位置。中国古代“五运六气“的学说就是研究极移周期对人类影响。“六气“的时间长度为六年，六年周期内会行五种运。每运周期438天，正好符合极移周期，也是洛书最左列数字。"
    },
    {
      "img": "https://p3.pstatp.com/large/pgc-image/a93d0b23fd974d3c804e6f784c94094a"
    },
    {
      "text": "2、地球像一个陀螺，自转时南北极轴存在着摆动，叫地球的进动。地球北极轴并不是永远指向北极，所以北极星并不是永远同一颗星。当北极回到同一颗星时，时间间隔为地球走过25800年。这个原理在中国也叫岁差。258正好是洛书的斜向数字，斜杆就象地球自转轴。"
    },
    {
      "text": "3、地球公转轨道是一个椭圆，当地球北半球为夏季时，地球公转速度最慢，这时月亮的朔月到望月的周期是29.4天，洛书最上一行数字为294（古代书写规则从右到左）"
    },
    {
      "text": "月球绕地球公转的轨道也是一个椭圆。月球存在一个近地点和远地点。当月球从远地点到近地点，然后又回到远地点的周期天数是27.6天，洛书右列数字从上而下是276，古人以右为上。"
    },
    {
      "text": "4、地球绕太阳公转的轨道是一个椭圆，它有一个偏心率。轨道有的时候扁一点，有的时候圆一点。一来一回的最小周期大约是9.51万年。正好对应洛书中列数字951。"
    },
    {
      "text": "5、整个太阳系也围绕着银河系的中心旋转。在银面上做上下翻飞。结果会造成地球磁极倒转，地球表面包括物种会发生巨变。这个周期有点长，约为7530万年。洛书中间一行数字为753，是不是告诉了我们一些什么。"
    },
    {
      "text": "6、太阳系绕银河系中心转动，转一圈需要2.413亿年。河图内圈数字顺时针就是2413。难道这一切都是巧合吗？"
    },
    {
      "text": "二、河图洛书的数字和天地自然的一些数学常数也相对应"
    },
    {
      "text": "1、圆周率精确到三位数字是3.142。河图内圈数字从左三开始逆时针数，数字依次为3142。"
    },
    {
      "text": "2、我们大家都知道黄金分割点，这个数又叫自然率，黄金分割率，其值为0.618，大自然中处处存在黄金分割率的现象。洛书最下一行数为618（古代书写习惯从右到左）。"
    },
    {
      "text": "3、自然对数跟圆周率一样也是一个无限不循环小数，一般取值为2.718，洛书右到从上到下，再到下行从右到左，数字依次为2718（其中6为地之本，不能用）。"
    },
    {
      "text": "以上种种仅仅是一些巧合吗？河图洛书是不是在揭示太阳系的运转规律呢？只有天知道！"
    }
  ]
}