{
  "source": "壹圆文化",
  "detail_source": "壹圆文化",
  "screen_name": "壹圆文化",
  "avatar_url": "https://p3.pstatp.com/thumb/ff4c0000329fa7e5df8e",
  "auth_id": "1617719604580359",
  "auth_info": "建筑公司总经理 优质文化领域创作者",
  "publish_time": 1545775636,
  "title": "易经有公式吗？有！",
  "url": "http://toutiao.com/group/6638917504120930829/",
  "comment_count": 157,
  "is_original": false,
  "data": [
    {
      "text": "昨天晚上看《国家宝藏二》电视节目。中外文物交流中心主任一句话让我很感动。他说：“文化不灭，国家永生”。中华民族几千年屹立在世界民族之林，靠的是文化传承绵绵不绝。有美国人对他说：“我们现在有的，你们始终会有，但是你们中国拥有的，比如文物，我们是不可能会有”。"
    },
    {
      "text": "总是有人说易经是迷信，不是科学。总是用西方的思维来否定中国的传统文化。实际上，几千年前，我们的科技水平远远领先世界。就像以前我文章中写的算筹，就是中国人发明的十进制，非常符合天地自然的数理，几根棍子就可以算尽天下数。那今天讲的公式是什么呢？"
    },
    {
      "text": "在《周髀算经》上卷一记述，周公问于商高曰：“窃闻子大夫善数也，请问古者庖牺立周天历度，夫天不可阶而升，地不可得尺寸而度，请问数安从出？商高曰：“数之法出于圆方，圆出于方，方出于矩，矩出于九九八十一。故折矩以为勾广三，股修四，经隅五。这就是勾股定理，我们也叫商高定理。直角三角形两条边的平方和等于斜边平方，特例为勾三股四弦五。"
    },
    {
      "img": "https://p3.pstatp.com/large/pgc-image/171f9e47389a4ef3affa3c64952a88d4"
    },
    {
      "text": "你看伏羲时代就会用勾三股四弦五来测天体、量大地了，非常伟大，它解决了代数与几何的关系，也说明了圆和方在数上的关系。以前我们野外测量无仪器时，用一把皮尺三个数就可以测定垂直方向。"
    },
    {
      "text": "一、用弦的一端作圆心，另一端画弧即成圆。勾股弦既可以测方，又可以测圆，方再大也超不过圆"
    },
    {
      "text": "四个矩拼四方，小四方可以变大四方。如坤卦直、方、大。地球测方再大最后还是一个圆球。"
    },
    {
      "img": "https://p3.pstatp.com/large/pgc-image/73cc353e6eaf4aedb0c96d02b11579ab"
    },
    {
      "text": "勾股可以测地，亦可以窥天。方圆三角诸形都可用勾股计算，究其根源，也与河图、洛书、八卦、五行相连贯。下面就用勾股定律来算算后天八卦。"
    },
    {
      "img": "https://p3.pstatp.com/large/pgc-image/6d1e103cca9f4447b6a7ba4e10f0dd58"
    },
    {
      "text": "后天八卦，乾巽、坎离、艮坤、震兑合十两两相对。在五行来说，水火相对，阴土阳土相对，阳金对阴木，阳木对阴金。"
    },
    {
      "text": "二、按河图五行规则，天一生水为坎，一构成的勾股弦为阳卦，乾统三男"
    },
    {
      "text": "记住河图规则是天一生水在北，地二生火在南，天三生木在东，地四生金在西。"
    },
    {
      "img": "https://p3.pstatp.com/large/pgc-image/7c4f4979230243949fce26c6e5ee56cd"
    },
    {
      "text": "所以当在直径右截一当坎水时，在太极圆内形成勾四股三弦五的直角三角形自然整数。勾处乾四代表西方为金，股处震三代表东方为木，弦处艮五代表中间为土。这样原来河图的数字十就变为直径临制周天了。"
    },
    {
      "text": "三、按河图五行规则，地二生火为离，二构成的勾股弦为阴卦，坤领三女"
    },
    {
      "img": "https://p3.pstatp.com/large/pgc-image/80bf456fa97742deaa5ffbd548f3b6f8"
    },
    {
      "text": "按河图一水、二火、三木、四金规则，在直径上截二当离火时，形成直角三角形勾三股四弦五的自然整数。勾处巽三代表东方为木（注意不要跟洛书九宫数搞混，现在说明的是河图五行方位），股处兑四代表西方为金，弦处坤五代表中间为土。"
    },
    {
      "text": "四、阴卦、阳卦勾股弦两两相对就是后天八卦各卦在方位和五行上的两两相对"
    },
    {
      "text": "两个直角三角形的勾与勾、股与股、弦与弦一对，就是阳卦乾和阴卦巽、震兑、艮坤相对应，截取的离火、坎水作为定位。坤艮一对中五土就合十成直径成其圆了。所以朋友们不要再问洛书的十去哪里了，背后就是这个道理。"
    },
    {
      "text": "两直角三角形勾股弦相对就跟后天八卦的两两相对严丝合缝，也跟河图、后天八卦的五行方位丝毫不差。"
    },
    {
      "text": "勾三股四弦五直角三角形代表五行木金土，木金土在五行代表有形物质，水火为阴阳二气。中间五的平方为二十五，就是河图的天数。"
    },
    {
      "text": "河图中生数成数两数相合就象直角三角形的两条边，也可形成弦作为直径成其圆，大家可以推一推。"
    },
    {
      "text": "用太极圆勾股弦之理来推纳甲及地支三合之理，也是妙至毫巅，限于篇幅，以后论述。"
    }
  ]
}