{
  "source": "壹圆文化",
  "detail_source": "壹圆文化",
  "screen_name": "壹圆文化",
  "avatar_url": "https://p3.pstatp.com/thumb/ff4c0000329fa7e5df8e",
  "auth_id": "1617719604580359",
  "auth_info": "建筑公司总经理 优质文化领域创作者",
  "publish_time": 1544179943,
  "title": "一声叹息！相信阴阳哲学的大科学家张首晟还是没敌过抑郁症",
  "url": "http://toutiao.com/group/6632194652332098056/",
  "comment_count": 6,
  "is_original": false,
  "data": [
    {
      "text": "美国当地时间12月1日，美国华裔物理学家张首晟教授去世，终年55岁。张教授相信阴阳哲学，用于指导科学实践并有建树，很可能在将来获诺贝尔奖。"
    },
    {
      "text": "世上的事，有对就有错，有正就有反，有善就有恶。"
    },
    {
      "img": "https://p3.pstatp.com/large/pgc-image/59f65c01e1a740dda35a89cd2c0d0801"
    },
    {
      "text": "物理学上有正粒子就有反粒子，几代科学家就找到了天使粒子。中华阴阳哲学放在哪都能用。"
    },
    {
      "img": "https://p3.pstatp.com/large/pgc-image/7486a41b7b6f4309b7141babaf83c025"
    },
    {
      "text": "抑郁症病人表面看上去平和淡然甚至微笑，背后却是深深的痛苦折磨，甚至有的人并不知道自己得了此症。轻度抑郁在有效治疗下，有可能走出来。重度抑郁如同坠入深渊难以自拔。作为有心理学背景的我，下面给朋友普及下相关知识。"
    },
    {
      "text": "1、睡眠障碍："
    },
    {
      "text": "抑郁症患者常有顽固性睡眠障碍，发生率高达98%，表现为失眠、入睡困难、早醒、睡眠节律紊乱、睡眠质量差等形式。抑郁症患者早醒尤其是在清晨3~5时醒来，此时情绪低落，自杀的危险最大，这也是抑郁症的危害之一。"
    },
    {
      "text": "2、躯体症状："
    },
    {
      "text": "抑郁症的危害主要还有有食欲减退、体重下降、性欲减退、便秘、阳痿、闭经、乏力等。躯体不适感可涉及各脏器，自主神经功能失调的症状较常见。抑郁症的躯体症状往往查无实据，且多为非特异性的，难以定位，但一定要排除躯体疾病。"
    },
    {
      "text": "3、精神运动性阻滞："
    },
    {
      "text": "典型表现是行动迟缓，精力减退，缺乏兴趣和活力总感到心有余而力不足，家务和日常活动都懒得去做，整天无精打采、身心疲惫，严重者呆若木鸡或呈抑郁性木僵状态。病人对周围一切事物都不感兴趣，对工作没有一点儿热情，平素衣着整洁的人也变的不修边幅，这是抑郁症的危害之一。"
    },
    {
      "text": "4、思维消极："
    },
    {
      "text": "抑郁症的危害还有忧郁心境可导致思维消极、悲观和自责、自卑，犹如带着有色眼睛看世界，感到任何事情都困难重重，对前途悲观绝望。忧郁症患者把自己看得一无是处、对微不足道得过失和缺点无限夸大，感到自己对不起他人、家属和社会，认为自己罪恶深重，是一个“十恶不赦”的坏蛋。有的病人还感到活着毫无意义，生活在人世间徒然受苦，只有一死才能逃出苦海得以解脱。这种自杀观念强烈者如果得不到及时医治或监护，自杀成功率相当高。"
    }
  ]
}