{
  "source": "壹圆文化",
  "detail_source": "壹圆文化",
  "screen_name": "壹圆文化",
  "avatar_url": "https://p3.pstatp.com/thumb/ff4c0000329fa7e5df8e",
  "auth_id": "1617719604580359",
  "auth_info": "建筑公司总经理 优质文化领域创作者",
  "publish_time": 1547300319,
  "title": "邵雍有诗说：三十六宫都是春，到底是哪三十六宫？",
  "url": "http://toutiao.com/group/6645587912152842760/",
  "comment_count": 40,
  "is_original": false,
  "data": [
    {
      "text": "邵雍关于“天根”、“月窟”有一句诗：“乾遇巽时为月窟，地逢雷处见天根。天根月窟闲来往，三十六宫都是春。”我在以前的文章说过天根月窟的概念，那么三十六宫又是哪几宫呢？"
    },
    {
      "text": "一、所谓三十六宫就是六十四卦"
    },
    {
      "img": "https://p3.pstatp.com/large/pgc-image/3499ffd5e81c4d2dbec2f449e7124ca9"
    },
    {
      "text": "有的朋友可能会感到很意外，六十四卦明明是六十四，跟三十六宫有什么关系！且看我慢慢分析。"
    },
    {
      "text": "先说下反卦的概念，就是把六爻卦上下翻转过来成为另一卦，比如屯卦反过来就是蒙卦。"
    },
    {
      "text": "我们知道《易传》中，上经从乾、坤到坎、离共三十卦，其中反卦跟本卦一样的有六个：乾、坤、颐、大过、坎、离。其它还有二十四卦可以各自两两互相成为一对反卦，这样实际是十二卦，十二加六等于十八卦。"
    },
    {
      "text": "下经从咸、恒到既济、未济共三十四卦，其中反卦跟本卦一样的有两个：中孚、小过。其它还有三十二卦可以各自两两互相成为一对反卦，这样实际是十六卦，十六加二共十八卦。"
    },
    {
      "text": "上经十八个正反卦加下经正反卦共三十六卦。这就是邵雍六十四卦的三十六宫说法。"
    },
    {
      "img": "https://p3.pstatp.com/large/pgc-image/bdbeb6d3a6894c70a887b3e1f199e9a9"
    },
    {
      "text": "还有一种方法是先天六十四卦横图和圆图按阴、阳仪来分，阴、阳仪各三十二卦，其中两仪各有四卦的正反卦一样，各仪剩下二十八卦共十四对正反卦，这样两仪二十八对卦加上八卦也是三十六卦。"
    },
    {
      "text": "二、八卦也有三十六宫的说法"
    },
    {
      "text": "如果把阳爻看成一画，阴爻看成两画，这样八卦共有阳爻奇画十二，阴爻偶画二十四，合在一起阴阳爻共三十六。"
    },
    {
      "img": "https://p3.pstatp.com/large/pgc-image/4d708bf06b084d88a865ae84f5d0b0bf"
    },
    {
      "text": "乾与坤一对阴阳爻奇、偶画共九数。震与巽一对阴阳爻奇、偶画共九数。坎与离也是九数，艮与兑也是九数，四乘九共三十六，这也是一种说法，跟上面说法是差不多的。"
    },
    {
      "text": "另一种是揲蓍挂扐按策数用象来解释。老阳象乾三画乘四等于十二，老阴象坤六画乘四等于二十四，老阳加老阴共三十六数。"
    },
    {
      "text": "少阴象巽、离、兑四画乘四等于十六数，少阳象震、坎、艮五画乘四等于二十数，少阴少阳合计三十六数。"
    },
    {
      "text": "虽然三十宫有很多说法，但邵雍的本意还是六十四卦。"
    }
  ]
}