{
  "source": "壹圆文化",
  "detail_source": "壹圆文化",
  "screen_name": "壹圆文化",
  "avatar_url": "https://p3.pstatp.com/thumb/ff4c0000329fa7e5df8e",
  "auth_id": "1617719604580359",
  "auth_info": "建筑公司总经理 优质文化领域创作者",
  "publish_time": 1547908237,
  "title": "河图八干四维推二十四向，地理罗经之用",
  "url": "http://toutiao.com/group/6648194829576569358/",
  "comment_count": 112,
  "is_original": false,
  "data": [
    {
      "text": "今天翻了下前面所写文章，突然发现以前漏写了河图、洛书与二十四向的关系。这样河、洛并没有写完整。为了能够对易经风水有爱好的朋友有所启迪。今天补一篇河洛文章。"
    },
    {
      "text": "一、《河图》无天干，而有天干之理"
    },
    {
      "img": "https://p3.pstatp.com/large/pgc-image/5e5fba9fb248439e9c30c6ba1870dfb8"
    },
    {
      "text": "一即壬水，六即癸水，三即甲木，八即乙木，七即丙火，二即丁火，九即庚金，四即辛金。阳得奇数，阴得偶数，分居四方，五戊土、十己土居中而不用。"
    },
    {
      "text": "二、《河图》以先天之体而藏后天之用，八干四维得十二位"
    },
    {
      "text": "《河图》以先天为体显后天之用，壬癸皆为坎水，丙丁皆为离火，甲乙皆为震木，庚辛皆为兑金。"
    },
    {
      "text": "四正卦居四正位。乾、巽、坤、艮四卦居四隅。《河图》无四维却有四维之理。八干四维得十二位。"
    },
    {
      "text": "地支有十二位，隐藏在《河图》之中，对应十二月，《河图》虽无十二地支，却含十二地支之理。"
    },
    {
      "text": "三、把天干、四维与地支，分其位合在《河图》成二十四向"
    },
    {
      "text": "八干四维和地支，分其位，子、午、卯、酉即坎、离、震、兑，四正四卦。"
    },
    {
      "text": "壬癸夹子，则壬之前有亥，癸之后有丑。甲乙夹卯，则甲之前有寅，乙后有辰。丙丁夹午，则丙之前有巳，丁后有未。庚辛夹酉，则庚之前有申，辛后有戌。"
    },
    {
      "text": "戌亥夹乾，丑寅夹艮，辰巳夹巽，未申夹坤。二十四向成。"
    },
    {
      "img": "https://p3.pstatp.com/large/pgc-image/48a24dc5f91d4987a10269185719a6a8"
    },
    {
      "text": "四、四大水口四黄泉在方图的四隅"
    },
    {
      "text": "上面方图第三层，看到甲癸、辛壬、丙乙、丁庚各自相连，有何用意？是用来表明天干之气相通的。"
    },
    {
      "text": "壬水生申旺子而墓辰，辛金生子旺申而墓辰，辛壬之气相通。"
    },
    {
      "text": "甲木生亥旺卯而墓未，癸水生卯旺亥而墓未，癸甲之气相通。"
    },
    {
      "text": "丙火生寅旺午而墓戌，乙木生午旺寅而墓戌，乙丙之气相通。"
    },
    {
      "text": "庚金生巳旺酉而墓丑，丁火生酉旺巳而墓丑，丁庚之气相通。"
    },
    {
      "text": "以上四对为生旺互用，元窍相通，先天自然之配合，四大水口四黄泉均由此出。"
    },
    {
      "text": "五、二十四向按圆图排布，罗经之源"
    },
    {
      "img": "https://p3.pstatp.com/large/pgc-image/6bee3085422c4c7eb60b3cc963e5f596"
    },
    {
      "text": "二十四向，如天有二十四气，人有二十四经脉，自然之理。"
    },
    {
      "text": "壬、子、癸共一坎，丑、艮、寅共一艮，甲、卯、乙共一震，辰、巽、巳共一巽，丙、午、丁共一离，未、坤、申共一坤，庚、酉、辛共一兑，戌、乾、亥共一乾，这就是一卦统三向。"
    },
    {
      "text": "用《洛书》八方之数配之，就是《洛书》二十四向之理。《洛书》之理大家有基础，《河图》二十四向之理则未必能知。"
    },
    {
      "text": "用四象之数，应八干之阴阳，推出四维，然后推出十二地支和二十四向，《河图》有体中藏用之妙，八位有分二十四位之理，希望对大家有所启发。"
    }
  ]
}