{
  "source": "壹圆文化",
  "detail_source": "壹圆文化",
  "screen_name": "壹圆文化",
  "avatar_url": "https://p3.pstatp.com/thumb/ff4c0000329fa7e5df8e",
  "auth_id": "1617719604580359",
  "auth_info": "建筑公司总经理 优质文化领域创作者",
  "publish_time": 1554469192,
  "title": "《正易心法》中的八卦之数",
  "url": "http://toutiao.com/group/6676226766811431431/",
  "comment_count": 21,
  "is_original": false,
  "data": [
    {
      "text": "这是《正易心法》的倒数第二篇文章了，下面准备写《青囊经》的解读，因为这是风水的祖经，短短四百一十字，道尽了天地阴阳风水之理，郭璞缘此写《葬经》，杨筠松等名家也缘此写过《青囊序》、《青囊奥语》、《天玉经》等。"
    },
    {
      "text": "观略《正易心法》应该也是有收获的，陈抟的《正易心法注》是一部融道儒释三家之长，共阐大易原理的著作。前面的文章基本在陈抟作的《注》基础上来解读。"
    },
    {
      "text": "“正易”一词源自《易纬.乾凿度》的一语“正易大行万汇生”。正易者，大易“天心无改移”之道也，是文王后天之《易》变化之道的根本。“心法”就是说要以本心悟易道。邵雍说：“先天之学，心也；后天之学，迹也。”《黄帝阴符经心法》云：“心者，一身之君，万化之机要也。”"
    },
    {
      "text": "《正易心法》告诉我们学易要从周孔卦爻辞以前入手，直接领悟卦画内在的象数本义。回到究天人之际的羲皇易道，用心窥见一气流行之大易本真，明白太极运枢下一阴一阳的启承转合。《正易心法》最后几句说的是大易之数。"
    },
    {
      "text": "一、“大衍七七，其一不用。心得一数，理自不动。”大衍之数五十，其用七七四十九。挂一不用，不用之义，一乃数之宗本，如轮之运，而中则上。如网之有纲，纲举目张，如器之柄，如国之元首。宗也、木也、主也皆有不动之理，无所宗本则乱。河洛数理也规定一为道之宗而不用。"
    },
    {
      "text": "数理方面，中国人只用一至十共十个数，阳奇阴偶。大家可以去算一算，一这个数不用。用二至十共九个数自乘，即2x2+3×3……10×10。刚好等于384，即六十四卦三百八十四爻。从另外一方面说明了不用一的道理。"
    },
    {
      "text": "二、“策数六八，八卦定数。卦数占卦，理之自然。”八经卦二十四爻，重之四十八。每卦八变，六八四十八。四十八就是八卦之数。"
    },
    {
      "text": "以前在河洛数理中说过，天地全数共一百，一半五十即为大衍之数。其用四十九者，体用之全数也。五十除一者，无一的意思，易无形埒也。四十九再挂一而不用，因一为数之宗、道之本也，前面已解释。剩下则为四十八，这就是占卦之用的八卦之数。"
    },
    {
      "text": "三、“五行之数，须究落处。应数倍数，亦明特时。”天一生水，坎之气孕于乾金，立冬节；地二生火，离之气孕于巽木，立夏节；天三生木，震之气孕于艮土，立春节；地四生金，兑之气孕于坤土，立秋节；天五生土，离寄戊而土气孕于离火，长夏。以上是说在天成象。"
    },
    {
      "img": "https://p3.pstatp.com/large/pgc-image/ddff7eed599b42ee909fbb42b4c80af6"
    },
    {
      "text": "一六则乾坎合而水成于金，冬至节；二七则巽离合而火成于木，夏至节；三八则艮震合而木成水，春分节；四九则坤兑合而金成于土，秋分节；五十合则离寄于己而土成于火。这说的是在地成形。"
    },
    {
      "text": "先天各卦，初以一阴一阳相间，次以二阴二阳相间，倍数至三十二阴三十二阳相间。实际上就是我以前文章说的六十四卦生成之理，一分二，倍二而四，倍四成八卦，八至十六，十六至三十二，三十二再成六十四卦。就如祖父子孙，开枝散叶。"
    },
    {
      "text": "易道以二分，《太玄》以三分，所谓“应数倍数”，倍数者，等级层次之分。易经卦生以一分为二模式。《太玄》则以一分为三、三分为九的模式展开，一玄、三方、九州、二十七部、八十一家。"
    }
  ]
}