{
  "source": "壹圆文化",
  "detail_source": "壹圆文化",
  "screen_name": "壹圆文化",
  "avatar_url": "https://p3.pstatp.com/thumb/ff4c0000329fa7e5df8e",
  "auth_id": "1617719604580359",
  "auth_info": "建筑公司总经理 优质文化领域创作者",
  "publish_time": 1558104334,
  "title": "如何正确理解风水中的三煞",
  "url": "http://toutiao.com/group/6691549194383000068/",
  "comment_count": 96,
  "is_original": true,
  "data": [
    {
      "text": "上一篇文章讲飞星，不管紫白九星也好，天运也好，我的理解就是天时。就如运程一样，有好就有坏，有顺境也有逆境。元运有旺衰，天下万物皆有波动。在实际运用中，要注意山星、向星、运星以及流年的区别。"
    },
    {
      "text": "上篇文章除了建议大家记住飞星，更要理解三般卦的规律，要把宫位记心中，四维东南巽为地户，西北乾为天门。西南坤东北艮和中宫为一组，乾离震为一组，巽坎兑为一组。对应飞星数一四七、二五八、三六九。每队在各宫组中轮流飞临。"
    },
    {
      "img": "https://p3.pstatp.com/large/pgc-image/c7da736d4c574d8c9df95013e9e82442"
    },
    {
      "text": "宫位卦诀有歌曰：乾六离九是朝宗，坤宫坎卦气相通。天三地八为朋友，兑七巽四一脉融。离九来龙定震穴，是因地八是乾宫。坎水朝时来到兑，巽龙入脉坤宫从。后天来龙先天向，生成推照相互同。谁人识得此真诀，何愁天地不相逢。"
    },
    {
      "text": "讲完天时，今天再来讲讲地利。风水有三合，同样有三煞。三合风水的三煞方位，也就四句话：申子辰年三煞在南；巳酉丑年三煞在东；寅午戌年三煞在北；亥卯未三煞在西。"
    },
    {
      "text": "一般三合派的风水师把上面三煞的四句话这样理解。申子辰合水局，水克火故煞在南方。巳西丑合金局，金克木故煞在东方。寅午戌合火局，水火相克故煞在北方。亥卯未合木局，金木相克故煞在西方。用五行来解释，从最后两句就知道这种解释是非常牵强附会的，甚至是错误。"
    },
    {
      "text": "下面我给各位进行正确的解读。三合也好，三煞也好，都是建立在二十四山的基础上。"
    },
    {
      "img": "https://p3.pstatp.com/large/pgc-image/a007877f6f8f45cf9c19f8f19fd498d4"
    },
    {
      "text": "我在以前十二律吕的文章中，写过隔八相生的道理，其实支中藏干的规律就在其中。三合借四维而斡旋，阳顺阴逆。"
    },
    {
      "text": "先说申子辰年月为何煞在南。隔八相生，申属阳顺行，下一位庚，隔八实隔七到壬，申中藏庚壬，其它各支皆按此规律。壬为坎宫阳水。辰属阴，阴逆行，按隔八规律，辰中藏乙癸。癸者，坎宫之阴水。阴水和阳水与子相合成申子辰水局。其气全聚于坎。阴阳交战犯对方离宫，所以南方煞气生。"
    },
    {
      "text": "寅午戌年月煞在北。寅阳顺，同样规律，支中藏甲丙，丙者离宫之阳火。戌阴逆行，支中藏辛丁，也是隔八相生的道理。丁者，离宫之阴火。阴火和阳火与午相生合火局，其气全聚于离，阴阳交战，犯对宫之坎，北方生煞。"
    },
    {
      "text": "巳酉丑年月煞在东。巳阳顺行，支中藏丙庚，隔八至庚，庚者，兑宫之阳金。丑阴逆行，支中藏癸辛，隔八至辛，辛者兑宫于阴金，阴金与阳金与酉相合金局，其气全聚于兑宫，阴阳交战犯对宫之震，东方震宫生煞。"
    },
    {
      "text": "亥卯未年月煞在酉。亥阳顺行，支中藏壬甲，隔八至甲，甲者，震宫之阳木。未阴逆行，支中藏丁乙，隔八至乙，乙者，震宫之阴木，阴木和阳木与卯相合成木局，其气全聚于震，阴阳交战，犯对宫之兑，西方酉宫生煞。"
    },
    {
      "text": "煞气生成的原理各位易友明白了吗？三煞生成于三合之理。三煞也不全都是坏事。阴阳交战不冲和就生煞。如果调理好了就是阴阳交融而乘生气。香港风水师就喜欢一句话，叫：“要想发，斗三煞。”做生意要想发得快，对面引煞而化之，实际在伏位实现阴阳交合有生气。"
    }
  ]
}