{
  "source": "壹圆文化",
  "detail_source": "壹圆文化",
  "screen_name": "壹圆文化",
  "avatar_url": "https://p3.pstatp.com/thumb/ff4c0000329fa7e5df8e",
  "auth_id": "1617719604580359",
  "auth_info": "建筑公司总经理 优质文化领域创作者",
  "publish_time": 1566745146,
  "title": "天星风水最重要的心法是什么？",
  "url": "http://toutiao.com/group/6729032541849780744/",
  "comment_count": 29,
  "is_original": true,
  "data": [
    {
      "text": "可能有的易友会疑惑，说了写天星风水，几篇下来，好象没有写到相关的理论啊，倒是写些什么山情水意、《阴符经》之类的？我之所以不厌其烦写这些理论，正因为这些就是天星风水的立论依据。"
    },
    {
      "img": "https://p3.pstatp.com/large/pgc-image/af59c0c24c0b4afdb71a1d93ba6c63ae"
    },
    {
      "text": "学风水，要下苦功，不能走偏。历代明师都是上知天文，下知地理，中通易学，几十年浸淫在里面。如果只是看几本书，背上一段口诀，似乎会喝个山形，能算算旺山旺向，就背着罗盘跑上山。这必是庸师无疑。"
    },
    {
      "text": "现在有些地师很喜欢“喝形”。“喝形”原本就是为那些不了解堪舆的一般大众而设的。只要略略相其形貌，安上个美名，那管它是花假之地还是砂结小地。地师讲得头头是道，客户也容易被打动，百姓也津津乐道，马上此地就值千金。"
    },
    {
      "text": "这种“喝形”，我在以前的文章写过，老家很多村民都能论个一二三四。更荒唐的是，竟然很多地师以“喝形”之“形”来作为点穴的依据。比如鹰穴点眼，虎扦王字，蛇葬七寸等等。如果只会喝形取象，看周边之美恶。离真正的堪舆之道实在是还有很远的路要走。"
    },
    {
      "text": "我一直对“喝形”不太感冒，是因为有亲身例证。家父九十年代翻修老房子，就请了当地有名的地师。他也只会喝形，给我家老宅定的是“美女弹琵琶”。反正做了不好也不坏。反倒他为自家住宅喝了一个“最好”的地。没想到住了几年，他自己不到五十得肝硬化死了，其儿子二十多也得肝硬化早夭了。一辈子家里也是穷困潦倒。这不是欺人欺己的庸师吗？"
    },
    {
      "text": "天星风水最重要的心法就在于上篇文章说的《阴符经》上，天星第一篇就是讲《阴符经》，这是有深意的，这就是黄帝演道之书。各代先贤仰观天文，俯察地理，成就堪舆大道，用以夺神功、改天命，大而建都立邦，小而卜宅营葬。使人类得以繁衍生息。"
    },
    {
      "img": "https://p3.pstatp.com/large/pgc-image/d4820cfa2aa24ef6abf5fc936e6c3baa"
    },
    {
      "text": "《阴符经》第一句说是：“观天之道，执天之行，尽矣。故天有五贼，见之者昌。五贼在乎心，施行乎天。”先贤也说：谈易惟天，人神致用。天道无边，周行有度。天象难穷，数理归宗，天人合一，见微知著。仰观俯察，感而遂通。天人之道，易占之理，不外乎阴阳造化之机。太极以降，六甲轮回。大至天体，小至人身，皆可比类象通，观象知数，理在其中。"
    },
    {
      "text": "上述这段话，大家可能觉得烦琐，并且玄之又玄，有点不靠谱。真正看懂了，你对堪舆的理解会更上一层，天有五贼，可以理解为五行盗天之机。具体到风水，我们可以结合穴星来谈谈如何理解上面这段话的玄机。"
    },
    {
      "text": "一般人将破土开茔、埋棺纳骸之所，称为墓穴。但是在堪舆理论上却并非如此。在堪舆学上，穴是天地山川灵气所钟、生气止聚之处。凡结穴必须是龙脉辉映、砂水缠绕相应。而且龙虎、明堂、水城、朝案、罗城、水口，必须件件合法。"
    },
    {
      "text": "结穴之处，就是天造地设的自然化工。其范围长宽就在八尺之内。要想点中穴，必须下苦功。先贤歌曰：望势寻龙易，登山点穴难。到头差一指，如隔万重山。"
    },
    {
      "text": "至于穴星，就是穴位所在成形、成势、成体的峰峦。相地先审龙，有生成之龙脉，才有生成之穴星。龙脉若真穴便真，龙脉不真少真穴，龙脉中出穴为正，龙脉旁出穴为偏。"
    },
    {
      "text": "假如指一结穴之地，问你是什么穴星？估计会难住一些人。星的分类完全和星辰相同。有按五行分的，有按老九星分的，有按天机九星的。为什么有个老九星，反而少用？以后文章中会解释这个因由。"
    },
    {
      "text": "星体大致按五行来分，不会错偏到哪里去。至于如何识别分类，很多书籍和网上都有解读。但要记住《天元五歌》中的一句话，叫母子相依。穴星又叫孕育，有其母必有其子。父母山是什么，它就是什么，容不得半点杂乱。否则必定有误，或是花假之穴。"
    },
    {
      "text": "假如再继续问下去，该穴星在人事上有什么主应呢？估计就会问倒一片了。判断穴星的人事主应，一般来说，是用五行、三格来论断。五行大家都知道，三格指清、浊、凶。星体端正秀丽为清，星体肥厚端重为浊，星体丑恶带煞为凶。拿火星来举例，火星清者叫显星，主聪慧、发达、大贵显赫等；火星浊者叫燥星，主刚烈、暴燥、作威作福；火星凶者叫杀星，主杀伐、大盗、残酷。其它各星都可分门别类来判断。跟心理学上人的气质类型分为多血质、抑郁质等一样。"
    },
    {
      "text": "穴星是天地间自然生成之物。形貌当然是林林总总，变化万千。如果再继续问下去，穴星所忌，其中粗顽、臃肿、削瘦、孤露、破面、虚耗、单寒、巉岩、顽硬、软荡、散漫、幽冷到底是什么形态？估计除了明师，就没有几个人能判断准确了。因为这是需要经验和心神感应。"
    },
    {
      "img": "https://p3.pstatp.com/large/pgc-image/050bd5162a184d388a86a4b7726899cb"
    },
    {
      "text": "说到感应，现在科技已经能发现月球上面是死寂、冰冷、毫无生机。如果男女谈恋爱，“人约黄昏后，月上柳梢头。”男女间心心相印相感，借用的是嫦娥住广寒宫那个有情的月亮。中秋月儿圆，幸福团圆，是我们所有华人借用月亮共同的心灵寄托。所以中国文化只有华人能懂。"
    },
    {
      "text": "刚才以穴星来举例，说明《阴符经》等心法。讲完穴星，还有穴形。光穴形，杨公就归类定义有三百六十五种，其实也难以概括尽。穴形就更有讲究了。喝形属于最初级的阶段，高明的是要明白龙脉和穴形的搭配关系。最重要着落在“阴来阳受，阳来阴受”几个字。"
    },
    {
      "text": "说到穴形的阴阳，就要用到太极了，太极生两仪，两仪生四象。绝不是很多视频讲的，一锹下去，就挖到太极晕和五色土。点穴百发百中，那不是地师，而是神棍。五色土也就是地质上的软石而己。做这么厉害也没见出什么大人物啊。穴形太极，完全不是穴点上的那个概念。限于篇幅，无法再写了。"
    }
  ]
}