{
  "source": "壹圆文化",
  "detail_source": "壹圆文化",
  "screen_name": "壹圆文化",
  "avatar_url": "https://p3.pstatp.com/thumb/ff4c0000329fa7e5df8e",
  "auth_id": "1617719604580359",
  "auth_info": "建筑公司总经理 优质文化领域创作者",
  "publish_time": 1566373940,
  "title": "北斗七星打劫到底是什么意思？",
  "url": "http://toutiao.com/group/6727423325963829772/",
  "comment_count": 177,
  "is_original": true,
  "data": [
    {
      "text": "感谢一路跟随看我文章的朋友。对于想学风水、爱好风水，以及想从事或者正在从事风水的易友。我想借《地理冰海》中的几句话，跟大家共勉。"
    },
    {
      "text": "有五大劝：地理之学，首贵读书，非读书不能穷理，以读书为第一劝；地理之书，汗牛充栋，有借用郭璞、杨公、曾公名义的半伪之书。所以读地理书要先研易，才知地理学术之根源。一开始读《青囊序》、《天玉经》是会读不懂的。建议大家可以先看《葬经》，杨公的《疑龙经》、《撼龙经》，有了易学基础，再看《地理辨正》。读书以读明师经典为主，这是第二劝。"
    },
    {
      "text": "地理之学，要得明师指点。学习必有师，传道、授业、解惑。不然捕风捉影，茫无着落。得遇明师，这是第三劝；有明师更要益友，独学无友，孤陋寡闻。尺有所短，寸有所长，共同问难，其道大光，得益友为第四劝；地理之学，贵有恒心，豁然大悟，也要自强不息。这是第五劝。"
    },
    {
      "text": "《地理冰海》也说了三大悟，供各位易友借鉴。一是以先天阴阳对待立体之卦，误认为后天元空往来致用之卦。二是以认山龙之法，误认为水龙之法。三是以理气之龙，误认为形势之龙。这是清代三大误，希望现在依然有借鉴意义。"
    },
    {
      "text": "好了，言归正传。今天来说说高深一点的东西。但也只能点到为止。风水的东西，说得太通透太直白了，大家会以为就是得了真经，按图索骥就会出大问题。现在的人都不喜欢下苦功。"
    },
    {
      "text": "就如现在很多大医院看感冒一样，治感冒的药就分一号、二号，反正来了，也不望闻问切，直接开药，不是一号就是二号。不管你什么体质，反正吃不死人。虽然吃药是不能治病的，只能治症状。但我还是认为这就是庸医，现在的病人是越治越多。庸医坏一人，庸师覆全家。"
    },
    {
      "text": "《天玉经》上说：“识得父母三般卦，便是真神路。北斗七星去打劫，离宫要相合，更有一星佐尊贵，坤是金神位。”父母三般卦，我在以前的文章中说过。东西南北三般卦共二父母，南北共一父母，南北水火即济，东西金木殊途同归。"
    },
    {
      "text": "北斗七星打劫，杨公说：“历代侯王皆禁断，予今隐出在江东。地理中特小用之者耳。”首先记住一句话：“所谓数虽始一，用实首震。”看来北斗七星打劫是玄空风水的密中密了。蒋大鸿说过，识得父母三卦父母，已是真神路，犹须晓得北斗七星之法，则三般卦之精髓，方得最上一乘之作用。"
    },
    {
      "img": "https://p3.pstatp.com/large/pgc-image/7fbb8c94f67b47ee8f2220b0b5e661e8"
    },
    {
      "text": "实际上我把多位明师的解读都分析过。首先，关于最后一句的“离宫”两个字都有争议。一种说法是离宫就是指南方离卦之方位。另一种说法离开或者远离，就是离开本宫也要相合之意。中国确实千变万化，一字之差，意思大相径庭。"
    },
    {
      "text": "打劫的概念也有三种说法。一种是认为凶：欲知朝枯暮荣之术，法在移宫，欲求起死回生之妙，全凭打劫。劫法是贪狼劫禄存，巨门劫文曲，禄存劫左辅，文武二曲劫巨门，廉贞劫贪狼。打劫是为了起死回生，这个观念以钟义明为代表。"
    },
    {
      "img": "https://p3.pstatp.com/large/pgc-image/546cbb9830e7438e91e3b62b69ffb284"
    },
    {
      "text": "第二种是以谈养吾为代表的看法，认为“北斗七星去打劫”，应该和上一句“识得父母三般卦，便是真神路“联系起来一起理解。北斗七星打劫就是讲得气悠久之法。北斗七星即八卦的代名词。七星者，指八个运中，可收得七卦之气。”打劫“就是先时借用。"
    },
    {
      "text": "没有到旺运却收其旺气。方法就是挨星。比如”甲癸申，贪狼一路行“，就是指一运时贪狼打劫禄存。打劫是三般卦真神路的最上一层。"
    },
    {
      "text": "第三种是以章仲山、沈竹礽为代表。他们的观点是，北斗指随时立极之气。七星，由现在逆推到第七。比如一逆数到四，四逆数到七。二五八和三六九类同。"
    },
    {
      "text": "为什么逆数到七，因为这时的五行和立极之气相反，最容易发祸端。比如上元一运，立极之五行，肯定不能和中元四运、下元七运立极时的玄空五行相合。元运相反，形气变更发祸。所以要在山向上变动以使处处合吉。"
    },
    {
      "text": "能打劫的，只有坎离二宫。这是为什么呢？这就是洛书的神妙了。一二三四入中立极，其生成数必在坎宫，如一入中则六在坎宫。六七八九入中，其生成数必在离宫，如七入中则二在离宫。坤艮为生死门，与中形成三般卦，乾离震也组成三般卦，巽坎兑也成三般卦。"
    },
    {
      "text": "所以，北斗打劫者，无非合生成数。凡能打劫的，天盘与山向飞星，其气一贯，因果相成。所以从河洛数理说，北斗打劫，无非坎离中三宫。为什么说离宫要相合，因为离宫是“真打劫”，坎宫是“假打劫”。下面用一运子山午向来举例说明。"
    },
    {
      "img": "https://p3.pstatp.com/large/pgc-image/af70a7d1e1d842b196367ed5ce81a6c1"
    },
    {
      "text": "一运子山午向，山上飞星顺行，二到山，二星是一运的未来之气。乾宫山向飞星为七四，震宫山向飞星为四七，离宫山向飞星为一一。合成“一四七”三般卦。坤艮中合成“一四七”元运父母三般卦。这样，癸丁、辰戌、庚甲亦能用。上中下三元能相通，所以能打劫。"
    },
    {
      "text": "好了，据我看来，上面虽说各家各执一词，在我学易之人看来，其实背后是相通的。说的基本也是一回事，不便说透，敬谅！"
    },
    {
      "text": "阳宅也不想写了，下面最多再写写天星风水。如果有朋友希望我再写风水，我就开专栏，详细写谈养吾的玄空风水。看大家有没有需要。"
    }
  ]
}