{
  "source": "壹圆文化",
  "detail_source": "壹圆文化",
  "screen_name": "壹圆文化",
  "avatar_url": "https://p3.pstatp.com/thumb/ff4c0000329fa7e5df8e",
  "auth_id": "1617719604580359",
  "auth_info": "建筑公司总经理 优质文化领域创作者",
  "publish_time": 1568033743,
  "title": "风水中的五鬼运财是什么？该如何做？",
  "url": "http://toutiao.com/group/6734605949610230285/",
  "comment_count": 115,
  "is_original": true,
  "data": [
    {
      "text": "前面有易友说天星、飞星分不清，脑袋都有点晕。天星是一个风水流派，跟三合、三元、玄空一样。它的立论基础是地上万物、包括人事都是上应天星。天光下临，地德上载。夜观天象，四七为经，五德为纬，三垣二十八宿是它的主要研究对象。"
    },
    {
      "text": "飞星就是用北斗七星加辅、弼。在九宫里面按洛书轨迹顺、逆飞。只是玄空风水下面的一个具体作法而已。两者不能相提并论。"
    },
    {
      "text": "玄空风水我已经不写了，正在写天星风水。但是专栏还在写谈养吾的玄空六法，里面干货满满，见解独到。"
    },
    {
      "text": "五鬼运财，名字听上去吓人，其实也就是个纳生旺气的风水作法。五鬼运财，世传有很多种，其中就有道家和赖公的两种。前者是道家法术功夫，后者是天星风水的功夫。下面我们就来说赖公的五鬼运财。"
    },
    {
      "text": "五鬼就是指九星中的五黄廉贞星。用法的口诀是：“山龙廉贞有向，水龙巨门见水。”具体方法就是山龙用天定卦法，从坐山起天父卦，要求在廉贞方开门立向或有门路，或者有窗口纳气。"
    },
    {
      "text": "水龙用天定卦法，从向首起地母卦，要求在巨门方要有来水或来路，如果外局有水，在内局的相应方位再布水局，叫吊水上堂，效果更佳。符合以上条件，就叫“五鬼运财局”。"
    },
    {
      "text": "这种作法到底应该划入天星风水，还是纳甲三合风水，确实有个疑问。虽然是赖公发明，却用的是纳甲三合理论。纳甲，我在以前的文章写过六爻卦的纳法和三爻卦的纳法。其实看一图就明白，不懂可以再看我以前的文章。"
    },
    {
      "img": "https://p3.pstatp.com/large/pgc-image/a9cd7bc2088f41e0a3668662a2d85691"
    },
    {
      "text": "再说翻卦，乾卦翻出的就是天父卦，坤卦翻出的就是地母卦。大家可以去看我前面写九星翻卦的文章。翻卦的顺序就是上中下中、上中下中，八变归于辅、弼。"
    },
    {
      "text": "但要注意的是，阴宅用的是小游年的方法，九星顺序为贪、巨、禄、文、廉、武、破、辅。阳宅用的大游年方法，九星顺序为贪、廉、武、文、禄、巨、破、辅。"
    },
    {
      "text": "使用五鬼运财的方法，懂得的老地师一定会告诉你，千万不能用三元罗盘，而要用三合盘，这是为什么呢？"
    },
    {
      "text": "这是因为，五鬼运财用的是纳甲原理，必须用纳甲三合的净阴净阳。千万不能用三元的二十四阴阳。否则，不要说运财，很可能破财损丁。"
    },
    {
      "text": "二十四山的阴阳分法，我在以前的文章写过。净阴净阳的理论我也说透了。一张图就明白。"
    },
    {
      "img": "https://p3.pstatp.com/large/pgc-image/13c8505c09f443e095e62c9adadf6a4d"
    },
    {
      "text": "看上图，用先天八卦配洛书，四正之位九一三八为阳。四隅之位二四六八为阴。配上卦。则卦的纳甲天干和三合地支都是跟卦和位走。比如坤在阳位，坤属阳，纳的乙和此位相合的地支申、子、辰也属阳。"
    },
    {
      "text": "不懂道理的死背下面二十四山净阴净阳图也可以。"
    },
    {
      "img": "https://p3.pstatp.com/large/pgc-image/1d206149e68f4101b899b62edf62b8c5"
    },
    {
      "text": "好了，注意事项讲完，讲讲具体做法。比如辛山乙向，坐山为辛，巽纳辛，为巽卦。以巽卦开始变爻翻卦，阴宅小游年翻到廉贞为乾卦。乾又纳甲。所以巽龙立乾、甲向为五鬼临门。"
    },
    {
      "text": "如果是阳宅大游年，翻到的廉贞是坤卦，坤又纳乙。所以巽龙阳宅开坤乙门路，是带巨门财来。实际上也是向五鬼，五鬼运财过来。"
    },
    {
      "text": "我看了很多相关的著作，百分八十以上的都会把阴宅和阳宅混为一谈，或者把应该朝五鬼的搞成巨门。要注意水龙才是巨门立向，而且用的是向星水法翻卦。这里不展开讲。"
    },
    {
      "text": "很诡异的是，这些风水书中，写的过程是张冠李戴，但是结果却一致正确。说明都是抄来的，知其然不知其所以然。自己都不知道去推推过程验证一下。"
    },
    {
      "text": "五鬼运财布局，巨门方向有水，发得更快。但是，大概只能用十多年，到时不封局，反而带来横祸。暴发之人多有凶险。有的人，少个胳膊瘸个腿，反而能发财。我见过很多这样的例子。一夜暴富不一定就是好事。"
    },
    {
      "text": "其实赖公五鬼运财是有两种方法的。一种是合局水法，一种是救局水法。救局就是赖派高手的作法。比如催官天星派就有一个秘诀叫：节前、节后、节中辨，初关、末关、中关情。"
    },
    {
      "text": "所以光知道翻卦还不够，每派都保留点镇门的东西。不比玄空六法的谈师，敢于倾囊公开传授，也没亲传弟子而敝帚自珍。"
    }
  ]
}