{
  "source": "壹圆文化",
  "detail_source": "壹圆文化",
  "screen_name": "壹圆文化",
  "avatar_url": "https://p3.pstatp.com/thumb/ff4c0000329fa7e5df8e",
  "auth_id": "1617719604580359",
  "auth_info": "建筑公司总经理 优质文化领域创作者",
  "publish_time": 1571412416,
  "title": "易经卦与数是什么关系？为什么卦是八个？爻用三画？",
  "url": "http://toutiao.com/group/6748989686343008781/",
  "comment_count": 15,
  "is_original": true,
  "data": [
    {
      "text": "昨天的文章写到数也是分两仪，也讲了三五以变，两仪生四象，估计各位易友并不一定完全理解，今天再补一篇文章。"
    },
    {
      "img": "https://p3.pstatp.com/large/dfic-imagehandler/99ba31e8-3dda-4e70-a8b0-0b0886375784"
    },
    {
      "text": "易经《系辞》上传有这么一段：“天一地二，天三地四，天五地六，天七地八，天九地十。天数五，地数五，五位相得而各有合，天数二十有五，地数三十，凡天地之数，五十有五，此所以成变化而行鬼神也。"
    },
    {
      "text": "这段话和河图、洛书的数理是一样的，天地之数总共五十五，可以推算天下事物变化的数理，甚至达到鬼神莫测的地步。至于五位相得而各有合，则再看下图"
    },
    {
      "img": "https://p3.pstatp.com/large/pgc-image/538cba7e6b674222b42cef59b30f6a61"
    },
    {
      "text": "阳仪与阴仪各五位，每位阴阳相得合十一，五位十一相加共五十五，就是天地总数。"
    },
    {
      "text": "除了合十一，还有合十的道理。拿去阳仪下方的尾，去掉阴仪上方的头，五和十单独拿出来，这就是中五立极，虚十以用。两两相对而合十，这就是洛书。"
    },
    {
      "text": "乘下八位各自对应可以合十，其总数即为四十。刚好阴仪六七八九十相加也是四十。这就是阳主变，阴主用，阴用阳朝。"
    },
    {
      "text": "天数本来中于五，地数本来中于六。这也是合二中以定律历的由来，这也是有十个天干，十二个地支的原理。分立阴仪和阳仪之后，阳仪的中位数就变成三，阴仪的中位数就变成八。"
    },
    {
      "text": "三和八应该值得大家高度重视，有些朋友可能知道一句话，叫做水交三八要相过，却如湖里雁交鹅。"
    },
    {
      "img": "https://p3.pstatp.com/large/dfic-imagehandler/0f31d82a-88a3-42f7-9632-728b17b96630"
    },
    {
      "text": "大雁是天上飞的，鹅只能地上游，但是两种动物长得又很像如双胞胎，很形象说明了三八之间天数和地数之间的阴阳的关系。"
    },
    {
      "text": "在上一篇文章讲到河图变体合十一时，东方三和八两数的位置都不动，其它各方都有变动，也从另一个角度说明三八为中而不动的道理。"
    },
    {
      "text": "河图中，三八在东方属木，南火北水，水火不相射。五行中，水生木，木生火，有了东方三八木，水火二气就相通了，三八木跟中宫五十土的功能类似。不同是，木能使二气相通却不能水火交蒸而互相转换。"
    },
    {
      "text": "讲完了三八的重要性，就来说说为什么经卦只有三爻，卦数是八个？刚好也是三和八。"
    },
    {
      "text": "三爻卦生成的第一种说法就是太极生两仪，两仪生四象，四象生八卦。这是事物一分为二的法则，也是常说的二进制。"
    },
    {
      "text": "卦爻生成的规律就是阴阳爻往上叠加阴阳爻，二的一次方就是阴阳爻，二的二次方就是四象，二的三次方就是八卦，三爻成八卦，每卦都是唯一性。"
    },
    {
      "text": "人生一世，草木一秋，天下的事物除了宇宙在继续膨胀外，都会物极必反，才有无尽的循环变化。春夏秋冬、白天黑夜，阴极阳生，阳极阴生。"
    },
    {
      "img": "https://p3.pstatp.com/large/dfic-imagehandler/ecb93a6f-9f5f-40e3-aaad-8d8641d0eed2"
    },
    {
      "text": "数理也是一样阴阳顺逆的轮回，一为数之始，十为数之终。象第二张数的阴阳仪图一样，生数在次第增加，相应成数就在次第减少。数为一始时，对面的阴仪的十也同时存在。"
    },
    {
      "text": "卦也是有阴阳顺逆的轮回，卦的实数是，乾九、震八、坎七、艮六、兑四、离三、巽二、坤一。"
    },
    {
      "text": "阳主变，进而极于九，所以乾阳为九，阳性卦主成数，按长中少顺序次第减少。阴以退为极，所以坤阴极于一。阴性卦主生数，按长中少顺序次第增加。"
    },
    {
      "text": "乾始坤终，卦的阴阳顺逆刚好和数的阴阳仪刚好相反。它是阳卦为成数，阴卦为生数。而在数的阴阳两仪中，生数在阳仪，成数在阴仪。所以卦与数是一对相反的阴阳关系。"
    },
    {
      "text": "卦与数的关系大家理解能记住就行，不必钻牛角尖。八经卦为什么只用三爻就够了？中国人喜欢把事物分成三段，比如上中下、左中右，过去、现在、将来。"
    },
    {
      "img": "https://p3.pstatp.com/large/dfic-imagehandler/48963239-ef66-4f59-898c-5d5330316306"
    },
    {
      "text": "我们站在地面，自己在中，只能看到左、前、右三方，而不能同时看到背面，天人合一也是讲天地人三才。"
    },
    {
      "text": "在第二张图的阳仪中，有三天两地，三个天数相加为九，两个地数相加为六。中位数三乘天之中数五等于十五。正好是阳仪中的总数，洛书纵横斜方向三数相加都是十五。"
    },
    {
      "text": "阴仪是三个地数，隐去两个天数七和九，则六八十相加等于二十四。阳仪是阳九为用，阴仪是二十四为用。"
    },
    {
      "text": "阳仪三位天数，阴仪三位地数，所以爻位也用三。三爻既能主变，又能为用。上文已经说过，在洛书上，阴、阳数都可以用三左行。卦用三爻有其道理。"
    },
    {
      "text": "为什么卦用八个？刚才说了四象生八卦的原理。我们再来看看它的数理。有物才有象，有形才有象。卦画就是易象，阴就表示已成形成象。"
    },
    {
      "text": "在阴仪中，八为阴仪中位数，也是地数的中位数，三八二十四，刚好等于阴仪三个地数之和，八经卦中，阴阳爻共有二十四个。"
    },
    {
      "text": "用天之中数五乘于阴仪中数八，就等于四十。刚好等于阴仪中所有数的总和。所以，在原则上，三爻配上八个卦，既能描述阳仪中的各种变化，又能囊括阴仪中所有用法。"
    },
    {
      "text": "《系辞》上说：“三五以变，错综其数，通其变，遂成天地之文，极其数，遂定天下之象。“"
    },
    {
      "text": "三加五为八，三五得十五，阳仪总数和。三八二十四，阴仪用数。五八四十，为阴仪总数和。这就是三五以变，就是八卦三爻的数理。"
    },
    {
      "text": "以上内容比较多，需要易友们慢慢消化。学易，还是要有点慧根。"
    }
  ]
}