{
  "source": "壹圆文化",
  "detail_source": "壹圆文化",
  "screen_name": "壹圆文化",
  "avatar_url": "https://p3.pstatp.com/thumb/ff4c0000329fa7e5df8e",
  "auth_id": "1617719604580359",
  "auth_info": "建筑公司总经理 优质文化领域创作者",
  "publish_time": 1571300167,
  "title": "学透易数，你就能洞悉太极生两仪，两仪生四象，四象生八卦的奥秘",
  "url": "http://toutiao.com/group/6748573953947599367/",
  "comment_count": 32,
  "is_original": true,
  "data": [
    {
      "text": "首先声明两点，本文观点为作者遍读易学著作而悟出的个人心得。即使是购买了专栏的朋友，也请不要对外传播，自己看懂就行。"
    },
    {
      "text": "二是因为平台审核严格，很多地方不能结合卦图等易学工具来讲解，否则更精彩。"
    },
    {
      "text": "太极生两仪，两仪生四象，四象生八卦。这是研易的朋友耳熟能详的一句话。具体该如何生呢？估计就没几个能解释得清了。"
    },
    {
      "text": "有个错误的理解需要纠正一下。太极生两仪，两仪分成阴仪和阳仪。有的朋友理解成太极生阴阳，这是不对的。"
    },
    {
      "text": "阴阳只是一种相对的关系，是事物在某些方面对立统一的特性，天地间是没有纯阴纯阳的事物。具体到事物，孔子就引入“仪”的概念。"
    },
    {
      "text": "比如天地是一对阴阳关系，但不能说天就是阳的，地就是阴的。天上有阴也有阳，地上有阳也有阴。八卦也是一样，阳仪中有阴卦也有阳卦，阴仪中有阳卦也有阴卦。"
    },
    {
      "text": "易经的象数理是统一的，象以卦画示人，数以数显。数分阴阳，阳奇阴偶，一三五七九称为天数，二四六八十称为地数。"
    },
    {
      "text": "为什么五能成为太极？因为五能帮其它生数实现数的阴阳转换，比如一本来是阳奇，加五则成阴偶六；二本来是阴偶，加五则成阳奇七，其它生数转成数也是一样，加五就是一次阴阳变化。"
    },
    {
      "text": "正因为五能阴阳转换的特性，放在中间立极，中宫就能进行干土和湿土转换，这就叫土在中，水火交蒸而万物生。"
    },
    {
      "text": "上面是数的阴阳特性，八卦能分阴仪和阳仪，数也照样可以分阴、阳仪。看下图，左边为阳仪，右边为阴仪。"
    },
    {
      "img": "https://p3.pstatp.com/large/pgc-image/3c6e748cb11a447cb8b2b411dde8f774"
    },
    {
      "text": "将十个数按生、成数分别布在阴阳仪上，生数一二三四五就在阳仪，六七八九十在阴仪。生数一为数之始，成数十为数之终。"
    },
    {
      "text": "物极必反，阳顺阴逆，生数长，成数消。所以孔子说：“数往者顺，知来者逆。”看上图，你能恍然大悟吗？"
    },
    {
      "text": "八卦有实数，当然不是卦序。卦实数是乾父得九，坤母得一，长中少男分别为八七六，长中少女为二三四。卦与数刚好跟上图的数理是统一的，实在不懂的朋友可再去看我以前的文章和图。"
    },
    {
      "text": "可能有的朋友会说，数分阴、阳仪是我勉强凑数，没什么道理。下面我就来揭示其中的奥秘。"
    },
    {
      "text": "看上图，两仪中对应的奇数和偶数相加，刚好都是十一，天地总数五十五，东西南北中，五方各得十一，五方之数就平衡了。"
    },
    {
      "text": "逢十进一，过十取一就是平衡点，我们的先人是不用零的，一阴一阳才是道。所以邵雍说：“冬夜子之半，天心无改移。”子时是什么时间？就是十二时辰的第一时。"
    },
    {
      "text": "陈抟也说：“一为道之宗，六为形之祖。”阴阳合十一的道理，用河图来解析，你就明白了。"
    },
    {
      "img": "https://p3.pstatp.com/large/pgc-image/1bb47d2fe319489596eac80100dec795"
    },
    {
      "text": "在河图上，一二三四五生数不变，六进中，退十于北，九七互易。则河图五方之阴数和阳数相加都等于十一。"
    },
    {
      "text": "上面变体河图，配上八卦和天干，八卦纳八干，就是纳甲的原理。天数中于五，地数中于六，六进中替十就是天地之中，五音司日，六律司辰，合二中就可定律历。"
    },
    {
      "text": "上述变化中，只有三、八位置未变，这是为什么呢？因为在数的两仪中，三为阳仪之中，八为阴仪之中，中是不能乱动，否则就乱套。后天离坎能替乾坤也是这个理。"
    },
    {
      "text": "再回到数的两仪，左边生数中，一三五（天数）相加和为九，二四（地数）相加和为六。三个天数，两个地数，这就是“三天两地”的说法，三为数中位，三乘三(天数个数）得九，三乘二（地数个数）得六，和与积都是九和六，所以阳爻用九，阴爻用六。"
    },
    {
      "text": "阳主动，主变，左边阳仪一四合五，三二合五，另外还一个五，所以叫“三五以变”。阳仪所有生数相加等于十五，对应洛书纵横斜相加都是十五。"
    },
    {
      "img": "https://p3.pstatp.com/large/pgc-image/2ba093ee1ddf4c659f6abe2033f78635"
    },
    {
      "text": "三天两地倚数之理。在洛书上，阳以三左行，三乘奇数，一直可以循环乘下去，比如从北向东顺时针开始，三一得三，三三得九，三九二十七，三乘二十七等于八十一，尾数又回到北方一。一直循环都可以。"
    },
    {
      "text": "阴数也可以乘三左行，比如从西南开始顺时针，三二得六，三六一十八，三乘一十八得五十四，三乘五十四等于一百六十二，又回到西南尾数二，一直循环乘，尾数都能一一对应。"
    },
    {
      "text": "二就只能以阴数右行，比如从西南开始逆时针，二二得四，二四得八，二八得一十六，二乘十六得三十二，又回到西南尾数二。"
    },
    {
      "text": "阳仪主动，讲的是千变万化。阴仪上的成数，主静成形。我们看阴仪中，六八十共三个地数，七和九共两个天数。"
    },
    {
      "text": "三个地数，六八十相加得二十四。天上有二十四节气，人有二十四经脉，一天有二十四小时。这是阴仪的主要数理。"
    },
    {
      "text": "两仪如何生四象？也是阳仪和阴仪间的天数和地数两两生成。天一生水，地六成之；地二生火，天七成之；天三生木，地八成之；地四生金，天九成之。"
    },
    {
      "text": "四象如何生八卦？也可以用数理来推导。用卦估计审核通不过，所以不写了。"
    }
  ]
}