{
  "source": "壹圆文化",
  "detail_source": "壹圆文化",
  "screen_name": "壹圆文化",
  "avatar_url": "https://p3.pstatp.com/thumb/ff4c0000329fa7e5df8e",
  "auth_id": "1617719604580359",
  "auth_info": "建筑公司总经理 优质文化领域创作者",
  "publish_time": 1572190966,
  "title": "易数来源于天地自然，卦数揭示了些什么天地奥秘？",
  "url": "http://toutiao.com/group/6752333836903776772/",
  "comment_count": 8,
  "is_original": true,
  "data": [
    {
      "text": "上一篇文章通过讲阴、阳仪和四象，说明了河图变洛书的数理，也讲了圣人是如何则河图洛书而画出先天八卦。"
    },
    {
      "text": "其中的关键，从几何图形来看，就是十字阴阳仪的数字，变成对半圆弧的数字。非常方便对数洛数理和八卦之数的记忆。"
    },
    {
      "text": "前面讲了河图十个数，也讲到了太极、两仪、四象、八卦等。今天结合天地自然统一讲讲易经的象数，后面再讲洛书。"
    },
    {
      "text": "我在以前的文章说过，易经八卦起始于古代天文和数学。象和数就是古代先民时间和空间结合的观念。"
    },
    {
      "text": "古代天象，主要观测的规律有两个，一个是太阳的运行规律，一个是月亮的规律。月亮的规律就有很明显的四象特征。"
    },
    {
      "img": "https://p3.pstatp.com/large/dfic-imagehandler/d800d13b-d701-44d8-b0ea-b503275b4390"
    },
    {
      "text": "在地球上观测月亮，有很明显的朔、上弦、望、下弦四象。四象一个朔望月大概是29.53天，如果平分，这样每象是大概是七天多一点，也就是一星期多一点。"
    },
    {
      "text": "通过冬至测太阳回归年是365.24天。每象7天多一点，这样一个太阳回归年共50个象，这就是大衍之数。阳历（回归年）月象之数有50个，阴历有48个，阴阳合历则有49个。"
    },
    {
      "text": "这样日、月周期通过大衍之数就在时间上联系起来了。看来日月推演而衍易是有道理的，“易”字上日下月，讲日月运行变化也是有根据。"
    },
    {
      "text": "天数二十五，地数三十，天地总数合五十有五，为什么大衍之数只有五十呢？两者刚好差个五数。"
    },
    {
      "text": "是不是天之中数五不能用？还是《阴符经》说的：“天有五贼，见之则昌。”五数被盗了？反正我还没找到更好的说法。"
    },
    {
      "text": "揲蓍时，大衍之数五十，其用四十九，留一不用。然后分二以象两，再挂一以象三，又是留一不用。实际最后用的蓍草数是四十八。"
    },
    {
      "text": "我在以前的文章说过，一为道之宗而不用，但这两次留一不用有另外特殊意义，我们来看看太极生两仪，两仪生四象，四象生八卦的真正数理奥秘。"
    },
    {
      "img": "https://p3.pstatp.com/large/pgc-image/3bed22f54ab44c3aaf76b1e640f443bb"
    },
    {
      "text": "初看上图，没什么奥妙，有三个一很明显。太极有个一在顶端，当然不动。右边的各排的一是个位数的一，左边各排的一其实是十、百、千上的一，属于有位的逢十进一。"
    },
    {
      "text": "各排从上往下，相当于二的几次方，太极生两仪，再生四象、八卦，一直到六十四卦。二的三次方就是八卦，二的六次方就是六十四卦。"
    },
    {
      "text": "实际上图也是幂的加法原理，比如四象这一行，一加二加一等于四，也表示四象里面有两爻纯阳一个，两爻纯阴一个，一阴爻一阳爻有两个。"
    },
    {
      "text": "再如八卦这一行，说明纯阳乾卦一个，纯阴坤一个，一阴两阳的卦有三个，一阳两阴的卦也有三个，这样总共八卦。其它各行对应的几爻卦都是如此规律。"
    },
    {
      "text": "再比如四爻卦，这行数字一、四、六、四、一相加，其和为十六。这就是十六互卦，这十六个互卦就是六十四卦的核心。"
    },
    {
      "text": "还有一个更奥妙的数理。天之中数五，地之中数六，五六在中合十一，天地之中数合十一就是纳甲之理。"
    },
    {
      "text": "把11代替2，代入上图算算看。两仪这一行，相当于11的1次方，还是11。四象是11的2次方，等于121，就是图中这行从左到右的数字。"
    },
    {
      "text": "八卦这一行，就是11的3次方1331。也刚好是这行从左到右的数字。一直到六十四卦，都是这样的规律。11的4次方14641，11的5次方是161051。"
    },
    {
      "text": "注意，中间数字达到十以上要向左进一位，逢十进一。最后六十四卦就是11的6次方为1771561。"
    },
    {
      "text": "以上数理说明，左边各排的1属阳，可以一直无穷大，右边的1属阴，在个位数不动如山，天地之中五六合十一，更是易道至理。"
    },
    {
      "text": "刚才说的是留一不用的道理，天数二十五减一，是用二十四。六为形之祖，地数三十减六，也用二十四。"
    },
    {
      "text": "《易》曰：“乾之策二百一十有六，坤之策一百四十有四。凡三百有六十，当期之日。”"
    },
    {
      "text": "就是说乾卦的策数是216，坤卦策数144，两者相加共360，当作一年的天数。近似认为太阳每天行一度，周天公度也360。这就是易学建立的一完美的数学模型。"
    },
    {
      "img": "https://p3.pstatp.com/large/dfic-imagehandler/05eb5fd7-ae7c-4d4c-b728-9c6aa5d7ab28"
    },
    {
      "text": "那么二十四数在哪里呢？这里告诉大家最重要的易数知识，阳爻用九，9乘24，就是216。阴爻用六，6乘24就是144。"
    },
    {
      "text": "换言之，天数和地数都用24，乾卦策数就是216，坤卦策数就是144，合360。所以把360分成24等份就是15，就是一个山向的度数。"
    },
    {
      "text": "观天象时，这个策数，其实就是度数。就是古代夏至日这一天，测得白昼太阳东升西落时间是216度，日落到日出黑夜是144度。"
    },
    {
      "text": "一天24小时，每小时大约走15度。就是说夏至日这天，测到的白昼时间大约是14.4小时，黑夜时间大约是9.6小时。这才是乾坤两卦策数的真正含义。"
    },
    {
      "text": "另外，乾卦六爻，每爻用九，乾卦之数54。坤卦六爻，每爻用六，坤卦之数36。刚好和它的策数是四倍关系。"
    },
    {
      "text": "就是说，卦数乘四象，就是其策数。所以揲蓍时要揲之以四，以象四时。"
    }
  ]
}