{
  "source": "壹圆文化",
  "detail_source": "壹圆文化",
  "screen_name": "壹圆文化",
  "avatar_url": "https://p3.pstatp.com/thumb/ff4c0000329fa7e5df8e",
  "auth_id": "1617719604580359",
  "auth_info": "建筑公司总经理 优质文化领域创作者",
  "publish_time": 1572696884,
  "title": "学易贯通卦与数，你的易学水平将会突飞猛进",
  "url": "http://toutiao.com/group/6754543619421504013/",
  "comment_count": 6,
  "is_original": true,
  "data": [
    {
      "text": "专栏本已完结，我还是尽量把自己对易学的独到见解，毫无保留奉献给各位易友，以后易数文章都收入这个专栏。"
    },
    {
      "text": "今天就把河洛数理和八卦相互贯通，把各种易学知识串联起来，尽快提高大家的易学水平。我们先从河图天地之数讲起。"
    },
    {
      "img": "https://p3.pstatp.com/large/pgc-image/ed4941726f2048aca771b741d85376d6"
    },
    {
      "text": "学易，首先要有阴阳观念。以前写四象文章时，讲了西边四九金藏了一（十减一为九，五减一为四）。与此相同，这样西边太阳一，东边少阴藏二，南边少阳藏三，北边太阴藏四。"
    },
    {
      "text": "记住一为道之宗而不用，西边的蕴含的四九在后面却有大用。"
    },
    {
      "text": "再来说天数和地数，阳奇天数共二十五，阴偶地数共三十，河图有数五十五。"
    },
    {
      "text": "天地要相交，要相感，天数、地数的最大公约数是五，这样天数二十五除以五得五，五分阴阳，这就是十天干，天上的循环。"
    },
    {
      "text": "地数三十除以五得六，六也分阴阳，这就是十二地支。天干地支相配成六十甲子。这样物候和时节就变成了纪年、月、日的时间标记。"
    },
    {
      "text": "上面说的是河图之数按奇偶分成天数和地数，如果按生数和成数分，就成两仪。"
    },
    {
      "img": "https://p3.pstatp.com/large/pgc-image/ee7fcdebcca54a6e8169b9eeb45ecbab"
    },
    {
      "text": "按阳顺阴逆分布阴阳两仪，每一行合十一，这叫天地合中，河图总数五十五数平均分配到每一行。"
    },
    {
      "text": "换在变体河图就是，水土同根，六和十互换，在神兽上也看得出来，北玄武龟首与中宫螣蛇首相似。再加上九七互换，就成了变体河图。"
    },
    {
      "img": "https://p3.pstatp.com/large/pgc-image/c225d8de1b0c4f849ba91d7c2d85333d"
    },
    {
      "text": "变体河图，中宫合十一，四方也各合十一，配上八干八卦，就是八卦纳甲之理，我在以前的文章专门讲过。"
    },
    {
      "text": "变体河图五方各合十一，河图五十五总分配到五方，易学应用的纳甲是有数理根据的。"
    },
    {
      "text": "讲完河图的数，再来讲画卦，我们知道，卦爻是从下往上画的。三爻卦从下往上分为初、中、上，六爻卦是初二三四五上。"
    },
    {
      "text": "如果把前面数的阴阳仪，把数字也由下往上来排列，则成下图"
    },
    {
      "img": "https://p3.pstatp.com/large/pgc-image/fbc778ecfda94985b93377653acddc90"
    },
    {
      "text": "奇数为天数，偶数为地数。则左边阳仪三个天数，两个地数，这就是三天两地。三个天数一三五相加为九，两个地数二四相加为六，所以阳爻用九，阴爻用六。"
    },
    {
      "text": "右边阴仪，三个地数两个天数，三个地数六八十相加为二十四。"
    },
    {
      "text": "刚才说了，天数和地数的最大公约数是五，阳仪中数三乘以五得十五，刚好等阳仪生数之和（9+6)。"
    },
    {
      "text": "阴仪中数八乘五得四十，刚好等于阴仪成数之和（24+16）。三加五等于八，三乘八等于二十四。"
    },
    {
      "text": "二十四是三和八的最小公倍数，所以天上用二十四节气，地上用二十四向。这就是三五以变，错综其数。"
    },
    {
      "text": "阳仪天数九，阴仪用地数二十四，加在一起就是三十三，平均分配到三爻又是十一。八经卦用三爻就够了。"
    },
    {
      "text": "阳仪用天数，阴仪用地数。把阳仪三行的天数视为三阳爻，阴仪三行的地数视为三阴爻，数变成卦画，奇阳偶阴，就变成了乾、坤两卦。"
    },
    {
      "img": "https://p3.pstatp.com/large/pgc-image/dc41f1365b18418892ee3ca1f91e040a"
    },
    {
      "text": "乾卦三爻数之和为九，坤卦三爻数之和为二十四，加在一起合三十三，按三爻平分为十一。"
    },
    {
      "text": "如果把乾卦的上阳爻和坤卦的上阴爻互换，那么乾卦就变成兑卦，坤卦就变艮卦。"
    },
    {
      "img": "https://p3.pstatp.com/large/pgc-image/fd6f8003c2f5420fb2ee6afdb458880a"
    },
    {
      "text": "兑卦数之和为十四，艮卦数之和为十九，两者相加为三十三，按三爻平分为十一。兑卦尾数是四，艮卦尾数是九。"
    },
    {
      "text": "如果把乾卦的中阳爻和坤卦的中阴爻互换，那么乾卦变离卦，坤卦变坎卦。"
    },
    {
      "img": "https://p3.pstatp.com/large/pgc-image/d14187f5513e4e0db76a6862431cfee0"
    },
    {
      "text": "离卦数之和为十四，坎卦数之和为十九，两者相加为三十三，按三爻平分为十一，离卦尾数是四，坎卦尾数为九。"
    },
    {
      "text": "如果把乾卦的下阳爻和坤卦的下阴爻互换，那么乾卦变巽卦，坤卦变震卦。"
    },
    {
      "img": "https://p3.pstatp.com/large/pgc-image/fd0e0f8dc4854b6f8c8c873018cf812d"
    },
    {
      "text": "巽卦数之和为十四，震卦数之和为十九，两者相加为三十三，三爻平分为十一，巽卦尾数是四，震卦尾数是九。"
    },
    {
      "text": "你会发现，阳卦乾、震、坎、艮的尾数都是九，阴卦坤、巽、离、兑尾数都是四，我在篇首叫大家记住西边太阳一的四、九金，就是来自那里。从另一侧面也印证了，一为道之宗而不用的道理。"
    },
    {
      "text": "乾、坤两卦换爻而成其它六卦，这就是乾坤生六子。"
    },
    {
      "text": "阴阳仪中，每一行阴阳爻之数相加为十一取一，就如夫妇相合生一个孩子。这就是抽爻换象，父母公孙同此推。"
    },
    {
      "text": "八卦四对的数之和都是三十三，取尾数三。两仪阴阳两卦相合而生数三，这就是老子说的，二生三。三生万物，每爻合十后又进一，爻爻相交生子无穷尽也，人伦如此，万物也如此。"
    },
    {
      "text": "这样把易经的象、数、理综合给大家串联一下，你能不能悟透些什么呢？"
    }
  ]
}