{
  "source": "壹圆文化",
  "detail_source": "壹圆文化",
  "screen_name": "壹圆文化",
  "avatar_url": "https://p3.pstatp.com/thumb/ff4c0000329fa7e5df8e",
  "auth_id": "1617719604580359",
  "auth_info": "建筑公司总经理 优质文化领域创作者",
  "publish_time": 1575684727,
  "title": "如果把卦爻辞当作人生智慧来解读，易经只会让人越读越傻",
  "url": "http://toutiao.com/group/6767514366477599236/",
  "comment_count": 13,
  "is_original": true,
  "data": [
    {
      "text": "上一篇文章通过乾卦之象，讲清楚了中国人的时空观念。也引入了几个最重要的阴阳哲学智慧。"
    },
    {
      "img": "https://p3.pstatp.com/large/dfic-imagehandler/dee190a1-bfc8-43d2-9551-e63b7355e715"
    },
    {
      "text": "第一是阴阳相依的观念。天有三重保护地球，无论是磁场、臭氧层还是对流层，似乎看不见摸不着，这些无时不在活动的保护层离不开地球自身的运行，反之亦然。所以独阳不生，孤阴不长。"
    },
    {
      "text": "第二是阴阳互根的观念。夏至一阴生，冬至一阳生，世上根本不存在纯阴和纯阳的事物。乾卦和坤卦这样纯阳、纯阴的天地卦象，是我们头脑中的想象。"
    },
    {
      "img": "https://p3.pstatp.com/large/pgc-image/b1c8293e88254ae09d7fb05cb4035457"
    },
    {
      "text": "历法也好，周天360度也好。这是人类创造来解释宇宙的理想化模型，就如我们创造\"太岁\"这个神一样，实际宇宙运行不可能这样完美。"
    },
    {
      "text": "第三是阴阳消长的规律，春夏过了就是秋冬，秋冬过了就是春夏，大气有循环，万物有荣枯，这是老百姓都明白的道理。"
    },
    {
      "text": "乾卦之象就是天，坤卦之象就是地，牢牢记住，对我们记六十四卦很有帮助。比如\"泰卦\"就叫\"地天泰\"，\"否卦\"就叫\"天地否\"。非常形象好记。"
    },
    {
      "img": "https://p3.pstatp.com/large/dfic-imagehandler/e4234be0-8cf7-49ee-86ee-4a7af4f04285"
    },
    {
      "text": "为加深大家对乾卦的理解，结合卦爻辞来讲讲易经的智慧。现在平台上写这类文章的人特别多，要么是作者自己都不太懂，要么是八卦迷信神神叨叨，要么是拿卦爻辞来写一大堆心灵鸡汤。"
    },
    {
      "text": "中国几千年来的易学大家，没有哪个是弄心灵鸡汤的。鬼谷子的纵横捭阖，诸葛亮的神机妙算。象张良、刘伯温、范蠡等等，上可以治国治军为将为相，下可富甲一方济世安民。苏秦就凭一张嘴，就可以把六国的相印挂在自己屁股后面。"
    },
    {
      "img": "https://p3.pstatp.com/large/dfic-imagehandler/8f099e70-a473-4789-a684-dce1e3b83351"
    },
    {
      "text": "就是差一些的，也可以当当太卜或者观天象的钦天监。更别说象\"杨救贫\"、\"赖布衣\"这样除暴安良、怜苦济贫的江湖传说。"
    },
    {
      "text": "下面我就结合乾卦的个别爻辞来讲讲该怎么正确去理解易经的智慧。乾卦爻辞大家几乎可以耳熟能详。降龙十八掌里面都写全了，今天拿第一爻来说。"
    },
    {
      "img": "https://p3.pstatp.com/large/dfic-imagehandler/49d8e977-2fc4-40f8-84a2-bd99b8d6179e"
    },
    {
      "text": "乾卦初爻爻辞，初九\"潜龙，勿用。\"\"潜龙\"是象，\"勿用\"是占辞。周易卦爻辞本来就是占卜之用。如果你占到乾卦初爻，不要有所作为，有所行动是对的。"
    },
    {
      "text": "因为卦象是\"潜龙\"，提示你是个有点本事的人，想做某事，但时机不对，你对哪件事进行占测，只是在这件事上要暂缓行动。这时的重点着落在占辞\"勿用\"两个字上面。"
    },
    {
      "img": "https://p3.pstatp.com/large/dfic-imagehandler/c3747923-2853-4310-b688-2dc31c0a95b4"
    },
    {
      "text": "但是现在很多易学著作，把这样的占卜用的辞当作人生智慧来解读就大错特错了！"
    },
    {
      "text": "因为是乾卦初爻，很多朋友就引申为说，人生或者事业的初创阶段，没法起作用。或者说要无所作为，不要行动而静待时机。这样的道理表面看上去没什么问题，其实这不是易经的智慧。"
    },
    {
      "text": "学易经智慧要从易的象数入手，讲智慧的时候，重点是象，就是\"潜龙\"两个字，龙能飞能潜，是非常有本事的象征。\"勿用\"只是外界的客观条件不允许的意思。就是说人生或者事业的初始阶段，不但不能无所作为，还要去做\"潜龙\"，增长本事，厚积薄发。"
    },
    {
      "text": "比如\"外卖小哥\"雷海为，在送外卖这么繁忙的工作之余坚持背诗，没钱买书就周末上书店抄写背下来，最后参加央视诗词大会拿了冠军。"
    },
    {
      "img": "https://p3.pstatp.com/large/dfic-imagehandler/fec6aace-ce5d-4d89-bcf4-84770e5794ab"
    },
    {
      "text": "还有\"大衣哥\"朱之文，在干着苦力活的农村，普通话都不标准的他，经常要面对寒风唱上几个小时，最后也是参加星光大道而成名。"
    },
    {
      "text": "两位这样的\"哥\"在底层的时候能够做到厚积薄发，我想不仅仅只是爱好而已，应该有一颗想改变命运的不甘之心。很多朋友私信我，感到前途渺茫，整天幻想不如看看他们的例子。"
    },
    {
      "text": "我们在用易经智慧时，要用易经的象数，而不是卜辞。乾卦初爻，阳爻居阳位，阳主动，哪能逃避呢？更要行动。因为初九为阳就是震卦之象，必须要行动才对。在\"勿用\"的客观条件下努力做\"潜龙\"。"
    },
    {
      "text": "说到龙，就不能不提到\"卧龙\"诸葛孔明。他才是把\"潜龙勿用\"发挥到淋漓尽致的人。"
    },
    {
      "img": "https://p3.pstatp.com/large/dfic-imagehandler/96f44665-e2f6-4a0a-b90d-18ea32a7edb3"
    },
    {
      "text": "你要知道古代户籍制度，要实现阶层跃迁还是比较难的。诸葛亮本来只是南阳耕田的一介布衣，一没资历和家世、二没业绩和经验，怎么就突然一跃成了刘备的军师？我认为主要有几点："
    },
    {
      "text": "第一，未出茅庐就知道三分天下，在信息交通不便的古代就能做这样的趋势分析，说明诸葛亮当农民之余就做了大量的功课。"
    },
    {
      "text": "第二，对自己的价值目标做了精准定位。东吴孙权接收了父兄的遗产，外事不决问周瑜，内事不决问张昭。曹操手下更是谋士武将人才济济，他自己也是文韬武略，可不喜欢听诸葛亮的什么三分天下的忽悠。"
    },
    {
      "img": "https://p3.pstatp.com/large/dfic-imagehandler/f6bf5f37-38e4-4ef7-ac78-b268ecf1dfd0"
    },
    {
      "text": "只有同样是草莽出身的刘备三兄弟才是自己最佳选择。况且刘备当时非常落魄，根据地都没有，前途暗淡，正是求贤若渴的时候，听了诸葛的三分天下，简直如闻天音。刘备还有个好处就是有一张\"汉室之后\"的牌可以打，这样摇身一变成为宰相简直比曹丞相还正宗。"
    },
    {
      "text": "第三，全力为自己营销。他在南阳一带编了些美化自己的诗歌让儿童传唱，把自己树立成有名的隐士。另一方面通过徐庶他们这些已经有了身份地位和名气的文化圈的朋友，来推荐、传诵自己。虽然他早就知道曹、孙看不上自己。"
    },
    {
      "img": "https://p3.pstatp.com/large/dfic-imagehandler/03123d15-bfdb-4bad-ace4-c08ba65c13f6"
    },
    {
      "text": "第四，最高明是欲擒故纵，让刘备自己来三顾茅庐，就跟姜太公钓鱼一个意思。这样才能直接身居高位而发挥作用，如果自己没皮没脸找上门去，是不可能一开始就发挥神机妙算的本事。"
    },
    {
      "text": "只有刘备对得到诸葛视为如鱼得水。在\"火烧博望坡\"之前，关羽、张飞是很不待见诸葛亮的，每次在诸葛亮安排时，都会揶揄刘备道，你叫你的\"水\"去打仗啊。"
    },
    {
      "img": "https://p3.pstatp.com/large/dfic-imagehandler/50ba00c9-9177-41f4-84f2-3f808c8303bc"
    },
    {
      "text": "你看诸葛亮多厉害，一步一步算好了自己的出路在哪。\"勿用\"的时候要做\"潜龙\"。在有梦想的时候，好好积累自己的本事和资源。"
    },
    {
      "text": "一阴一阳之谓道，反向看卦爻辞，这才是易经真正的智慧。"
    }
  ]
}