{
  "source": "壹圆文化",
  "detail_source": "壹圆文化",
  "screen_name": "壹圆文化",
  "avatar_url": "https://p3.pstatp.com/thumb/ff4c0000329fa7e5df8e",
  "auth_id": "1617719604580359",
  "auth_info": "建筑公司总经理 优质文化领域创作者",
  "publish_time": 1575338182,
  "title": "学习易经从哪入手好？学易先学象",
  "url": "http://toutiao.com/group/6766025967627403787/",
  "comment_count": 16,
  "is_original": true,
  "data": [
    {
      "text": "天地人三才，人在天地中，按照爱因斯坦相对论的说法。人受时空的四维空间的影响和约束。"
    },
    {
      "img": "https://p3.pstatp.com/large/dfic-imagehandler/c8fbedac-15c3-4754-b33f-e661d69b8c6f"
    },
    {
      "text": "关于时间的本质，现代大物理学家霍金在《时间简史》中有一段幽默的描述：\"有位年轻的小姐叫怀特，她行走得比光还快。她以相对的方式，在当天刚出发，却已在前晚到达。\""
    },
    {
      "text": "如果你比光速快，时间就可逆。"
    },
    {
      "text": "易传《说卦传》中讲到：\"数往者顺，知来者逆，是故易逆数也。\"看来《易》也讲可逆。"
    },
    {
      "text": "世间万物，几乎没有任何东西能逆转时间。可在诗人的浪漫情怀不一样，诗仙李白说：\"夫天地者，万物之逆旅；光阴者，百代之过客。\"大文豪苏东坡也说：\"人生如逆旅，我亦是行人。\""
    },
    {
      "img": "https://p3.pstatp.com/large/dfic-imagehandler/98b19a94-558c-4c19-8920-9de10b7ca20e"
    },
    {
      "text": "看来，在四维空间里，唯一不受时空约束的就是人类的心灵，心灵能制造时间错觉，就如我们抬头望星空，即时看到的星空背景，却是亿万年前发出的星光，望远镜看到的宇宙是过去的宇宙，而我们认为是当下。"
    },
    {
      "text": "可能很多朋友都有这样的心灵体会，就是当下某些事物发生的场景，好象似曾相识，或者在以前的梦境中出现过。抑或是在梦中发生的情景，果然在后面日子里就有印证。"
    },
    {
      "img": "https://p3.pstatp.com/large/dfic-imagehandler/5286a9ee-9a4b-4ec0-a406-ea7e1c9f0e98"
    },
    {
      "text": "这个只能发生在我们潜意识的时空错乱的场景，就是我们大脑的图象中枢功能。"
    },
    {
      "text": "我们的大脑有两套中枢系统，一套是图象中枢系统，一套是语言文字中枢系统，图象中枢系统比较原始。"
    },
    {
      "text": "人类在几十万年的原始残酷的环境中，没有语言文字，大脑使用的就是这套图象中枢系统，因而有很强的直觉本能和敏锐的感知能力。"
    },
    {
      "text": "人类这套快速应急反应系统赋予了人类比其它动物更强的心灵感知能力。设想你在非洲大草原，被狮群偷偷包围，虽然你看不到、听不到、闻不到它们，但自然会让你感到危险的临近而心理紧张。"
    },
    {
      "img": "https://p3.pstatp.com/large/dfic-imagehandler/7362762c-150e-4c05-8e4f-b91dbf8977b6"
    },
    {
      "text": "这种天然对危险的心灵嗅觉，让人类没有落到灭亡的地步，成为了万物之灵。在躲避天敌和自然灾害的生活生产中，人类慢慢总结而画图观象来沟通。易经的卦画符号系统就慢慢产生了。"
    },
    {
      "text": "图象中枢就是把自然界看到的景象，听到的声音作为基础信息库。易经也有\"同声相应，同气相求\"的说法，曾子母亲咬了自己手指，在外的曾子一瞬间感到心痛，这种心灵感应让曾子知道有事发生，马上跑回家跪问母亲何事？"
    },
    {
      "text": "人类文明的不断发展，从渔猎社会慢慢过渡到农耕社会，人类居住和生产日趋安定，语言文字产生，人们沟通、交流、传播和社会契约都采用语言文字。人类大脑的图象中枢慢慢被放弃，转移成语言文字中枢。"
    },
    {
      "img": "https://p3.pstatp.com/large/dfic-imagehandler/84733b92-45cc-4fe9-b544-5d4629f25a39"
    },
    {
      "text": "这种人类赖以生存的图象直觉本能慢慢退化。又通过基因传承或成为我们心灵类似图腾的集体潜意识。在有些基因记忆能力比较强大的人身上，还可以有非常强的直觉本能。"
    },
    {
      "text": "这种见微知著，预知将来的现象，就是易经带给人们对事物的预测功能。可惜人类文明越发达，反而人类的这种直觉本能越缺乏。但是人类的最初的学习能力还是使用大脑的图象中枢，比如幼儿教育开始都是看图识字识数，通过朗读加强记忆，通过游戏增长智力。"
    },
    {
      "img": "https://p3.pstatp.com/large/dfic-imagehandler/77bf7b69-be5f-4b38-bbea-20bd639f81be"
    },
    {
      "text": "卦者，挂也，卦画以图象示人。这种视觉加想象的易经卦画让我们的心灵活泼无碍。如果加利用语言文字中枢系统来思考，就对心灵能力有了约束。有句名言说得非常好：\"人类一思考，上帝就发笑。\""
    },
    {
      "text": "在易经的发展的历史上，陈抟就有这样的论述：\"易道不明，乃有周孔，周孔孤行，易道复晦。\"易经从卦画的图象进入经传的文字，慢慢就失去了易经活泼的灵性，也失去了它的本来功能和面目。"
    },
    {
      "text": "所以，对于初涉易经或者不得其门而入的朋友，最好用我们与生俱来的大脑图象中枢系统来学习易象，不要去背晦涩难懂的卦爻辞，不要死记卦序，不要沉湎于文字类的心灵鸡汤。"
    },
    {
      "text": "先学易象，会让你在学易的道路上后发而先至，学会百姓日用而不知的易经，你不但能和古人有同声相应，同气相求，更能在现实生活中增长智慧，提高技能。因为易经卦画符号就是我们中华文化的底层核心思维。"
    },
    {
      "img": "https://p3.pstatp.com/large/dfic-imagehandler/ce28be1f-2873-4c2f-b656-49b7ce98f190"
    },
    {
      "text": "让我们闭上眼睛，让专栏带你进入八卦的自然现象，类比我们身边的万事万物。通过自然万象学会八卦。通过邵雍先天方圆图的规律，学会周易六十四卦。从而提高我们的图象直觉能力，也让心灵更加活泼自由，增长生活智慧。"
    }
  ]
}