{
  "source": "壹圆文化",
  "detail_source": "壹圆文化",
  "screen_name": "壹圆文化",
  "avatar_url": "https://p3.pstatp.com/thumb/ff4c0000329fa7e5df8e",
  "auth_id": "1617719604580359",
  "auth_info": "建筑公司总经理 优质文化领域创作者",
  "publish_time": 1574664410,
  "title": "出神入化用五行，五运六气辨阴阳",
  "url": "http://toutiao.com/group/6763132145377477131/",
  "comment_count": 20,
  "is_original": true,
  "data": [
    {
      "text": "\"天地混沌如鸡子，盘古生其中\"。盘古一画开天地，清者上升，浊者下降。神话和宇宙大爆炸理论不谋而合。"
    },
    {
      "text": "最初，宇宙只是一个比原子还小的灼热小球，这个密度和温度都无限高的状态，称之为奇点。宇宙爆炸后急剧膨胀，速度超光速。宇宙中的气体慢慢形成星云，数百万年后，恒星和星体开始在星云中诞生。"
    },
    {
      "img": "https://p3.pstatp.com/large/pgc-image/562f728b91944fa88b7584b3ee025e8c"
    },
    {
      "text": "如果把宇宙的生命历程折算成一年的话，人类的历史还不到一天。而且由于宇宙还在不断的膨胀中，深空星体跟我们的距离以亿万光年来计。"
    },
    {
      "text": "《系辞传》说：\"天垂象，见吉凶，圣人象之。\"人类认识宇宙只能从看天象开始。当我们抬头仰望天空，深空中的星光早已亿万年前的背景。"
    },
    {
      "text": "宇宙的广袤，人类的渺小，远古的神话就牢牢占据了我们的心灵。人间皇帝住紫禁城，天上真命天子住紫微垣。\"紫微星下凡\"就是一则让人津津乐道的神话故事。"
    },
    {
      "img": "https://p3.pstatp.com/large/dfic-imagehandler/6d2ecde8-5cfa-49fd-9afc-8c30dd0687f9"
    },
    {
      "text": "每逢乱世，紫微星就会下凡，而且身边总跟着二十八人，这就是古代天文星图中的二十八宿。二十八宿又称二十八舍或二十八星，是古代人们为观测日、月、星的运行，而在黄道和赤道附近划分的二十八个星区。"
    },
    {
      "text": "左青龙、右白虎、前朱雀、后玄武。这是二十八宿的四象，四象与五行四方相比附，东方苍龙属木，色青。北方玄武属水，色黑。南方朱雀属火，色赤。西方白虎属金，色白。再加上中央黄色土，一共五色。"
    },
    {
      "text": "古人观察天象。认为天上有青、赤、黄、白、黑五色云气横亘在天空。称之为苍（青）天、丹天、黅（黄）天、素（白）天、玄（黑）天。通称为\"五天五气\"或\"五气经天\"。如下图"
    },
    {
      "img": "https://p3.pstatp.com/large/pgc-image/0c00ca479f544622beef50e09483aec1"
    },
    {
      "text": "五气配五行，苍天为木气，丹天为火气，黅天为土气、素天为金气、玄天为水气。五天之气的运行和五行之气的变化结合起来，就构成五运。"
    },
    {
      "text": "五运推演的基本法则是什么呢？其实就是天干合化。甲己合化成土运，乙庚合化成金运、丙辛合化成水运，丁壬合化成木运，戊癸合化成火运。"
    },
    {
      "text": "用干支纪年，有了当年的天干，按照上述法则就可以推算当年属于何运，土运主湿，金运主燥，水运主寒，木运主风，火运主热。"
    },
    {
      "text": "怎么用五运来预测气象变化呢？有一个主运和客运关系，利用两者五行的相生相克来判断，又叫推\"五步\"。"
    },
    {
      "text": "主运就一年按五季恒定不变的五行相生顺序排列。把一年平均划分为五季，每季一运，一运73.05天。固定按木火土金水的五行相生顺序。初运为木，起于大寒日。二运属火起于春分后十三日，三运属土起于芒种后十日，四运属金起于处暑后七日，五运属水起于立冬后四日。"
    },
    {
      "img": "https://p3.pstatp.com/large/dfic-imagehandler/3daa3684-d96b-443d-af6f-ed8e66ee5f3a"
    },
    {
      "text": "客运就是用对应当年天干的大运来作为初运，也按五行相生的顺序分五季来排客运。比如甲年为阳土，那么甲年客运的初运为土，二运为金，三运为水，四运木，五运火。"
    },
    {
      "text": "这样每季就有主运的五行和客运五行，就产生了相生相克的关系。比如上述甲年二运为金，本身主运为火，那么火克金，主克客。"
    },
    {
      "text": "五运还有\"太过\"与\"不及\"的说法，甲丙戊庚壬阳干之年为太过，乙丁己辛癸阴干之年为不及。太过的年份，其运气在大寒节前十三日交运。不及之年其运气在大寒节后十三日交运。"
    },
    {
      "text": "除了太过和不及之年，当然还有平气之年，这就要用干和支的五行相生相克的平衡来论了，这就是六气的概念。"
    },
    {
      "text": "六气为风寒暑湿燥火，六气又各有阴阳属性，用十二地支来推演和五行相配，就是它的法则。下图就是地支配六气。"
    },
    {
      "img": "https://p3.pstatp.com/large/pgc-image/1aead75763c54fd6815ceac9aee07995"
    },
    {
      "text": "根据年支，就可知道主宰该年全年气候变化的主气，比如凡是子、午年属君火年，气从热化。凡是丑未年属太阴湿土，气候潮湿。"
    },
    {
      "text": "但是地支主宰之气只管上半年，跟它阴阳对应的六气就管下半年。看下图，六气分阴阳，而且也是按五行相生的规律发展，只是火有少阴君火和少阳相火两个。"
    },
    {
      "img": "https://p3.pstatp.com/large/pgc-image/4719d7e759154701b949f3ed9b54081b"
    },
    {
      "text": "半年气候变化规律按三阴三阳对应五行相生之序。比如该年主气的是太阴湿土，与之对应的是太阳寒水，那么上半年气候潮湿，下半年就气温偏低。"
    },
    {
      "text": "那么，一年当中的某一个具体时段的气候变化推算就要用\"推六步\"的方法了。限于篇幅，下文再写此法和五运六气的具体运用。"
    }
  ]
}