{
  "source": "壹圆文化",
  "detail_source": "壹圆文化",
  "screen_name": "壹圆文化",
  "avatar_url": "https://p3.pstatp.com/thumb/ff4c0000329fa7e5df8e",
  "auth_id": "1617719604580359",
  "auth_info": "建筑公司总经理 优质文化领域创作者",
  "publish_time": 1577087685,
  "title": "大快朵颐记颐卦象，记住屯子就记住了屯卦，盆满钵满记益卦象",
  "url": "http://toutiao.com/group/6773540029105963523/",
  "comment_count": 0,
  "is_original": true,
  "data": [
    {
      "text": "上文通过八卦相摩讲解了阳仪中的第一卦复卦，是用坤卦与震卦相摩。下面接着用阴仪剩下的三卦与震卦相摩而成，那就是山雷颐卦、水雷屯卦、风雷益卦。"
    },
    {
      "text": "下面教大家轻易记住三卦的卦象："
    },
    {
      "text": "阴仪巽坎艮坤，从坤卦阴退到第二卦就是艮卦，上艮下震，山雷颐卦。"
    },
    {
      "text": "你看颐卦多么形象啊！艮卦上阳爻象上嘴皮子，震卦下初阳爻象下嘴皮子，中间四个阴爻就象四排牙齿。"
    },
    {
      "img": "https://p3.pstatp.com/large/dfic-imagehandler/c012ea16-7711-4a05-9c94-1e941408d6dc"
    },
    {
      "text": "男人嘴大吃四方，大块吃肉，大口吃喝酒。上卦为艮为止，下卦为震为动。吃喝用嘴都是上腭不动，下腭动，不信你就试试！"
    },
    {
      "text": "大快朵颐，颐养天年，记住吃喝、养生就很容易记住了颐卦。"
    },
    {
      "text": "一爻一日，颐卦代表12月27日到元月2日，这段时间刚好是元旦。单位也好，个人也好，年底要结帐清算，做做总结。"
    },
    {
      "text": "出售货物的尾款要去催收，借了别人钱最好年底还。单位要发奖金，朋友、同事要聚聚。这时候自然要吃吃喝喝。"
    },
    {
      "img": "https://p3.pstatp.com/large/dfic-imagehandler/448af173-5858-4964-99dd-e1c685b44885"
    },
    {
      "text": "中华民族是个忧患民族，其中忧患意识最早就来自易经。别看颐卦吃吃喝喝挺开心，得意忘形就会出问题。"
    },
    {
      "text": "颐卦其实是要告诉你两句话，一是病从口入，二是祸从口出。"
    },
    {
      "text": "人身上的病大部分都是吃出来的，饮食要节制。说话不谨慎，就很容易给自己招来灾祸。醉话虽然不能当真，喝酒误事而后悔不迭却大有人在。"
    },
    {
      "text": "阴仪巽坎艮坤退到第三卦就是坎，内卦依然是震，上坎下震，水雷屯卦，动而险。当然屯卦的屯应该读(zhūn)。"
    },
    {
      "text": "水在上就是雨，下面又是雷，雷雨交加，作为路上的行人你该怎么办？当然是赶快找个附近的屯子（村子）躲起来嘛。"
    },
    {
      "text": "\"屯\"字又象是幼苗破土而出，你如果仔细观察，幼苗冲出地面都是蜷曲着身子钻出来的。曲则全，小草再弱小，碰到压顶之石，也能弯曲伸展出来。"
    },
    {
      "img": "https://p3.pstatp.com/large/dfic-imagehandler/1953db7b-6c0f-4cab-87ca-9d078f1ec046"
    },
    {
      "text": "所以屯卦看上去雷雨交加，环境恶劣，但只要懂得保全自己，就没有问题。反而雨水滋润，万物萌发。雨过天晴，空气清新，更有利于下面的路程。"
    },
    {
      "text": "一爻一日，屯卦对应新年元月2日至8日，这时是小寒节气，应该是中国大陆最冷的日子。但根据小寒节气的天气，却可预测未来天气，其中有很多农谚。"
    },
    {
      "text": "\"小寒不寒，清明泥潭\"，\"小寒大寒寒得透，来年春天会暖和\"，\"小寒寒，惊蛰暖\"，\"小寒蒙蒙雨，雨水还冻秧\"。"
    },
    {
      "img": "https://p3.pstatp.com/large/dfic-imagehandler/83765b54-f9bd-4c2a-95a0-38486e923182"
    },
    {
      "text": "北方的冬麦就有\"屯\"卦之象，麦苗冬天生长不了，根系就往下扎，因为在下是震卦，为来年春天生长打好根基。冬麦有屯聚之象，北方很多农村也叫什么屯。"
    },
    {
      "text": "南方阳地的谷穗阴性要低头，北方阴地的麦穗阳性朝上长，万事万物离不开阴阳。"
    },
    {
      "text": "（三）赚得盆满钵满，就是益卦之象"
    },
    {
      "text": "阴仪巽坎艮坤退到第四卦就是巽，内卦依然是震。上巽下震就是风雷益卦。"
    },
    {
      "text": "震仰盂，下面象是一个装满水的器皿，上面巽风一吹，水都要溢出来了，用益卦定义很恰当。下面有积蓄，下卦为震要行动，上面巽卦又顺利，卦象非常好。"
    },
    {
      "img": "https://p3.pstatp.com/large/dfic-imagehandler/15700f6a-8c86-4108-bac2-97e2e164b159"
    },
    {
      "text": "上面是巽卦，有近利市三倍的意思。下面震卦是行动的意思，就象做生意一样顺风顺水，赚了三倍，当然是赚得盆满钵满。"
    },
    {
      "text": "再看\"益\"字，下面是个器皿，上面象个漏斗，就象财物滚滚落到下面碗里，所以益卦的卦象就是损上益下。"
    },
    {
      "text": "上面巽卦就是乾卦初爻阳变阴，这个阳爻去哪里了呢？就是到下卦去了，坤卦初爻阴变阳而成震，初爻之阳就来自上卦，所以叫损上益下。"
    },
    {
      "text": "巽木象帆木，震象舟楫。古代交通以水运为主，天下熙熙皆为利来，天下攘攘，皆为利往，货畅其流，互通有无。有收益，百姓自然喜悦。"
    },
    {
      "text": "有风有雷，就会电闪雷鸣。雷暴每年可以帮地球制造4亿吨的氮肥，这正是地球上植物肥料的最大来源。上空雷暴，地面得肥料，这是大自然损上益下的卦象。"
    },
    {
      "text": "孔子在易传中，也举了益卦的例子，\"斫木为耜，揉木为耒，耒耨之利，以教天下，盖取诸\u0027益\u0027。\""
    },
    {
      "img": "https://p3.pstatp.com/large/dfic-imagehandler/69c7bf8c-133a-4339-93be-b1c3d3bfa906"
    },
    {
      "text": "就是说神农氏教百姓砍伐树木，制成犁耙，耕耘土地种植作物，也是受了益卦的启示。树往上长，砍木制犁，也是损上益下之象。"
    },
    {
      "text": "益卦虽好，也要忧患意识。老子说：\"物或损之而益，或益之而损。\"祸福相依，益卦开始好，但最终还是会凶。"
    },
    {
      "text": "上卦中，阴仪四卦已摩完，下篇文章讲阳仪四卦为上卦的相摩。"
    }
  ]
}