{
  "source": "壹圆文化",
  "detail_source": "壹圆文化",
  "screen_name": "壹圆文化",
  "avatar_url": "https://p3.pstatp.com/thumb/ff4c0000329fa7e5df8e",
  "auth_id": "1617719604580359",
  "auth_info": "建筑公司总经理 优质文化领域创作者",
  "publish_time": 1578194016,
  "title": "学了奇门遁甲的演化历史，你才真正知道九宫飞星的道理",
  "url": "http://toutiao.com/group/6778291686310150664/",
  "comment_count": 23,
  "is_original": true,
  "data": [
    {
      "text": "前两篇文章大致讲了《烟波钓叟歌》和建立在二十四节气的阴遁和阳遁口诀。本文就来讲讲奇门的演化历史。"
    },
    {
      "text": "在《烟波钓叟歌》中有这么一段：轩辕黄帝战蚩尤，逐鹿经年战未休。偶梦天神授符诀，登坛致祭谨虔诚。神龙负图出洛水，彩风衔书碧云里。因命风后演成文，奇门遁甲从此始。"
    },
    {
      "img": "https://p3.pstatp.com/large/dfic-imagehandler/d7d40187-7e41-4e9a-ba9f-99f5b3c7ffcc"
    },
    {
      "text": "黄帝姓公孙，又叫姬姓。是有熊（国）君。他出生据说也有段神话。讲他的母亲梦见电光绕枢星感而生帝于轩辕之丘，所以叫轩辕。"
    },
    {
      "text": "《阴阳激曜》中说，电枢星，北斗第一星也。轩辕生而神灵，生下不久会说话，从小就聪慧。但那个时代正值神农氏没落的时期，诸侯间互相侵伐，神农氏无力征讨。轩辕率军平定四方，得到很多诸侯追随，最后打败炎帝。"
    },
    {
      "text": "在《龙甲书》中有这么一段描述：在跟蚩尤大战中，黄帝祭天有感，夜半三更时分，忽见轩辕丘上神光缭绕，天鼓大震，随即如百官同往视察。"
    },
    {
      "text": "原来是彩凤自天降，口衔玉匣，一端长九寸，按九宫，阔八寸，按八卦。黄帝启匣而看，里面有天篆文册龙甲神章十八籍，乃除奸、绝邪、灭叛、安邦之书。"
    },
    {
      "text": "黄帝为得天时而高兴，因此立丘山为土德，命羲和占日，尚仪占月，车区占风，大挠探五行之情，占斗纲之建，于是始作甲子。容成造历开始算数，仓颉制字，伶伦制律吕，车区占星气，容成将这些整合在一起。"
    },
    {
      "text": "看来中华始文明，大多发端于黄帝时期，黄帝确实是中华的人文始祖。"
    },
    {
      "img": "https://p3.pstatp.com/large/dfic-imagehandler/5e383f6a-cd1e-4c07-9fb1-9fbfdad046a1"
    },
    {
      "text": "黄帝按龙甲之图的天命，派风后演之而成遁甲，造式三层来模拟三才。上层象天，而置九星。中层象人，以开八门。下层象地，分八卦以镇八方。"
    },
    {
      "text": "随冬夏二至，立阴阳二遁，一顺一逆而以三奇六仪。风后按伏羲先天八卦，乾起于南，以序生三子。坤起于北，以序生三女。乾南坤北，天尊地卑，天地自然定位。"
    },
    {
      "text": "从上面描述中可知，先天八卦和河图，在黄帝时期就已经应用了。《春秋纬》中说：河以通乾，出天苞；洛以流坤，吐地符。河图、洛书相为表里，八卦九章相为经纬。"
    },
    {
      "text": "很多朋友学易经只读《周易》，而不读《易纬》。这样学易只能是偏执于一面，对易学发展和应用无从得知。就象学了河图，你还得会洛书。学了先、后天八卦，你还要懂得推九宫。"
    },
    {
      "text": "我在以前的文章中讲过八卦实数的概念。八卦实数，乾为阳极得九，坤为阴极得一。乾坤交而生六子，阴、阳爻一索、二索再索。八卦则为乾九、震八、坎七、艮六和坤一、巽二、离三、兑四。大家用长中少的三男、三女来理解就很好记。"
    },
    {
      "text": "为什么洛书九宫数要看上去似乎杂乱无章地顺逆飞呢？大部分朋友只知其然（就是直接套用洛书数），却不知其所以然（就是先天八卦阳降阴升而生物之理）。"
    },
    {
      "img": "https://p3.pstatp.com/large/pgc-image/7c7467c2253c40ae8639d01cbd594195"
    },
    {
      "text": "我们来看先天八卦，乾父居南，阳气以生，降而生物，所以乾卦一索而生长男，震卦在东北。二索而生中男，坎卦在正西。三索而生少男，艮卦在西北。阳老而归息于中宫。看上图，这不就是九宫飞星从中宫飞出的前半段吗？只是数和序都是逆回中宫而已。"
    },
    {
      "text": "再看下图，坤母居北，阴气以升而生物。所以坤一索生长女，巽卦在西南。二索生中女，离卦在正东。三索生少女，兑卦在东南。阴老也是归息于中宫。看图可知，就是九宫飞星的后半段，只是数和序都是顺回中宫。"
    },
    {
      "img": "https://p3.pstatp.com/large/pgc-image/143ab8df5d504505a949675a87fd9f56"
    },
    {
      "text": "中宫为阴阳归息之地，子午为阴阳出入之地。天数阳出阴入，出大入小。因为天开于子，为天地之原，万物自小而大，始于子，一二三四到东南回到中宫，阴数从小到大为入，为顺行。"
    },
    {
      "text": "阴极则阳生，即生于中宫。阳数就要逆行，逆行到西北艮六，再到坎七、震八、乾九。最后逆回到中宫。"
    },
    {
      "text": "正常卦气是阳升阴降，春夏秋冬。天地生物就是阳降阴升走九宫，这就是先天为体，洛书为用的道理。所以《烟波钓叟歌》中说：阴阳逆顺妙难穷，二至还乡一九宫。"
    },
    {
      "text": "上面讲的是天数的道理，地数就是以一二三四为逆，一样经过阴阳顺逆过程。阳降阴升的道理，就是杨公说的：\"颠颠倒\"。"
    }
  ]
}