{
  "source": "壹圆文化",
  "detail_source": "壹圆文化",
  "screen_name": "壹圆文化",
  "avatar_url": "https://p3.pstatp.com/thumb/ff4c0000329fa7e5df8e",
  "auth_id": "1617719604580359",
  "auth_info": "建筑公司总经理 优质文化领域创作者",
  "publish_time": 1579818960,
  "title": "作为把春节当作信仰的中国人，理应知道春节的传统文化知识",
  "url": "http://toutiao.com/group/6784940153493258764/",
  "comment_count": 63,
  "is_original": true,
  "data": [
    {
      "text": "春节、清明、端午、中秋是中华民族的四大传统节日，不仅汉族庆祝过节，一些少数民族也会庆贺。从2008年1月1日起，除春节长假外，清明、端午、中秋也成为国家的法定节假日。"
    },
    {
      "text": "汉族有着悠久的历史，积淀下了深厚的文化传统，节日是汉民族文化的集中体现。源自古老传统的节日习俗形成后，历代承袭，广为流传，在漫长的进程中有着动态的演变，呈现出多彩的时代面貌。"
    },
    {
      "img": "https://p3.pstatp.com/large/dfic-imagehandler/e58e0ff3-0f2f-4913-8992-e92b8a3c04eb"
    },
    {
      "text": "春节是中华民族最盛大的传统节日，在中国至少有三千年的历史。从宽泛来说，从初一到元宵节都是春节，正月初一在古代称为正旦、元正、元日、元旦，民国以后改称\"春节\"，而\"元旦\"用来称呼公历1月1日。新中国成立后，沿用春节名称，从些春节就成为农历大年的称呼。"
    },
    {
      "text": "春节是新的一年开始，古代用以纪年的概念在周代以前有所不同，在唐虞时代叫\"载\"，夏代叫\"岁\"，商代叫\"祀\"，周代才叫\"年\"。"
    },
    {
      "text": "\"年\"的本义就是农作物的丰收，收获后就要举行庆祝活动，祭祀神灵，感谢赐予并祈求来年有好收成。春节源于古老的丰收祭。新年自周朝确定后，成为中国人最向往的日子。"
    },
    {
      "text": "由于历法的原因，汉代以前新年并不在正月初一，直到汉武帝太初元年（公元前104）才将正月作为一年的第一个月，此后，历代相沿。"
    },
    {
      "text": "古人贺年的习俗是：首先要祀神、祭祖、拜尊长和家庭互拜。天亮之后，邻居、亲友以及官宦之间要互相拜贺。那时，贺年不仅是民间的事，国家也要举行朝贺，就是向皇帝拜年。"
    },
    {
      "text": "儿童给长辈拜年时，长辈要给压岁钱，\"岁\"与\"祟\"谐音，压岁就是压住\"邪祟\"的意思。"
    },
    {
      "img": "https://p3.pstatp.com/large/dfic-imagehandler/fcc5055e-c123-4c25-962e-84eedcba8751"
    },
    {
      "text": "春节要燃放烟花爆竹，爆竹源于原始宗教信仰，最初的爆竹就是把竹筒置于火中烧烤，受热膨胀爆出声响。古人认为爆竹响声能驱鬼辟邪。直到宋代才出现火药爆竹。"
    },
    {
      "text": "食物丰盛是春节饮食的典型特征。魏晋南北朝时，新年饮食有桃汤、屠苏酒、五辛盘等。宋代流行吃面条之类的食品，明清北方盛行吃饺子，南方吃年糕，饺子似元宝，年糕谐音\"年高\"。"
    },
    {
      "text": "春节前一天的晚上叫\"除夕\"，也就是农历年最后一天的晚上，又叫\"年三十\"，很多人彻夜不睡，名曰\"守岁\"。"
    },
    {
      "img": "https://p3.pstatp.com/large/dfic-imagehandler/569ccd85-48d5-4ce0-904b-308d46e6f62b"
    },
    {
      "text": "除夕的夜晚，除了大家必须遵守的约定俗从的\"三岁\"礼仪，即守岁、踩岁、压岁钱。最重要就是团圆饭的礼仪。"
    },
    {
      "text": "除夕夜，最重要就是一家人在一起吃团圆饭，一般桌上都有一盘鱼，取\"年年有余\"之意。有些地方的习俗是这盘鱼是不能动筷子的。有些地方可以吃，但最后要剩下一点鱼即可。有的地方会吃芹（穷）菜，但在叫的时候要叫\"富菜\"。"
    },
    {
      "text": "除夕之夜，无论相隔多远，工作多忙，人们都希望回家吃一顿团圆饭。年夜饭也有一定的礼仪：全家所有成员，不论辈分，不论男女都要共同参加，同桌共饮。对在外未归的家人，要留一个座位，摆上碗筷、酒杯，以象征全家团圆。"
    },
    {
      "img": "https://p3.pstatp.com/large/dfic-imagehandler/409f885d-864e-401f-a34a-b34f9686c05c"
    },
    {
      "text": "俗话说：\"打一千，骂一万，全凭三十晚上一顿饭。\"这一晚，大家都要遵守礼仪，不许吵架，不能打骂孩子，全家要和谐相处，高高兴兴过年。"
    },
    {
      "text": "旧时，百姓心中的年，是天上、地下、人间，人、鬼、神大团圆的一个传统民俗节日。整个春节前后有一定的规矩的，\"二十三，糖瓜粘。\"指的就是每年腊月二十三或二十四日的祭灶，一般是：\"官三民四船家五\"的规定。"
    },
    {
      "text": "\"腊月二十四，掸尘扫房子。\"据《吕氏春秋》记载，我国在尧舜时代就有春节扫尘的民俗。取\"扫陈布新\"之意。"
    },
    {
      "img": "https://p3.pstatp.com/large/dfic-imagehandler/89b6f78a-aebc-43b9-abe2-cb4225735e66"
    },
    {
      "text": "贴春联的习俗起于宋代，明代盛行，清代大成。春联依其使用场所，可分为门心、框对、横披、春条、斗方等。"
    },
    {
      "text": "除了贴春联，还有贴窗花、贴\"福\"字，还有贴年画，我国有三大年画产地：苏州桃花坞、天津杨柳青和山东潍坊。我国收藏最早的年画是南宋《随朝窈窕呈倾国之芳容》的木刻年画，画上是王昭君、赵飞燕、班姬和绿珠四位古代美人。在民间流传最广的是一幅《老鼠娶亲》的年画。"
    },
    {
      "img": "https://p3.pstatp.com/large/dfic-imagehandler/1aa71f54-5087-4f2e-a889-0818868eda3a"
    },
    {
      "text": "新年头一天，中国民间有\"开门爆竹\"一说，即在新的一年到来之际，家家户户开门第一件事就是燃放爆竹。"
    },
    {
      "text": "新年初一要大拜年，给压岁钱。有的地方初一还要迎喜神，民间认为，每逢春节，天上必降喜神。逛庙会也是节后不可或缺的过年活动，庙会早期就是隆重的祭祀活动。"
    },
    {
      "text": "正月初五俗称\"破五\"。过去汉族民间过春节有很多迷信禁忌，比如不能生米做饭，妇女不能外出和缝补衣服等，过了初五，春节期间的禁忌都宣告破除，所以叫\"破五\"。"
    },
    {
      "text": "\"破五\"这天，不同地域有不同的节日习俗。北方一般是吃饺子放鞭炮，初六开始恢复正常的生活秩序。在南方是在正月初五这天祭五路神，就是东南西北中五路财神，祭五路神越早越好，最早接到的才是真神，因此又叫\"抢路头\"。"
    },
    {
      "img": "https://p3.pstatp.com/large/dfic-imagehandler/a3ae784b-dda1-4047-b7a4-1c924fff05a8"
    },
    {
      "text": "春节，一直要到热热闹闹过完元宵节才算过完。"
    }
  ]
}