{
  "source": "壹圆文化",
  "detail_source": "壹圆文化",
  "screen_name": "壹圆文化",
  "avatar_url": "https://p3.pstatp.com/thumb/ff4c0000329fa7e5df8e",
  "auth_id": "1617719604580359",
  "auth_info": "建筑公司总经理 优质文化领域创作者",
  "publish_time": 1578816898,
  "title": "林海茫茫记临卦之象，雨后春笋记损卦之象",
  "url": "http://toutiao.com/group/6780890315420074504/",
  "comment_count": 2,
  "is_original": true,
  "data": [
    {
      "text": "初次看我写易象的朋友，可能会觉得我的易象说法怪怪的，认真读一读你会觉得余味无穷。"
    },
    {
      "text": "世上流传的各位名家的易学著作我都通读过。很多易学观点总让我感觉隔靴搔痒。特别是卦爻辞的解释，很多含糊其辞，牵强附会，因此干脆我就在他们的基础上自己写。"
    },
    {
      "text": "前面的文章，讲完以震、离为内卦相摩得出的十六卦的卦象。阳仪的内卦还剩兑、乾两卦，今天就开始讲以兑卦为内卦形成的八个卦象。"
    },
    {
      "text": "首先是阴仪阴退第一卦，坤卦和兑卦相摩，上坤下兑，地泽临卦。为什么用\"林海\"定义临卦？可能大家会觉得很突兀。其实我们来看看临卦就明白了。"
    },
    {
      "img": "https://p3.pstatp.com/large/dfic-imagehandler/714bc75e-4837-4ff2-846f-c2650363de98"
    },
    {
      "text": "地下有湖，是什么情况？我们知道，树木是水土保持的生力军，每一片茫茫林海下面就象一个大水库，地下水资源和树木有直接的关系。临卦起初就叫\"林\"卦。"
    },
    {
      "text": "地下暗河也不能称之为湖泽的，沙漠戈壁地表浅层也不可能存在水源。临卦也刚好春分时节，雨水较多，除去地表水汇聚成江河外，大部分渗入地下，由树林根系蓄积起来。"
    },
    {
      "text": "同时，春雨过后，雨水滋润下，树木长势更好了，所以《彖传》说：\"临，刚浸而长。\"下为兑泽，刚（阳）二排四阴向上，二阳在下如强大的根系。"
    },
    {
      "text": "按爻日计算，临卦处于3月底，春分过后，昼夜时间相等，白天的时间一天天见长，太阳从正东出，在正西方落下。慢慢地，日出方向往东北方向转移，日落方向往西北转移，北半球的光照越来多，当然雨水也多了起来。"
    },
    {
      "text": "陶渊明有诗说：“春水满四泽。”为了农作物的生长，这时一定要蓄积雨水。临卦上坤下兑，外土内泽，就是大坝拦水之象。"
    },
    {
      "img": "https://p3.pstatp.com/large/dfic-imagehandler/40dd5d18-5321-4866-b1f6-e6714d24be55"
    },
    {
      "text": "春分昼夜，这是个临界点，厚土临泽，也是一个临界点。人生也是如此，有了新的起点，就会面临新的机遇和新的挑战。"
    },
    {
      "text": "雨水多，大地积水泛滥，遇高土而积成湖泽，人们在平静的湖面可以照见自己的影子，而在器皿注水而自照，就是“监”字的本意。"
    },
    {
      "text": "农耕社会非常重视水利建设。古代君王在春季都要视察水库堤坝是否安全。引申开来，就是君王巡察天下的意思。"
    },
    {
      "text": "所以临卦都有光临、亲临、登临、监临、君临天下、居高临下等意思，意义极其丰富。"
    },
    {
      "text": "阴仪阴退第二卦是艮卦，艮卦与兑卦相摩，上艮下兑，山泽损卦。"
    },
    {
      "text": "上面说的是\"临\"和\"林\"相通，此卦就是\"损\"和\"笋\"相通。《彖传》对损卦的定义是：\"损下益上，其道上行。\"用笋来记卦象真是太形象了。"
    },
    {
      "img": "https://p3.pstatp.com/large/dfic-imagehandler/cd7576b9-2a81-4e1c-b2aa-f33a469fe04a"
    },
    {
      "text": "我们来看损卦，上面一个阳爻就象包裹竹笋的笋壳，中间三阴爻就象中空的竹笋，下面两个阳爻就象竹笋强大的根系。"
    },
    {
      "text": "损卦正值春分后的四月初，正是雨后春笋蓬勃生长的季节。有过竹林经验的应该知道，当竹笋往上长几节，接近地面的笋壳自然剥落，这种剥落自然无伤大雅。"
    },
    {
      "text": "剥落就意味着朝上长高，这就是损卦的损下益上，其道上行之意。\"员\"字，在古代就是有圆口的鼎器，就是仿照竹笋的样子来制成的。"
    },
    {
      "img": "https://p3.pstatp.com/large/dfic-imagehandler/fe163ec6-2cff-44f6-95e7-9e4ac930ca2d"
    },
    {
      "text": "损卦是减损，更是一种损益平衡。物类竞相生长，所有生物都是食物链中的一环，大鱼吃小鱼，小鱼吃虾米。吃了小的就养活大的。这就是生态平衡。"
    },
    {
      "text": "损卦按爻日计算，正是3月29日至4月4日。4月1日是西方的愚人节，在这个节日，很多人会做些损人、骗人的花招，但又无伤大雅，正是损卦之意。"
    },
    {
      "text": "损卦讲的是生态平衡的道理，所以祭祀时，简单有诚心就足够了，并不需要多么盛大的仪式，因为损卦讲的就是天道，讲的是自然平衡。"
    }
  ]
}