{
  "source": "壹圆文化",
  "detail_source": "壹圆文化",
  "screen_name": "壹圆文化",
  "avatar_url": "https://p3.pstatp.com/thumb/ff4c0000329fa7e5df8e",
  "auth_id": "1617719604580359",
  "auth_info": "建筑公司总经理 优质文化领域创作者",
  "publish_time": 1580561028,
  "title": "狗咬吕洞宾，不识好人心，实际上汪星人被误解了几千年",
  "url": "http://toutiao.com/group/6788457925959483912/",
  "comment_count": 4,
  "is_original": true,
  "data": [
    {
      "text": "做了好事，帮了别人，却被对方误解以德报怨，我们会说：\"狗咬吕洞宾，不识好人心。\"实际上这件事跟狗可没一点关系，狗被冤枉了千百年。"
    },
    {
      "img": "https://p3.pstatp.com/large/dfic-imagehandler/61516e06-d85a-4fba-ab0c-e03fc5c02366"
    },
    {
      "text": "传说，吕洞宾在成仙前是个读书人，参加两次科考都没有中，心灰意冷的他从此再也不愿意读书，整天会客访友，游山玩水。靠着祖产过着逍遥自在的生活。"
    },
    {
      "text": "吕洞宾有位同乡好友叫苟杳，自幼家境贫寒，日子过得很艰苦。吕洞宾非常同情他，就安排他到自己的家里来居住。"
    },
    {
      "text": "吕洞宾和苟杳两人兴趣相投，结为金兰之好。吕洞宾科考不顺，就希望对方能够用功读书，学而优则仕，高中皇榜出人头地。因此苟杳就在洞宾家中发愤苦读。"
    },
    {
      "text": "一天，有位林姓朋友来吕洞宾家中做客，见到苟杳一表人才，谈吐非凡，就想把妹妹许配给他。吕洞宾担心婚事会影响苟杳的学业前程，连忙推托，但是苟杳自己却心动了，跟吕洞宾说自己愿意接受这门亲事。"
    },
    {
      "img": "https://p3.pstatp.com/large/dfic-imagehandler/acd91dcc-fbb8-47f5-9c56-d488ba85eded"
    },
    {
      "text": "吕洞宾见阻止不了，就跟苟杳约法三章说：\"林家姑娘贤良淑德，我不阻拦你成亲，但是有个条件，就是新娘子过来，必须先跟我睡三晚。\""
    },
    {
      "text": "苟杳一时心里很难接受，知道林家姑娘貌美贤惠难觅，思前想后，还是咬牙接受。"
    },
    {
      "text": "在成亲的那一天，吕洞宾得意洋洋入洞房，苟杳却无脸见人，躲到别人家去了。"
    },
    {
      "text": "洞房内，吕洞宾也不说话，就着蜡烛在桌上静静看书，没有掀盖头的新娘子只能靠在床边，等到后半夜，新郎还是没有上床，只能和衣而卧，天明时，新郎又不知所踪。"
    },
    {
      "text": "一连三夜都是如此，连新郎的面都没见着，新娘心情非常失落。"
    },
    {
      "text": "好不容易挨过三天，第四晚，苟杳一进洞房，看见林姑娘正在伤心落泪，连忙上前赔礼，林姑娘哭泣着问道：\"夫君为何三天都不上床同眠？只是对灯夜读，天黑而来，天明即去？\""
    },
    {
      "text": "苟杳乍听此问，一下愣住了！片刻突然醒悟过来，不由得哈哈大笑，连忙安慰了新娘子。明白吕洞宾为了鞭策自己要努力攻读，想出如此损人的法子。"
    },
    {
      "img": "https://p3.pstatp.com/large/dfic-imagehandler/45173eeb-fbbb-4517-96ff-de00c6e706bc"
    },
    {
      "text": "几年后，苟杳赴京赶考，高中金榜。回乡与吕洞宾洒泪而别赴任去了。"
    },
    {
      "text": "又过了八年，吕洞宾家中不慎，遭了火灾，所有祖产化为乌有。只好用残砖断瓦搭了间屋子让一家人勉强栖身，日子过得相当艰难。"
    },
    {
      "text": "遭此大难，吕洞宾想到了找当官的苟杳接济一下。经过长途跋涉，千辛万苦终于找到苟府。"
    },
    {
      "text": "苟杳热情地接待了他，并对他家的遭遇深表同情，可就是只字不提帮助周济之事，吕洞宾住了一个月也没得到分文。"
    },
    {
      "text": "吕洞宾没想到苟杳如此忘恩负义，一怒之下只好气冲冲地走了。"
    },
    {
      "text": "等吕洞宾一路心情郁闷回到家里，却发现家中已盖好了新房，有点莫名其妙，又见大门两边贴了白纸，知道家中有人过世，慌得他赶忙推开大门，只见家中一口棺材在正中，妻儿正在披麻戴孝，嚎啕大哭。"
    },
    {
      "img": "https://p3.pstatp.com/large/dfic-imagehandler/19bed12e-d701-4050-86e2-867e98c7ef62"
    },
    {
      "text": "吕洞宾忙问怎么回事？妻子回头一看，不由得魂飞魄散，惊问：\"你到底是人是鬼？\"吕洞宾更是摸不着头脑，回答到：\"我好好的回来了，如何是鬼呢？你何出此言？\""
    },
    {
      "text": "夫人愣了一会，才回过神来，掐了一把自己和丈夫，才认出是活生生的人，长出一口气说到：\"吓死我了\"。"
    },
    {
      "text": "原来，苟杳早已得知吕洞宾家中变故，吕洞宾前脚刚走，苟杳就请了一帮人盖房子，房子盖好，在吕洞宾赶到家里的前两天，又命一帮人抬了一副棺材回到新房，并告诉吕洞宾的夫人说他在苟杳家病死，无奈将其尸体运回家中。"
    },
    {
      "text": "吕洞宾一听，知道是苟杳在耍弄自己，一气之下找了把斧子狠狠朝棺材劈了下去，却发现棺材里面全是金银财宝，并且有一封书信。"
    },
    {
      "text": "信上写道：\"苟杳不是负心郞，路送金银家盖房，你让我妻守空房，我让你妻哭断肠。\""
    },
    {
      "text": "吕洞宾看完，如梦初醒，明白是被苟杳玩回一把来了。从此以后，吕苟两家来往更加亲密，这就是\"苟杳吕洞宾，不识好人心\"的俗话来历。"
    },
    {
      "img": "https://p3.pstatp.com/large/dfic-imagehandler/d8a89895-2338-439a-b806-a26acb91bc91"
    },
    {
      "text": "后来，因为\"苟杳\"和\"狗咬\"同音，传来传去就成了\"狗咬吕洞宾，不识好人心\"。看来，汪星人确实是背锅了几千年。"
    }
  ]
}