{
  "source": "壹圆文化",
  "detail_source": "壹圆文化",
  "screen_name": "壹圆文化",
  "avatar_url": "https://p3.pstatp.com/thumb/ff4c0000329fa7e5df8e",
  "auth_id": "1617719604580359",
  "auth_info": "建筑公司总经理 优质文化领域创作者",
  "publish_time": 1588924788,
  "title": "守正待时，饮食之道记需卦，风行天上，外顺内健记小畜卦",
  "url": "http://toutiao.com/group/6824379997663265283/",
  "comment_count": 0,
  "is_original": true,
  "data": [
    {
      "text": "继续写阳仪乾卦为内卦，它卦与之相摩而成卦。以乾为内卦对应的时空是立夏到夏至这段时间。"
    },
    {
      "text": "前文写阴仪坤和艮与乾相摩成地天泰卦和山天大畜卦。本文写阴仪阴退后面两卦，坎和巽与乾相摩而成水天需和风天小畜。"
    },
    {
      "text": "人最大的需求就是饱腹。就象我们训练宠物狗一样，要得到所需，就要耐心等待。"
    },
    {
      "img": "https://p3.pstatp.com/large/dfic-imagehandler/6f7ce587-b0a6-4775-8e92-1953e4f22b58"
    },
    {
      "text": "水天需卦，上坎下乾，水在天上为云，云在天上。有积雨云自然会下雨，但要等待。"
    },
    {
      "text": "历史上曾经有占到上爻变，坎水变巽风，云被吹走，自然大旱三年，为什么是三年?"
    },
    {
      "text": "因为上六的爻辞就是：\"入于穴，有不速之客三人来，敬之终吉。\"下乾三阳，既可以理解成三人，也可解成三年。"
    },
    {
      "text": "水天需卦，是八宫卦中坤卦的游魂卦，地养万物，百谷果蔬，鱼虾飞禽走兽，其精华都可养人，坤之游魂用于人之饮食之道，非常符合易理。"
    },
    {
      "img": "https://p3.pstatp.com/large/dfic-imagehandler/743179fb-8e40-4302-977e-41f7a2675040"
    },
    {
      "text": "有需求要耐心等待，因为外坎为险，坎险在前，乾知险而不能冒进。饮食之道也是这样，脍不厌精，食不厌细。孔子说：\"肉不正不食。\""
    },
    {
      "text": "记住，有需求就要懂得耐心等待，这样培养出来的小孩通常很优秀。"
    },
    {
      "text": "水天需，等待雨水。时间节气正是小满。《月令》中说：\"四月中，小满者，物致于此小得盈满。\""
    },
    {
      "text": "小麦此时正灌浆，有了雨水才能丰产，不能旱。南方水稻秧苗成长到芒种栽插都需要田里蓄水，这是大自然的规律。"
    },
    {
      "text": "在甲骨文中，\"需\"字就是沾雨湿身，停候雨止的状态。"
    },
    {
      "img": "https://p3.pstatp.com/large/dfic-imagehandler/fb24b1cb-95b3-40c5-bdbc-9f76ea515763"
    },
    {
      "text": "需卦讲的是万物在生长期的时空，自然之象是望天等雨水，人的生长就是营养与饮食之道。所以需卦象曰：\"云上于天，需，君子以饮食宴乐。\""
    },
    {
      "text": "生长期还没成熟，时机还未到，这时需要等待守正道，虽然刚健也不能躁进。所以卦辞说：\"需，有孚，光亨，贞吉\"。\"孚\"就是诚信之意。"
    },
    {
      "text": "按先天圆图爻日计算，需卦大致在5月20日到5月25日，其中5月22日为国际生物多样性日。"
    },
    {
      "text": "正是大千世界的万物生长，食物链完整，才能满足各种动植物和微生物的需要。"
    },
    {
      "text": "上巽下乾，风行天上，这时已过立夏半个过月，气候开始炎热。风吹麦浪，热风开始催熟，丰收在望。"
    },
    {
      "img": "https://p3.pstatp.com/large/dfic-imagehandler/ae20a248-4513-459b-89bd-1102d2d7ae48"
    },
    {
      "text": "外巽为顺，内乾为健，健而顺，肯定有所得。但是下乾三阳，上巽才一阴，阳多阴少，虽然柔得位上下应之，阳应阴，但是阴少蓄阳不力，所以称之为小畜。"
    },
    {
      "text": "上巽阴少，虽然云聚，却不能形成降雨，风吹则云散。巽在东南，互兑在西"
    },
    {
      "text": "，所以卦辞中说：\"密云不雨，自我西郊。\""
    },
    {
      "text": "这句卦辞是符合先人长期观测规律，农谚说：\"云往东，一场空。云往北，天空黑。云往南，水潭潭。云往西，马溅泥。\""
    },
    {
      "text": "\"自我西郊\"就是云往东，自然不雨，因为西边来的都是干燥气流。夏季，要从东南海洋来的暖湿气流与内陆气流碰撞才会形成降雨。"
    },
    {
      "text": "密云不雨，天气是非常闷热的，这时如果吹来一阵风，那是相当舒爽的。比如一入股市，很顺利就赚了钱，那感觉是真的好。"
    },
    {
      "img": "https://p3.pstatp.com/large/dfic-imagehandler/bb021214-6e24-4e22-bab6-b2913f07ac16"
    },
    {
      "text": "比如钓鱼新手，偶中大鱼，那是相当愉悦的。平时日子紧紧巴巴的，突然发了一笔小财，那种喜悦是溢于言表的，心情是相当舒爽的。"
    },
    {
      "text": "但那是小畜，得意忘形可不成，因为只有一阴蓄阳，所以小富由俭。一不小心，可能风吹云散，鸡飞蛋打。"
    },
    {
      "text": "四阴爻得位，就表示谦虚谨慎，小畜卦有时就体现一种走钢丝的状态。因为有点成功就容易让人胜利得冲昏头脑。"
    },
    {
      "text": "九五的爻辞就是：\"有孚挛如，富以其邻。\"刚刚发家的一般会变得更大方，刚刚成功的企业老板，一般对员工会更好，等发展到一定规模后就难说了。"
    },
    {
      "text": "有时富了，状态也就变了，创业初期，很多夫妻能携手共渡时艰。等到功成名就，反而可能分道扬镳。所以九三爻辞就是：\"舆说辐，夫妻反目。\"社会上这种例子比比皆是。"
    },
    {
      "text": "没有深厚背景，没有相当的靠山，小富即豪横，很容易带来不好的下场，因为最后上九的爻辞就是：\"月几望，君子征凶。\""
    },
    {
      "text": "按先天圆图爻日计算，小畜卦在5月25日到5月31日间，其间5月31日是世界无烟日。看来人们抽烟吞云吐雾就象\"密云不雨\"，抽烟不是好习惯。"
    }
  ]
}