{
  "_ck": {},
  "data": {
    "detail_source": "壹圆文化",
    "media_user": {
      "screen_name": "壹圆文化",
      "no_display_pgc_icon": false,
      "avatar_url": "https://p3.pstatp.com/thumb/ff4c0000329fa7e5df8e",
      "id": "1617719604580359",
      "user_auth_info": {
        "auth_type": "0",
        "other_auth": {
          "interest": "优质文化领域创作者"
        },
        "auth_info": "建筑公司总经理 优质文化领域创作者"
      }
    },
    "publish_time": 1547779639,
    "hotwords": [
      {
        "stress_type": 0,
        "hot_word": "录明星整容视频勒索"
      },
      {
        "stress_type": 1,
        "hot_word": "宁静再演孝庄"
      },
      {
        "stress_type": 0,
        "hot_word": "日常佩戴13公斤黄金"
      },
      {
        "stress_type": 0,
        "hot_word": "中国化工集团被约谈"
      },
      {
        "stress_type": 0,
        "hot_word": "医生用筷子紧急救人"
      },
      {
        "stress_type": 1,
        "hot_word": "黄渤回应女版黄渤"
      },
      {
        "stress_type": 1,
        "hot_word": "贾跃亭股份被冻结"
      },
      {
        "stress_type": 1,
        "hot_word": "买老鼠夹送香肠"
      }
    ],
    "title": "六十四卦互之，归于四卦，即宇宙终始之理",
    "url": "http://toutiao.com/preview_article/?pgc_id\u003d6647457224354431495",
    "high_quality_flag": "0",
    "impression_count": "5185",
    "is_original": false,
    "is_pgc_article": true,
    "content": "\u003cdiv\u003e\u003cp\u003e《系辞传》言：“\u003cstrong\u003e若夫杂物撰德，辨是与非，则非其中爻不备”。\u003c/strong\u003e说的是六十四卦中四爻的重要性，中四爻所成十六互卦，与卦画同体，与两仪、四象同原。互卦作为本卦的变体，可以帮助占卜的作用，这在《春秋》内外传都有明证。\u003c/p\u003e\u003cp\u003e文王之易，以乾、坤两卦开始，以既济、未济两卦为终。六十四卦互之，终究都归于四卦，这就是宇宙终始之理。四卦又以乾、坤为体，既济、未济为用。乾、坤互之常不变，既济、未济互之常循环，终则有始。现具体将六十四卦互成其它卦而归源描述如下：\u003c/p\u003e\u003cp\u003e\u003cstrong\u003e一、乾、坤、剥、复、大过、颐、姤、夬八个卦互成乾、坤\u003c/strong\u003e\u003c/p\u003e\u003cdiv class\u003d\"pgc-img\"\u003e\u003cimg src\u003d\"https://p3.pstatp.com/large/pgc-image/7772f4e55be14756b0b557573490ceee\" img_width\u003d\"1250\" img_height\u003d\"640\" inline\u003d\"0\" alt\u003d\"六十四卦互之，归于四卦，即宇宙终始之理\" onerror\u003d\"javascript:errorimg.call(this);\"\u003e\u003cp class\u003d\"pgc-img-caption\"\u003e\u003c/p\u003e\u003c/div\u003e\u003cp\u003e以上八卦中四爻互卦成非乾即坤，本卦、互卦同体。\u003c/p\u003e\u003cp\u003e\u003cstrong\u003e二、解、蹇、睽、家人、渐、归妹、既济、未济八个卦互成既济、未济\u003c/strong\u003e\u003c/p\u003e\u003cdiv class\u003d\"pgc-img\"\u003e\u003cimg src\u003d\"https://p3.pstatp.com/large/pgc-image/d92d858f42de4b219f0d076124336e7c\" img_width\u003d\"1071\" img_height\u003d\"640\" inline\u003d\"0\" alt\u003d\"六十四卦互之，归于四卦，即宇宙终始之理\" onerror\u003d\"javascript:errorimg.call(this);\"\u003e\u003cp class\u003d\"pgc-img-caption\"\u003e\u003c/p\u003e\u003c/div\u003e\u003cp\u003e\u003cstrong\u003e三、比、师、临、观、屯、蒙、损、益八个卦互成剥、复\u003c/strong\u003e\u003c/p\u003e\u003cdiv class\u003d\"pgc-img\"\u003e\u003cimg src\u003d\"https://p3.pstatp.com/large/pgc-image/c029c2aaacc74a5a94a02584b5bb3bbf\" img_width\u003d\"1204\" img_height\u003d\"640\" inline\u003d\"0\" alt\u003d\"六十四卦互之，归于四卦，即宇宙终始之理\" onerror\u003d\"javascript:errorimg.call(this);\"\u003e\u003cp class\u003d\"pgc-img-caption\"\u003e\u003c/p\u003e\u003c/div\u003e\u003cp\u003e\u003cstrong\u003e四、咸、恒、大壮、遁、大有、同人、革、鼎八个卦互成姤、夬\u003c/strong\u003e\u003c/p\u003e\u003cdiv class\u003d\"pgc-img\"\u003e\u003cimg src\u003d\"https://p3.pstatp.com/large/pgc-image/6d6d6a7ce1ae4a9ca414666f812b4de2\" img_width\u003d\"1107\" img_height\u003d\"640\" inline\u003d\"0\" alt\u003d\"六十四卦互之，归于四卦，即宇宙终始之理\" onerror\u003d\"javascript:errorimg.call(this);\"\u003e\u003cp class\u003d\"pgc-img-caption\"\u003e\u003c/p\u003e\u003c/div\u003e\u003cp\u003e\u003cstrong\u003e五、大畜、无妄、萃、升、随、蛊、否、泰八个卦互成渐、归妹\u003c/strong\u003e\u003c/p\u003e\u003cdiv class\u003d\"pgc-img\"\u003e\u003cimg src\u003d\"https://p3.pstatp.com/large/pgc-image/a2aa7a07f5164de2ad5662c622915e62\" img_width\u003d\"1177\" img_height\u003d\"640\" inline\u003d\"0\" alt\u003d\"六十四卦互之，归于四卦，即宇宙终始之理\" onerror\u003d\"javascript:errorimg.call(this);\"\u003e\u003cp class\u003d\"pgc-img-caption\"\u003e\u003c/p\u003e\u003c/div\u003e\u003cp\u003e\u003cstrong\u003e六、涣、节、小过、中孚、丰、旅、离、坎八个卦互成大过、颐\u003c/strong\u003e\u003c/p\u003e\u003cdiv class\u003d\"pgc-img\"\u003e\u003cimg src\u003d\"https://p3.pstatp.com/large/pgc-image/87c4606d5f0445808eb6b342747237d7\" img_width\u003d\"1240\" img_height\u003d\"640\" inline\u003d\"0\" alt\u003d\"六十四卦互之，归于四卦，即宇宙终始之理\" onerror\u003d\"javascript:errorimg.call(this);\"\u003e\u003cp class\u003d\"pgc-img-caption\"\u003e\u003c/p\u003e\u003c/div\u003e\u003cp\u003e\u003cstrong\u003e七、震、艮、谦、豫、噬嗑、贲、晋、明夷八个卦互成解、蹇\u003c/strong\u003e\u003c/p\u003e\u003cdiv class\u003d\"pgc-img\"\u003e\u003cimg src\u003d\"https://p3.pstatp.com/large/pgc-image/c116b8657d1d4cc6a5cfca37c85ea073\" img_width\u003d\"1154\" img_height\u003d\"640\" inline\u003d\"0\" alt\u003d\"六十四卦互之，归于四卦，即宇宙终始之理\" onerror\u003d\"javascript:errorimg.call(this);\"\u003e\u003cp class\u003d\"pgc-img-caption\"\u003e\u003c/p\u003e\u003c/div\u003e\u003cp\u003e\u003cstrong\u003e八、兑、巽、井、困、小畜、履、需、讼八个卦互成睽、家人\u003c/strong\u003e\u003c/p\u003e\u003cdiv class\u003d\"pgc-img\"\u003e\u003cimg src\u003d\"https://p3.pstatp.com/large/pgc-image/e49d571853884a3eb2ea6819b8a89178\" img_width\u003d\"976\" img_height\u003d\"639\" inline\u003d\"0\" alt\u003d\"六十四卦互之，归于四卦，即宇宙终始之理\" onerror\u003d\"javascript:errorimg.call(this);\"\u003e\u003cp class\u003d\"pgc-img-caption\"\u003e\u003c/p\u003e\u003c/div\u003e\u003cp\u003e通过以上互法，各八卦又互成两卦，六十四卦就互成十六卦：乾、坤、既济、未济、剥、复、姤、夬、渐、归妹、大过、颐、解、蹇、睽、家人。这十六卦就是我以前文章说的老阴、老阳、少阳、少阴四象相交成的十六卦。\u003c/p\u003e\u003cp\u003e十六卦又可以继续互之，最终互成乾、坤、既济、未济四卦。\u003c/p\u003e\u003cdiv class\u003d\"pgc-img\"\u003e\u003cimg src\u003d\"https://p3.pstatp.com/large/pgc-image/51f006a169d5459c92182097f33b043c\" img_width\u003d\"640\" img_height\u003d\"1013\" inline\u003d\"0\" alt\u003d\"六十四卦互之，归于四卦，即宇宙终始之理\" onerror\u003d\"javascript:errorimg.call(this);\"\u003e\u003cp class\u003d\"pgc-img-caption\"\u003e\u003c/p\u003e\u003c/div\u003e\u003cp\u003e还有\u003c/p\u003e\u003cdiv class\u003d\"pgc-img\"\u003e\u003cimg src\u003d\"https://p3.pstatp.com/large/pgc-image/d661239b70d74952bd1f5be7f7c3db01\" img_width\u003d\"1065\" img_height\u003d\"640\" inline\u003d\"0\" alt\u003d\"六十四卦互之，归于四卦，即宇宙终始之理\" onerror\u003d\"javascript:errorimg.call(this);\"\u003e\u003cp class\u003d\"pgc-img-caption\"\u003e\u003c/p\u003e\u003c/div\u003e\u003cp\u003e这样一路互下来，六十四卦就变成\u003cstrong\u003e乾、坤、既济、未济\u003c/strong\u003e四卦\u003cstrong\u003e。\u003c/strong\u003e六十四卦不管千变万化，最终归于《河图》之四象，太阳、太阴立不易之体，以少阴、少阳为交易、变易之用，实际就是天地水火四物而已。\u003c/p\u003e\u003cp\u003e你看六十四卦可以描述宇宙间万物的千变万化，有来龙有去脉，又可回溯宇宙物质本原，有来有往，有体又有用，易学思维就要灵活又不离规则和根本。\u003c/p\u003e\u003c/div\u003e",
    "source": "壹圆文化",
    "comment_count": 59,
    "logo_show_strategy": "normal",
    "hupu_content_image_urls": [
      ""
    ],
    "creator_uid": 5442441065
  },
  "success": true
}