{
  "id": "139",
  "source": "缠中说禅",
  "detail_source": "缠中说禅",
  "screen_name": "缠中说禅",
  "avatar_url": "",
  "auth_id": "",
  "auth_info": "缠中说禅",
  "publish_time": 1190041036,
  "title": "教你炒股票81：图例、更正及分型、走势类型的哲学本质",
  "url": "http://blog.sina.com.cn/s/blog_486e105c01000cmz.html",
  "comment_count": -1,
  "is_original": true,
  "data": [
    {
      "text": "请首先看一个回帖："
    },
    {
      "text": "[匿名] 赚到了 2007-09-17 17:36:23 快乐vs菜虫 删除此人所有评论 2007-09-17 17:24:59 图一： 　　　　　　 　５　　　７ ---------------------------------------/- ----------------/\\--------------------/-- ---------------/--\\----/\\------/\\----/--- --------------/----\\--/--\\----/--\\--/---- -------------/------\\/----\\--/----\\/----- ------------/--------------\\/------------ -----------/----------------------------- ----/\\----/------------------------------ ---/--\\--/------------------------------- --/----\\/-------------------------------- -/--------------------------------------- 图二： ----------------------------------------/ ---------------/\\----------------------/- --------------/--\\----/\\--------/\\----/-- -------------/----\\--/--\\------/--\\--/--- ------------/------\\/----\\----/----\\/---- -----------/--------------\\--/----------- ----/\\----/----------------\\/------------ ---/--\\--/------------------------------- --/----\\/-------------------------------- -/--------------------------------------- 缠姐，请问图一是几段，图二是几段？？？ \u003d\u003d\u003d\u003d\u003d\u003d\u003d\u003d\u003d\u003d\u003d\u003d\u003d\u003d\u003d\u003d\u003d\u003d\u003d\u003d\u003d\u003d\u003d\u003d\u003d\u003d\u003d\u003d\u003d\u003d\u003d\u003d\u003d\u003d 如果５＝７或者５低于７，都是一段， 如果５高于７，都是３段"
    },
    {
      "text": "下午，本ID回答问题时，一边电话不断，所以给出的答案是不大完整的，因为本ID按图中看出的7不低于5来回答的。晚上回来，发现已经有人把正确答案完整写出，所以必须给一朵大红花。"
    },
    {
      "text": "这两种情况，都属于线段破坏的第二种情况，所以必须考虑高点下来走势的特征序列，而且必须考虑包含关系，所以上面这位网友的回答才是完整的。"
    },
    {
      "text": "另外，有人提到71课里最后一个图，那个图显然是错的，问题就在于与这里类似的，把7的位置画高了，应该类似7的位置比类似5的位置低才对，那才是三段，当时画的时候，没特别注意。所以这里必须指出。"
    },
    {
      "text": "所以，一切根据定义来，把定义搞清楚了，一切都好办，就是本ID画错了，你也能一眼看出来。"
    },
    {
      "text": "另外，提一个问题，今天走势的划分，有一些特别的地方，本ID下午说的，有点问题，主要出在，1017的低点5386.47比前一分钟的5386.39点高，所以顶分型的顶在1017那时间，所以那里就是一笔，但图形上粗略看顶在16分那点，下午写东西太快，没有仔细去比较，晚上回来，仔细对比一下数据，才发现那里应该构成一笔，所以整个划分就要有点改变，也就是今天形成1分钟中枢了，该中枢前面一段很简单，关键是第二、三段，究竟怎么划的，能正确划出的，对线段划分也就有点及格了，明天下午再公布答案，可以对比一下。"
    },
    {
      "text": "各位以后要吸取本ID下午失误的教训，对那些只有5、6根K线的，一定要看好其中是否有包含关系，这样才不会一时大意，这是最容易出毛病的地方。"
    },
    {
      "text": "有人可能要问，难道就那0.08的差别就可以影响整个大盘？这有什么奇怪的，如果你知道某些物理学的理论，就知道，在那些理论看来，我们的世界之所以这样，就是因为一些极其微小的差别造成了，没有那些差别，世界一定不是这个样子了。另外，请注意，一定要用同一种软件，这样，等于测量的精确度或误差是基本一致的，就保持整个划分是在同一误差或精确的基础上。"
    },
    {
      "text": "好了，闲话不说，进入新课程。"
    },
    {
      "text": "为什么要研究分型、走势类型等东西，其哲学基础是什么？这就是人的贪嗔痴疑慢。因为人的贪嗔痴疑慢都是一样的，只是跟随时间、环境大小不一，所以，就显示出自相似性。而走势是所有人贪嗔痴疑的合力结果，反映在走势中，就使得走势显示出自相似性。"
    },
    {
      "text": "分型、走势类型的本质就是自相似性，同样，走势必完美的本质也就是自相似性。分型，在1分钟级别是这样的结构，在年线上也是这样的结构，在不同的级别上，级别不同，但结构是一样的，这就是自相似性。同样，走势类型也一样。"
    },
    {
      "text": "正因为走势具有自相似性，所以走势才是可理解的，才是可把握的，如果没有自相似性，那么走势必然不可理解，无法把握。要把握走势，本质上，就是把握其自相似性。"
    },
    {
      "text": "自相似性还有一个最重要的特点，就是自相似性可以自组出级别来。上面的话中，先提到级别，在严格意义上是不对的。级别是自相似性自组出来的，或者说是生长出来的，自相似性就如同基因，按照这个基因，这个图谱，走势就如同有生命般自动生长出不同的级别来，不论构成走势的人如何改变，只要其贪嗔痴疑不改变，只要都是人，那么自相似性就存在，级别的自组性就必须存在。"
    },
    {
      "text": "本ID理论的哲学本质，就在于人的贪嗔痴疑慢所引发的自相似性以及由此引发走势级别的自组性这种类生命的现象。走势是有生命的，本ID说“看行情的走势，就如同听一朵花的开放，见一朵花的芬芳，嗅一朵花的美丽，一切都在当下中灿烂”，这绝对不是孔男人式的矫情比喻，而是科学般的严谨说明，因为走势确实有着如花一般的生命特征，走势确实在自相似性、自组性中发芽、生长、绽放、凋败。"
    },
    {
      "text": "因此，本ID的理论是一种可发展的理论，可以提供给无数人去不断研究，研究的方向是什么？就是走势的自相似性、自组性。这里，可以结合现代科学的各门学科，有着广阔的前景以及可开发性。"
    },
    {
      "text": "所以，本ID的理论，不是一些死的教条，而是一门生命学科。"
    },
    {
      "text": "只是，目前本ID只和各位讲述一些最简单的自相似性：分型、走势类型。"
    },
    {
      "text": "本ID的理论中，有一条最重要的定理，就是有多少不同构的自相似性结构，就有多少种分析股市的正确道路，任何脱离自相似性的股市分析方法，本质上都是错误的。"
    },
    {
      "text": "显然，分型、走势类型是两种不同构的自相似性结构，我们还可以找到很多类似的结构，但现在，还是先把这两个最基础的结构给搞清楚。条条大路通罗马，只要把这两个结构搞清楚，就能达到罗马。而其他结构的寻找、研究，本质上是一种理论上的兴趣。而不同的自相似性结构对应的操作的差异性问题，更是一个理论上的重大问题。"
    },
    {
      "text": "本ID的理论上还有一个暂时没有解决的问题，就是走势中究竟可以容纳多少自相似性结构，还有一个更有趣的问题，就是起始交易条件对自相似性结构生成的影响，如果这个问题解决了，那么，对市场科学的调控才能真正解决。"
    },
    {
      "text": "本ID的理论还可以不断扩展，也可以精细化进行。例如，对于不同交易条件的自相似性结构的选择，就是一个精细化的理论问题。"
    },
    {
      "text": "自相似性结构有什么用处，这用处大了去了。一个最简单的结论：所有的顶必须是顶分型的，反之，所以的底都是底分型的。如果没有自相似性结构，这结论当然不可能成立。但正因为有自相似性结构，所以才有这样一个对于任何股票、任何走势都适用的结论。"
    },
    {
      "text": "反之，这样一个结论，就可以马上推出这个100%正确的结论，就是：没有顶分型，没有顶；反之，没有底分型，没有底。那么，在实际操作中，如果在你操作级别的K线图上，没有顶分型，那你就可以持有睡觉，等顶分型出来再说。"
    },
    {
      "text": "另外，有了自相似性结构，那么，任何一个级别里的走势发展都是独立的，也就是说，例如，在30分钟的中枢震荡，在5分钟的上涨走势，那么两个级别之间并不会互相打架，而是构成一个类似联立方程的东西，如果说单一个方程的解很多，那么联立起来，解就大幅度减少了。也就是级别的存在，使得对走势的判断可以联立了，也就是可以综合起来系统地看了，这样，走势的可能走势的边界条件就变得异常简单。"
    },
    {
      "text": "所以，看走势，不能光看一个级别，必须立体地看，否则，就是浪费了自相似性结构给你的有利条件。"
    },
    {
      "text": "不行，快11点了，今天回来太晚，关于这个问题，以后再陆续说。"
    },
    {
      "text": "先下，再见。"
    }
  ]
}