{
  "id": "59",
  "source": "缠中说禅",
  "detail_source": "缠中说禅",
  "screen_name": "缠中说禅",
  "avatar_url": "",
  "auth_id": "",
  "auth_info": "缠中说禅",
  "publish_time": 1168585971,
  "title": "《论语》详解：给所有曲解孔子的人（46）",
  "url": "http://blog.sina.com.cn/s/blog_486e105c0100084l.html",
  "comment_count": -1,
  "is_original": true,
  "data": [
    {
      "img": "http://www.haodoo.com/pics/view/v09/m/014.jpg"
    },
    {
      "text": "子曰：古之学者为己；今之学者为人。"
    },
    {
      "text": "杨伯峻：孔子说：古代学者的目的在修养自己的学问道德，现代学者的目的却在装饰自己，给别人看。"
    },
    {
      "text": "钱穆：先生说：古之学者，是为己而学的。今之学者，是为人而学的。"
    },
    {
      "text": "李泽厚：孔子说：古时的学者是为了改进自己，今天的学者是为了教训别人。"
    },
    {
      "text": "详解：这是众说纷纭的一章，但所有的解释，都本于厚古薄今的路数，将“为己”、“为人”打成两橛，将“为人”贬义化，将“为己”神圣化，不过都是宋明腐儒“扬内圣、贬外王“的伎俩。宋明最终都被外族所灭，绝对不是历史的巧合，而要大大归功于他们这种误人误国的荒唐伎俩。"
    },
    {
      "text": "“内圣外王”本是一体，内不圣的外王哪能持久？外不王的内圣顶个屁用！所谓“学”？是“多闻”、“多见”基础上的“对照、校对”，不离“天地人”间的大易流行。“为己”、“为人”，最终都要成就“内圣外王”，岂能将“为己”、“为人”割裂？单纯“为己”与单纯“为人”，同样只能制造“馁、耕、食”的恶性循环。无论标榜“为己”的英美式资本主义，还是标榜“为人”的斯大林式资本主义，都逃不出这个循环。"
    },
    {
      "text": "从语法上看，本章是明显的互文，古文中，为了语言的流畅与对称，这十分常用。这里，无须追究所谓蛋与鸡的关系，无须追究究竟是“为己而为人”还是“为人而为己”，归根结底，都是“内圣外王”、“为己为人”一体。这，无古今之别，离此之学，只能是伪学，不可能是真正的学问。而伪学，又何能称为“学”？"
    },
    {
      "text": "缠中说禅白话直译"
    },
    {
      "text": "孔子说：无论古今，真正的学问与学人，都不离“内圣外王”、“为己为人”的一体之学。"
    },
    {
      "text": "（待续）"
    },
    {
      "text": "严禁抄袭，违者必究"
    }
  ]
}