{
  "id": "62",
  "source": "缠中说禅",
  "detail_source": "缠中说禅",
  "screen_name": "缠中说禅",
  "avatar_url": "",
  "auth_id": "",
  "auth_info": "缠中说禅",
  "publish_time": 1169103763,
  "title": "教你炒股票24：MACD对背弛的辅助判断",
  "url": "http://blog.sina.com.cn/s/blog_486e105c0100087y.html",
  "comment_count": -1,
  "is_original": true,
  "data": []
}