{
  "_ck": {},
  "data": {
    "detail_source": "壹圆文化",
    "media_user": {
      "screen_name": "壹圆文化",
      "no_display_pgc_icon": false,
      "avatar_url": "https://p3.pstatp.com/thumb/ff4c0000329fa7e5df8e",
      "id": "1617719604580359",
      "user_auth_info": {
        "auth_type": "0",
        "other_auth": {
          "interest": "优质文化领域创作者"
        },
        "auth_info": "建筑公司总经理 优质文化领域创作者"
      }
    },
    "publish_time": 1542972785,
    "hotwords": [
      {
        "stress_type": 0,
        "hot_word": "录明星整容视频勒索"
      },
      {
        "stress_type": 1,
        "hot_word": "宁静再演孝庄"
      },
      {
        "stress_type": 0,
        "hot_word": "日常佩戴13公斤黄金"
      },
      {
        "stress_type": 0,
        "hot_word": "中国化工集团被约谈"
      },
      {
        "stress_type": 0,
        "hot_word": "医生用筷子紧急救人"
      },
      {
        "stress_type": 1,
        "hot_word": "黄渤回应女版黄渤"
      },
      {
        "stress_type": 1,
        "hot_word": "贾跃亭股份被冻结"
      },
      {
        "stress_type": 1,
        "hot_word": "买老鼠夹送香肠"
      }
    ],
    "title": "练好易经的思维",
    "url": "http://toutiao.com/group/6626978766742618627/",
    "high_quality_flag": "0",
    "impression_count": "1311",
    "is_original": false,
    "is_pgc_article": true,
    "content": "\u003cdiv\u003e\u003cp\u003e总是看见有人问：易经是不是科学？易经是不是宗教迷信？会问这些问题的人最起码没搞懂三个概念，一是什么是易经，二是什么是科学，三是什么是迷信。我不想咬文嚼字纠缠于字面意思。人类在认识和发现世界并形成关系大致可以分为三个层面：\u003c/p\u003e\u003cp\u003e一是科学的范围，科学也叫分科而学，所以科学是越分越细的。科学是建立在大量科学试验和实证上的，不管公理、定理还是普遍真理，都是在大量验证基础上积累而成的，是有公允性和唯一性的。所以我们应该知道，你如果有了科学发现，但是别人按照你的发现重复验证不了，这就不是科学。就象国内、外科学造假事件一样。科学试验有严格的环境和条件限制，比如温度、湿度，气候甚至人文环境。牛顿经典力学不设时空限制就会被相对论推翻。正因为科学的严谨性导致人们认识世界的局限性，所以我们用科学能解释的范围太小太小了。\u003c/p\u003e\u003cp\u003e二是未知世界，有的思想家把它称为神学，比如宗教、灵学、宇宙未知范围、科学解释不了的东西都统统划到这范围。这个范围是非常浩渺的。但是人类区别于其它是生物是有思维能力的，这就有了另外一个范围，介于科学和未知之间。\u003c/p\u003e\u003cp\u003e三是哲学范围，因为人是有思维和思辨能力的。人类是可以思考的动物，虽然说人类一思考，上帝就发笑。但是人类还是爱思考。比如人从哪里来，又往哪里去，活着到底是为了什么？死后有没有灵魂？这就是哲学的范畴。人类在适应自然的过程中通过思考会发现一些普遍规律，经过推测可以发现一些科学验证不了的结果。哲学是伟大的，正是有了哲学的引导，才有不断的科学发现，所以爱因斯坦说：哲学是一切科学之母。\u003c/p\u003e\u003cp\u003e易经是我们先人仰观天象、俯察地理，通过阴阳五行来推测一些事物变化，且有很浓的思辨色彩的规律总结，是没有办法进行科学验证的一门学问。所以你应该知道，易经应该是属于哲学的范畴。\u003c/p\u003e\u003cp\u003e可笑的是，现在有些人非得把易经往科学上拉，电脑二进制完全是受阴阳的启发，就象哲学引导科学发现一样，跟易经是不是科学半毛钱的关系也没有。DNA六十四个密码与易经六十四卦只能说明两者数理规律在某些方面一致，易经六十四卦可描述的事物多着呢。就像你家买了120平方米的房子，别人家也买了120平方米的房子，就证明你们两家是亲戚关系吧，那不是胡扯吗？更有甚者，把易经和量子力学搞在一起，现在量子研究最前沿的科学家都还没怎么弄明白量子力学，你一个量子力学的门外汉就敢用量子力学来证明易经的科学性？\u003c/p\u003e\u003cp\u003e所以可以把这些自以为是的统统划入迷信的范畴，不是封建迷信而是现代迷信，就是盲目崇信，不但没搞明白易经更没理解科学。\u003c/p\u003e\u003cp\u003e易学的核心思维就是阴阳，将在以后文章来论述。谢谢各位的阅读！\u003c/p\u003e\u003cdiv class\u003d\"pgc-img\"\u003e\u003cimg src\u003d\"https://p3.pstatp.com/large/pgc-image/c46b77a899c04fe09ab5c02ac4d3d7b5\" img_width\u003d\"500\" img_height\u003d\"507\" inline\u003d\"0\" alt\u003d\"练好易经的思维\" onerror\u003d\"javascript:errorimg.call(this);\"\u003e\u003c/div\u003e\u003cdiv class\u003d\"pgc-img\"\u003e\u003cimg src\u003d\"https://p3.pstatp.com/large/pgc-image/5695e0c721f443c888cff89a10a4b660\" img_width\u003d\"422\" img_height\u003d\"334\" inline\u003d\"0\" alt\u003d\"练好易经的思维\" onerror\u003d\"javascript:errorimg.call(this);\"\u003e\u003c/div\u003e\u003cdiv class\u003d\"pgc-img\"\u003e\u003cimg src\u003d\"https://p3.pstatp.com/large/pgc-image/dedfd5175cc14b7ebaeedaac434eceb1\" img_width\u003d\"474\" img_height\u003d\"659\" inline\u003d\"0\" alt\u003d\"练好易经的思维\" onerror\u003d\"javascript:errorimg.call(this);\"\u003e\u003c/div\u003e\u003c/div\u003e",
    "source": "壹圆文化",
    "comment_count": 20,
    "logo_show_strategy": "normal",
    "hupu_content_image_urls": [
      ""
    ],
    "creator_uid": 5442441065
  },
  "success": true
}