{
  "_ck": {},
  "data": {
    "detail_source": "壹圆文化",
    "media_user": {
      "screen_name": "壹圆文化",
      "no_display_pgc_icon": false,
      "avatar_url": "https://p3.pstatp.com/thumb/ff4c0000329fa7e5df8e",
      "id": "1617719604580359",
      "user_auth_info": {
        "auth_type": "0",
        "other_auth": {
          "interest": "优质文化领域创作者"
        },
        "auth_info": "建筑公司总经理 优质文化领域创作者"
      }
    },
    "publish_time": 1543040768,
    "hotwords": [
      {
        "stress_type": 0,
        "hot_word": "录明星整容视频勒索"
      },
      {
        "stress_type": 1,
        "hot_word": "宁静再演孝庄"
      },
      {
        "stress_type": 0,
        "hot_word": "日常佩戴13公斤黄金"
      },
      {
        "stress_type": 0,
        "hot_word": "中国化工集团被约谈"
      },
      {
        "stress_type": 0,
        "hot_word": "医生用筷子紧急救人"
      },
      {
        "stress_type": 1,
        "hot_word": "黄渤回应女版黄渤"
      },
      {
        "stress_type": 1,
        "hot_word": "贾跃亭股份被冻结"
      },
      {
        "stress_type": 1,
        "hot_word": "买老鼠夹送香肠"
      }
    ],
    "title": "平常的易理，人生的大智慧",
    "url": "http://toutiao.com/group/6627249810900517384/",
    "high_quality_flag": "0",
    "impression_count": "883",
    "is_original": false,
    "is_pgc_article": true,
    "content": "\u003cdiv\u003e\u003cp\u003e孔子认为，学易要有玩的心态，观其辞而玩其占，玩索而所得，这样才有乐趣。易理在身边，百姓日用而不知，打麻将就有深刻的易理和满满的东方智慧。\u003c/p\u003e\u003cp\u003e你看麻将144张牌（基本牌136）。12的平方。12这个数字在邵雍那里是个很重要的数字。一年12个月，一日12个时辰。麻将牌的中、发、白代表天、地、人三才。发财代表天，说明富贵在天，发又有生发的意思，上天有好生之德。白板四方代表地，表示人在世间要清白，也说明天圆地方。红中代表人在天地中，表示人要走中庸之道又希望能中奖中状元。易经八卦也是天地人三爻。\u003c/p\u003e\u003cp\u003e四个风加红中代表五行，东木、南火、西金、北水再加上中土。三种花色也相当于三才三爻，花色加字牌四种代表四象。每种花色9张，9是易经中的极数。筒、索代表钱、粮，万表示钱粮要多多益善。你看中国人是讲现实性和功利性的，所以我说过，易经你拿来用就行了，不要论科学不科学，离开中国文化基因，易经就没有生命力。\u003c/p\u003e\u003cp\u003e麻将打起来就更有意思了。首先，麻将每张牌都是平等和有用的，牌无大小之分，不像西方的扑克 ，大王压小王，扑克抓了副好牌好好打基本就胜了。而麻将就不同，过程是随机、发展的，需要你不断权衡得失，讲究谋事在人，成事在天，甚至是歪打歪有理。所以麻将抓了副好牌也可能打得稀烂，抓了烂牌发展好了也能做和。人生命理也是这样，一命二运三风水，四积阴功五读书，先天条件后天努力都得有。中国人又讲天生我材必有用，王侯将相宁有种。天下有德者居之，就是改朝换代皇帝老子上位也得编个天生异象做天子。\u003c/p\u003e\u003cp\u003e麻将和牌要14张，4副顺（刻）一对将，4副顺似一卦三爻代表木火金水四气，一对将代表运化的土也代表一对阴阳。所以阴阳五行均衡就和了。有打麻将经验的人都知道，有时一两个方位运气会特别旺，一两个方位会特别衰。或者一个人前面运好后面会变衰，俗话说：好汉不和前三把。风水轮流转，所以麻将跟易经一样讲求时与位。每人13张牌，4人共52张，一年有52个星期，所以打麻将就象过日子。\u003c/p\u003e\u003cp\u003e打麻将时，各做各的牌，表面一团和气，推倒牌赢别人钱时也叫和了，以和为贵。这就是中国文化。所以麻将和易经在天人合一的宇宙观、人生观、价值观都相通。你能理解易理就这么平易吗，易理早已溶入中华文化的基因里。\u003c/p\u003e\u003cp\u003e原创不易，请大家转载时注明出处，谢谢！\u003c/p\u003e\u003cdiv class\u003d\"pgc-img\"\u003e\u003cimg src\u003d\"https://p3.pstatp.com/large/pgc-image/b36954cbb0ff47a88696a88ce2ce80e5\" img_width\u003d\"1024\" img_height\u003d\"987\" inline\u003d\"0\" alt\u003d\"平常的易理，人生的大智慧\" onerror\u003d\"javascript:errorimg.call(this);\"\u003e\u003c/div\u003e\u003cdiv class\u003d\"pgc-img\"\u003e\u003cimg src\u003d\"https://p3.pstatp.com/large/pgc-image/095955080fac4929a834df7b1fe681ee\" img_width\u003d\"474\" img_height\u003d\"303\" inline\u003d\"0\" alt\u003d\"平常的易理，人生的大智慧\" onerror\u003d\"javascript:errorimg.call(this);\"\u003e\u003c/div\u003e\u003c/div\u003e",
    "source": "壹圆文化",
    "comment_count": 13,
    "logo_show_strategy": "normal",
    "hupu_content_image_urls": [
      ""
    ],
    "creator_uid": 5442441065
  },
  "success": true
}