{
  "_ck": {},
  "data": {
    "detail_source": "壹圆文化",
    "media_user": {
      "screen_name": "壹圆文化",
      "no_display_pgc_icon": false,
      "avatar_url": "https://p3.pstatp.com/thumb/ff4c0000329fa7e5df8e",
      "id": "1617719604580359",
      "user_auth_info": {
        "auth_type": "0",
        "other_auth": {
          "interest": "优质文化领域创作者"
        },
        "auth_info": "建筑公司总经理 优质文化领域创作者"
      }
    },
    "publish_time": 1543634320,
    "hotwords": [
      {
        "stress_type": 0,
        "hot_word": "录明星整容视频勒索"
      },
      {
        "stress_type": 1,
        "hot_word": "宁静再演孝庄"
      },
      {
        "stress_type": 0,
        "hot_word": "日常佩戴13公斤黄金"
      },
      {
        "stress_type": 0,
        "hot_word": "中国化工集团被约谈"
      },
      {
        "stress_type": 0,
        "hot_word": "医生用筷子紧急救人"
      },
      {
        "stress_type": 1,
        "hot_word": "黄渤回应女版黄渤"
      },
      {
        "stress_type": 1,
        "hot_word": "贾跃亭股份被冻结"
      },
      {
        "stress_type": 1,
        "hot_word": "买老鼠夹送香肠"
      }
    ],
    "title": "孔子说卦传中“雷风相薄”是什么意思",
    "url": "http://toutiao.com/group/6629557020406055437/",
    "high_quality_flag": "0",
    "impression_count": "686",
    "is_original": false,
    "is_pgc_article": true,
    "content": "\u003cdiv\u003e\u003cp\u003e先天八卦八大自然现象，八个卦两两相对，其中震卦和巽卦相对形成一对，孔子用“雷风相薄”来高度概括。\u003c/p\u003e\u003cdiv class\u003d\"pgc-img\"\u003e\u003cimg src\u003d\"https://p3.pstatp.com/large/pgc-image/25bf4b7816894685bda633d12919df1b\" img_width\u003d\"634\" img_height\u003d\"536\" inline\u003d\"0\" alt\u003d\"孔子说卦传中“雷风相薄”是什么意思\" onerror\u003d\"javascript:errorimg.call(this);\"\u003e\u003c/div\u003e\u003cp\u003e雷风相薄就是相互影响的意思，他们之间的影响有相互促进的关系，但更多是相互削弱甚至是消除的关系，我们来看震卦、巽卦的象。\u003c/p\u003e\u003cdiv class\u003d\"pgc-img\"\u003e\u003cimg src\u003d\"https://p3.pstatp.com/large/dfic-imagehandler/7c300b89-1a0d-45ed-81a7-609db6ad203b\" img_width\u003d\"1023\" img_height\u003d\"683\" inline\u003d\"0\" alt\u003d\"孔子说卦传中“雷风相薄”是什么意思\" onerror\u003d\"javascript:errorimg.call(this);\"\u003e\u003c/div\u003e\u003cdiv class\u003d\"pgc-img\"\u003e\u003cimg src\u003d\"https://p3.pstatp.com/large/dfic-imagehandler/d90fdb1d-403a-4074-a0ad-ce555b4ef60e\" img_width\u003d\"1200\" img_height\u003d\"803\" inline\u003d\"0\" alt\u003d\"孔子说卦传中“雷风相薄”是什么意思\" onerror\u003d\"javascript:errorimg.call(this);\"\u003e\u003c/div\u003e\u003cp\u003e暴风云、积雨云在风的作用下相互摩擦，上正、下负电荷形成电位差，最后通过闪电来释放雷暴，雷暴产生震动又会加剧空气的对流，所以我们说电闪雷鸣，风雨交加。\u003c/p\u003e\u003cp\u003e雷、风更多是相互消除的影响。住在海边的朋友可能知道，有个谚语叫“一雷破九台”，台风形成，只要一打雷，台风就消散了。我们也有这样生活经验叫“雷声大，雨点小“，风一吹乌云就散了。\u003c/p\u003e\u003cp\u003e古人认为雷是从地下发动的，所以阳爻在下，实际上也有一定的自然道理，雷电多地方下方就有铁矿。另外雷电每年给地球制造4亿吨氮肥。\u003c/p\u003e\u003cp\u003e巽风无孔不入，缝隙在下，理解易经的象要灵活，又要从生活、自然中找到哲理。\u003c/p\u003e\u003c/div\u003e",
    "source": "壹圆文化",
    "comment_count": 11,
    "logo_show_strategy": "normal",
    "hupu_content_image_urls": [
      ""
    ],
    "creator_uid": 5442441065
  },
  "success": true
}