{
  "_ck": {},
  "data": {
    "detail_source": "壹圆文化",
    "media_user": {
      "screen_name": "壹圆文化",
      "no_display_pgc_icon": false,
      "avatar_url": "https://p3.pstatp.com/thumb/ff4c0000329fa7e5df8e",
      "id": "1617719604580359",
      "user_auth_info": {
        "auth_type": "0",
        "other_auth": {
          "interest": "优质文化领域创作者"
        },
        "auth_info": "建筑公司总经理 优质文化领域创作者"
      }
    },
    "publish_time": 1543548241,
    "hotwords": [
      {
        "stress_type": 0,
        "hot_word": "录明星整容视频勒索"
      },
      {
        "stress_type": 1,
        "hot_word": "宁静再演孝庄"
      },
      {
        "stress_type": 0,
        "hot_word": "日常佩戴13公斤黄金"
      },
      {
        "stress_type": 0,
        "hot_word": "中国化工集团被约谈"
      },
      {
        "stress_type": 0,
        "hot_word": "医生用筷子紧急救人"
      },
      {
        "stress_type": 1,
        "hot_word": "黄渤回应女版黄渤"
      },
      {
        "stress_type": 1,
        "hot_word": "贾跃亭股份被冻结"
      },
      {
        "stress_type": 1,
        "hot_word": "买老鼠夹送香肠"
      }
    ],
    "title": "再学《矛盾论》，好好理解易经",
    "url": "http://toutiao.com/group/6629489218932441613/",
    "high_quality_flag": "0",
    "impression_count": "3999",
    "is_original": false,
    "is_pgc_article": true,
    "content": "\u003cdiv\u003e\u003cp\u003e上文说了乾始坤终的原理，但为什么是按乾兑离震巽坎艮坤的卦序，如何理解太极图的运化消长。让我们好好学习一下毛主席伟大的著作《矛盾论》，矛盾存在于一切事物的发展过程中，每一事物的发展过程存在着自始至终的矛盾运动。外因是变化的条件，内因是变化的根据，外因通过内因而起作用。\u003c/p\u003e\u003cp\u003e再来看看先天八卦太极图，发现事物的本质都是相通的。\u003c/p\u003e\u003cdiv class\u003d\"pgc-img\"\u003e\u003cimg src\u003d\"https://p3.pstatp.com/large/pgc-image/807d5b73a28c4a4ab09655477442d329\" img_width\u003d\"634\" img_height\u003d\"536\" inline\u003d\"0\" alt\u003d\"再学《矛盾论》，好好理解易经\" onerror\u003d\"javascript:errorimg.call(this);\"\u003e\u003cp class\u003d\"pgc-img-caption\"\u003e\u003c/p\u003e\u003c/div\u003e\u003cp\u003e先天八卦代表一切事物的本质特征，任何事物有阴阳对立统一的两面，矛盾是推动一切事物发展的力量。所以孔子说：刚柔相摩，八卦相荡，实际上是阴阳相摩。老子说：反者，道之动也。\u003c/p\u003e\u003cp\u003e先天八卦要立体看，具体理由请看\u003ca class\u003d\"pgc-link\" href\u003d\"https://www.toutiao.com/i6629119419425489412/?group_id\u003d6629119419425489412\" target\u003d\"_blank\"\u003e学懂先天八卦，易经的晦涩不用怕\u003c/a\u003e阳轻升在上，阴重浊在下，天道左旋，地道右旋，因此阴阳相摩。\u003c/p\u003e\u003cp\u003e阴阳是不可能直接向对方转换的，比如乾卦不能直接到巽卦，外因也要通过内因起作用，看太极图不能只看到外圈的圆环，真正要看阴阳相接的通道（如图示），可能大多数研易的朋友都忽略了这点，这个才是阳升到阴降的转换通道。外圈是循环，中间是阴阳转化的枢纽。明白这个运作模式后，你才能理解五行的运化机制，五行也是左边木、火两种生发的力量，通过中间土这枢纽运化后才有右边金水两种收敛的力量，邵雍划出先天八卦也是要说明这些原理。我说阴阳是打开易经大门的钥匙，你同意吗。\u003ca class\u003d\"pgc-link\" href\u003d\"https://www.toutiao.com/i6627379263723012616/?group_id\u003d6627379263723012616\" target\u003d\"_blank\"\u003e学懂了阴阳，就掌握了易经的钥匙\u003c/a\u003e\u003c/p\u003e\u003cp\u003e这样理解后，乾一、兑二、离三、震四、巽五、坎六、艮七、坤八就能看通了，要牢牢记住。其中一到八的数字就是代表卦序，就是天然存在的对应。占数字卦的时候，算到一就代表乾，算到八就是坤。就象我们摸奖一样，摸到三号球去三号柜里面就是离一样。此外，先天八卦的数字并无任何意义。可笑的是，有人说先天八卦数到八，为什么后天八卦数字到九，还去研究解读，后天八卦的数字根本不是这个意思，八杆子也打不着的东西。思维要清晰，别搞乱。\u003c/p\u003e\u003cdiv class\u003d\"pgc-img\"\u003e\u003cimg src\u003d\"https://p3.pstatp.com/large/pgc-image/3ed9844881ca47aba482710fcdda369c\" img_width\u003d\"640\" img_height\u003d\"520\" inline\u003d\"0\" alt\u003d\"再学《矛盾论》，好好理解易经\" onerror\u003d\"javascript:errorimg.call(this);\"\u003e\u003cp class\u003d\"pgc-img-caption\"\u003e元阳梯田\u003c/p\u003e\u003c/div\u003e\u003c/div\u003e",
    "source": "壹圆文化",
    "comment_count": 39,
    "logo_show_strategy": "normal",
    "hupu_content_image_urls": [
      ""
    ],
    "creator_uid": 5442441065
  },
  "success": true
}