{
  "_ck": {},
  "data": {
    "detail_source": "壹圆文化",
    "media_user": {
      "screen_name": "壹圆文化",
      "no_display_pgc_icon": false,
      "avatar_url": "https://p3.pstatp.com/thumb/ff4c0000329fa7e5df8e",
      "id": "1617719604580359",
      "user_auth_info": {
        "auth_type": "0",
        "other_auth": {
          "interest": "优质文化领域创作者"
        },
        "auth_info": "建筑公司总经理 优质文化领域创作者"
      }
    },
    "publish_time": 1544077666,
    "hotwords": [
      {
        "stress_type": 0,
        "hot_word": "录明星整容视频勒索"
      },
      {
        "stress_type": 1,
        "hot_word": "宁静再演孝庄"
      },
      {
        "stress_type": 0,
        "hot_word": "日常佩戴13公斤黄金"
      },
      {
        "stress_type": 0,
        "hot_word": "中国化工集团被约谈"
      },
      {
        "stress_type": 0,
        "hot_word": "医生用筷子紧急救人"
      },
      {
        "stress_type": 1,
        "hot_word": "黄渤回应女版黄渤"
      },
      {
        "stress_type": 1,
        "hot_word": "贾跃亭股份被冻结"
      },
      {
        "stress_type": 1,
        "hot_word": "买老鼠夹送香肠"
      }
    ],
    "title": "让我们仰望中国版星空，唱着步天歌，天人感应，打开河洛玄学大门",
    "url": "http://toutiao.com/group/6631725500769239565/",
    "high_quality_flag": "0",
    "impression_count": "1266",
    "is_original": false,
    "is_pgc_article": true,
    "content": "\u003cdiv\u003e\u003cp\u003e小时候，爷爷奶奶总喜欢指着星空对我说：天上一颗星，地上一个人，人走了就上天上去了。先辈认为天上星河灿烂，对应人世芸芸众生。\u003c/p\u003e\u003cdiv class\u003d\"pgc-img\"\u003e\u003cimg src\u003d\"https://p3.pstatp.com/large/pgc-image/893e4a32a22347bb89e436d632ffefd6\" img_width\u003d\"320\" img_height\u003d\"240\" inline\u003d\"0\" alt\u003d\"让我们仰望中国版星空，唱着步天歌，天人感应，打开河洛玄学大门\" onerror\u003d\"javascript:errorimg.call(this);\"\u003e\u003cp class\u003d\"pgc-img-caption\"\u003e\u003c/p\u003e\u003c/div\u003e\u003cp\u003e古人把星空以北极星为中心，拟人化的划分为三垣、四象、二十八宿，北斗七星绕北极星旋转。三垣为太微垣、紫微垣、天市垣。二十八宿按四象划分。是古代中国神话和天文学结合的产物。按《步天歌》的说法，紫微垣为三垣的中垣，位于北天中央位置，故称中宫，以北极为中枢，有十五星，分为左垣与右垣两列拱卫。天神运动，阴阳开合，都在此宫，所以也叫紫宫。紫宫象一座皇宫，其中由至高无上的天帝太一神及太子、王后等构成的皇室家族。由各种臣僚组成藩卫机构，如同一个天国王朝，相应于人间王室朝廷，所以故宫就叫紫禁城。此宫星象异动，对应人世间天子皇宫的灾祸异变。\u003c/p\u003e\u003cdiv class\u003d\"pgc-img\"\u003e\u003cimg src\u003d\"https://p3.pstatp.com/large/pgc-image/de180178c2484b4689ad9ac297d54356\" img_width\u003d\"1000\" img_height\u003d\"660\" inline\u003d\"0\" alt\u003d\"让我们仰望中国版星空，唱着步天歌，天人感应，打开河洛玄学大门\" onerror\u003d\"javascript:errorimg.call(this);\"\u003e\u003cp class\u003d\"pgc-img-caption\"\u003e紫微垣\u003c/p\u003e\u003c/div\u003e\u003cp\u003e要想同时看到三垣，最好在夏至前后，当黄昏来临，一丝清风送走夏日西边最后的一丝光亮。举目北望，庄严的紫微垣，俨然高悬北极四周。“北斗”和“文昌”在垣左，“华盖”和“传舍”列于垣右。再望向西南方向，天空中明亮的“五帝内座”高挂。以它为中心的是天帝和大臣们处理政务的太微垣。再向东看去，东南方向地平线上银河正慢慢升起，银河西岸边就是热闹的天市垣，仔细聆听，似乎听到街市熙熙攘攘的叫卖声.........。这时掌握阴阳的天帝出行，坐上北斗七星，斗柄东指，天下皆春，斗柄南指，天下皆夏，斗柄西指，天下皆秋，斗柄北指，天下皆冬。《步天歌》中唱到：\u003c/p\u003e\u003cp\u003e中元北极紫微宫，北极五星在其中。\u003c/p\u003e\u003cp\u003e大帝之坐第二珠，第三之星庶子居。\u003c/p\u003e\u003cp\u003e第一号曰为太子，四为后宫五天枢。\u003c/p\u003e\u003cp\u003e左右四星是四辅，天一太一当门户。\u003c/p\u003e\u003cp\u003e左枢右枢夹南门，两面营卫一十五。\u003c/p\u003e\u003cp\u003e上宰少尉两相对，少宰上辅次少辅。\u003c/p\u003e\u003cdiv class\u003d\"pgc-img\"\u003e\u003cimg src\u003d\"https://p3.pstatp.com/large/dfic-imagehandler/3efa4f22-63bf-40eb-9634-36710172be6c\" img_width\u003d\"1200\" img_height\u003d\"671\" inline\u003d\"0\" alt\u003d\"让我们仰望中国版星空，唱着步天歌，天人感应，打开河洛玄学大门\" onerror\u003d\"javascript:errorimg.call(this);\"\u003e\u003cp class\u003d\"pgc-img-caption\"\u003e\u003c/p\u003e\u003c/div\u003e\u003cp\u003e神秘的星空就是河洛文化的来源，不动如宗的北极天皇大帝就是一，和它一起形成的勾陈六星就是形之六，加上太子王后五星和五星帝座是枢纽。河洛文化从星空神话开始，好好看陈抟的《龙图序》，龙图就是星空图，河洛文化就是中华占星术。后面会结合《龙图序》来解读。未合之前天数的布置方式我有独家的看法。\u003c/p\u003e\u003c/div\u003e",
    "source": "壹圆文化",
    "comment_count": 17,
    "logo_show_strategy": "normal",
    "hupu_content_image_urls": [
      ""
    ],
    "creator_uid": 5442441065
  },
  "success": true
}