{
  "_ck": {},
  "data": {
    "detail_source": "壹圆文化",
    "media_user": {
      "screen_name": "壹圆文化",
      "no_display_pgc_icon": false,
      "avatar_url": "https://p3.pstatp.com/thumb/ff4c0000329fa7e5df8e",
      "id": "1617719604580359",
      "user_auth_info": {
        "auth_type": "0",
        "other_auth": {
          "interest": "优质文化领域创作者"
        },
        "auth_info": "建筑公司总经理 优质文化领域创作者"
      }
    },
    "publish_time": 1545606733,
    "hotwords": [
      {
        "stress_type": 0,
        "hot_word": "录明星整容视频勒索"
      },
      {
        "stress_type": 1,
        "hot_word": "宁静再演孝庄"
      },
      {
        "stress_type": 0,
        "hot_word": "日常佩戴13公斤黄金"
      },
      {
        "stress_type": 0,
        "hot_word": "中国化工集团被约谈"
      },
      {
        "stress_type": 0,
        "hot_word": "医生用筷子紧急救人"
      },
      {
        "stress_type": 1,
        "hot_word": "黄渤回应女版黄渤"
      },
      {
        "stress_type": 1,
        "hot_word": "贾跃亭股份被冻结"
      },
      {
        "stress_type": 1,
        "hot_word": "买老鼠夹送香肠"
      }
    ],
    "title": "易经应用离不开五行，五行不简单",
    "url": "http://toutiao.com/group/6638162582576300552/",
    "high_quality_flag": "0",
    "impression_count": "1229",
    "is_original": false,
    "is_pgc_article": true,
    "content": "\u003cdiv\u003e\u003cp\u003e“一二三四五，金木水火土”，这是古代小孩都会的一句民谣，五行渗透古人生活方方面面。\u003c/p\u003e\u003cp\u003e《尚书.洪范》这样定义五行：\u003cstrong\u003e一曰水，二曰火，三曰木，四曰金，五曰土。水曰润下，火曰炎上、木曰曲直，金曰从革，土爰稼穑。润下作咸，炎上作苦，曲直作酸，从革作辛，稼穑作甘\u003c/strong\u003e。一二三四五，完全符合河图。\u003c/p\u003e\u003cp\u003e这句话本来是说明五行属性，很多人却把五行具体事物化了。《尚书.洪范》其实讲的是天授大法，天授君权，说明跟天文、天象息息相关。\u003c/p\u003e\u003cp\u003e\u003cstrong\u003e一、五行相生顺序跟地球等五行星排列顺序一样\u003c/strong\u003e\u003c/p\u003e\u003cdiv class\u003d\"pgc-img\"\u003e\u003cimg src\u003d\"https://p3.pstatp.com/large/pgc-image/de3bba46a1ee47d1b1316286ad654b9d\" img_width\u003d\"628\" img_height\u003d\"444\" inline\u003d\"0\" alt\u003d\"易经应用离不开五行，五行不简单\" onerror\u003d\"javascript:errorimg.call(this);\"\u003e\u003c/div\u003e\u003cp\u003e几千年前，古人对离地球最近的四大行星的叫法就匪夷所思。虽然也把木星叫岁星，火星也叫荧惑，水星也叫辰星。\u003c/p\u003e\u003cp\u003e从木星开始，向太阳内侧排列依次为木星、火星、地球（土）、金星、水星，这跟五行木火土金水一路相生的次序一样。\u003c/p\u003e\u003cp\u003e\u003cstrong\u003e二、五行刚好对应了地球等行星的诞生、生长、老化的过程\u003c/strong\u003e\u003c/p\u003e\u003cp\u003e五行是对阴阳转换更细致的阶段划分，描述生命从诞生、生长、老化、死亡的周期，木、火是生发的力量和成长的状态，金、水是收敛肃杀的力量和收成、老化的状态。\u003c/p\u003e\u003cp\u003e地球跟近旁几个行星就处在行星生命周期的几个阶段。八大行星以小行星为界。内外行星的差异是很大的。内行星又叫类地行星，它们的特点是都有陆地的表面。外行星又叫类木行星，他们特点是都有极厚的大气层，找不到陆地的表面，象气球。\u003c/p\u003e\u003cp\u003e清气上升浊气下降，金星、水星就象垂垂老矣的行星，基本不怎么自转，地心地幔都刚体化了。火星地球类似有大气层，地表有陆地。木星象个大气球，如同正在成长的行星。\u003c/p\u003e\u003cp\u003e\u003cstrong\u003e三、地球和近地几个行星相对位置和引力变化会对地球造成重大影响\u003c/strong\u003e\u003c/p\u003e\u003cp\u003e其它行星对地球的引力变化小时会引起海洋和气候的变化。当引力剧烈变化时，就会引起地球板块间剧烈活动，造成地震、火山喷发等地质灾害，天文学上叫宇宙期。\u003c/p\u003e\u003cp\u003e中国历史上经历过四次宇宙期，分别为夏禹、两汉、明清、清未四期。明清期最严重，从明朝天启七年开始的北半球大灾荒，造成严重人吃人的现象。从公元1627年一直到清朝1645年才缓过来。\u003c/p\u003e\u003cp\u003e极端天文是地球在太阳一侧，其它行星在另一侧，这样北半球的冬季会非常漫长寒冷。古代帝王最怕荧惑守心，传说皇帝会死亡。\u003c/p\u003e\u003cp\u003e西周文物利簋就记录了周灭商的牧野大战，里面纹有“岁鼎”两字，木星天空正中，按奇异天象反推是公元前1046年1月20日，比碳14测得还更精准。\u003c/p\u003e\u003cp\u003e\u003cstrong\u003e四、五行天下，一方水土养一方人，社会、人文有规律\u003c/strong\u003e\u003c/p\u003e\u003cp\u003e西方属金主肃杀，所以西方人喜欢打打杀杀讲征服，吃饭用刀叉，金表于外，西方人喜欢吃三明治、汉堡、披萨喝冷饮。东方属木，中国也属土，万物生机勃勃，中国人喜欢讲和谐，吃饭用筷子，讲内涵，喜欢包子、饺子、元宵，喝茶喝热饮。\u003c/p\u003e\u003cp\u003e西方属金属肺，西方注重环境好身心享受，西方人皮肤白。中国属土属脾胃，中国人讲究吃，菜系五花八门，中国人皮肤黄。\u003c/p\u003e\u003cp\u003e在医疗方面，西药的方向是纯之又纯，专病专药治，化学生物制药为主。中国属土木，中药从植物，矿物中提取，讲究互相配伍共同调理。\u003c/p\u003e\u003cp\u003e在思维方面，西方属金讲科学，分科研究是主要任务，逻辑推理是基本手段。中国属土木，所以讲综合讲效果，我们崇拜实践是检验真理的唯一标准，药好不好，关键看疗效，我们不管原因讲结果。\u003c/p\u003e\u003cp\u003e所以虽然五行是中国的文化特色，却归纳了全球地理、人文、风俗习惯到思维理念，揭示了人类生存在地球的各种规律。\u003c/p\u003e\u003c/div\u003e",
    "source": "壹圆文化",
    "comment_count": 8,
    "logo_show_strategy": "normal",
    "hupu_content_image_urls": [
      ""
    ],
    "creator_uid": 5442441065
  },
  "success": true
}