{
  "_ck": {},
  "data": {
    "detail_source": "壹圆文化",
    "media_user": {
      "screen_name": "壹圆文化",
      "no_display_pgc_icon": false,
      "avatar_url": "https://p3.pstatp.com/thumb/ff4c0000329fa7e5df8e",
      "id": "1617719604580359",
      "user_auth_info": {
        "auth_type": "0",
        "other_auth": {
          "interest": "优质文化领域创作者"
        },
        "auth_info": "建筑公司总经理 优质文化领域创作者"
      }
    },
    "publish_time": 1545545096,
    "hotwords": [
      {
        "stress_type": 0,
        "hot_word": "录明星整容视频勒索"
      },
      {
        "stress_type": 1,
        "hot_word": "宁静再演孝庄"
      },
      {
        "stress_type": 0,
        "hot_word": "日常佩戴13公斤黄金"
      },
      {
        "stress_type": 0,
        "hot_word": "中国化工集团被约谈"
      },
      {
        "stress_type": 0,
        "hot_word": "医生用筷子紧急救人"
      },
      {
        "stress_type": 1,
        "hot_word": "黄渤回应女版黄渤"
      },
      {
        "stress_type": 1,
        "hot_word": "贾跃亭股份被冻结"
      },
      {
        "stress_type": 1,
        "hot_word": "买老鼠夹送香肠"
      }
    ],
    "title": "地支和太阳系神秘的数字十二",
    "url": "http://toutiao.com/group/6638042221687865860/",
    "high_quality_flag": "0",
    "impression_count": "2934",
    "is_original": false,
    "is_pgc_article": true,
    "content": "\u003cdiv\u003e\u003cp\u003e后天八卦，方位按四正阳奇，四隅阴偶，阴阳相接成一圆，周而复始循环如流水，日复一日，年复一年，这时就要引入十二地支的概念了。\u003c/p\u003e\u003cp\u003e以前的文章中用阴阳五行分十天干配河图，让大家深刻记忆住十天干。本篇从太阳系运转和十二这个神秘数字，来说明地支的数理规律和它背后的科学奥秘。\u003c/p\u003e\u003cp\u003e天干地支相传为黄帝时大桡氏所作，这个我不去考证，先让大家看下太阳系各行星的轨道位置。\u003c/p\u003e\u003cdiv class\u003d\"pgc-img\"\u003e\u003cimg src\u003d\"https://p3.pstatp.com/large/pgc-image/a38070bee3c24244935d067c13710c42\" img_width\u003d\"640\" img_height\u003d\"369\" inline\u003d\"0\" alt\u003d\"地支和太阳系神秘的数字十二\" onerror\u003d\"javascript:errorimg.call(this);\"\u003e\u003c/div\u003e\u003cp\u003e八大行星绕恒星太阳公转，金、水在地球内侧，木、火、土在地球外侧。\u003c/p\u003e\u003cp\u003e\u003cstrong\u003e—、木星对地球的影响特别大\u003c/strong\u003e\u003c/p\u003e\u003cp\u003e木星是太阳系中一颗最大的行星，它的轨道跟太阳把地球轨道夹中间，木星的重量是太阳系中其他各行星重量之和的一倍半。我们知道星球之间质量越大，引力就越大。\u003c/p\u003e\u003cp\u003e当木星、地球、太阳运行到一条直线上时，天文学把这现象称为木星大冲。这时地球上人类体内的胆固醇和转氨酶就会升高，容易得肝病，中医就说肝属木。\u003c/p\u003e\u003cp\u003e\u003cstrong\u003e二、木星古称岁星，木星大冲十二年一次，是记年标志星\u003c/strong\u003e\u003c/p\u003e\u003cp\u003e木星绕太阳一周是11.86年，约等于12年。木星大冲12年发生一次，对人类的影响非常重要。\u003c/p\u003e\u003cp\u003e月亮的朔望周期是29.5天，算下来正好一年又是12个月多一点，又是一个12的周期。一天为24个小时，按两小时一个时辰来分，又是12的周期。这样就把年、月、日统一起来了。\u003c/p\u003e\u003cp\u003e十二这个数字在邵雍的元会运世中是非常重要的。\u003c/p\u003e\u003cp\u003e\u003cstrong\u003e三、天干地支反映宇宙运行规律，地支作用高于天干\u003c/strong\u003e\u003c/p\u003e\u003cp\u003e十二地支是子(zǐ)、丑（chǒu）、寅（yín）、卯（mǎo）、辰（chén）、巳（sì）、午（wǔ）、未（wèi）、申（shēn）、酉（yǒu）、戌（xū）、亥（hài）。\u003c/p\u003e\u003cp\u003e十二地支六阴六阳，与天干一样也是奇阳偶阴，阳地支是子、寅、辰、午、申、戌，阴地支是丑、卯、巳、未、酉、亥。\u003c/p\u003e\u003cp\u003e十二地支对应十二生肖，也规定十二时辰，对应人体十二经脉就发明了子午流注。\u003c/p\u003e\u003cdiv class\u003d\"pgc-img\"\u003e\u003cimg src\u003d\"https://p3.pstatp.com/large/pgc-image/30056f2a042b4e85a42cb2d57052783e\" img_width\u003d\"768\" img_height\u003d\"1024\" inline\u003d\"0\" alt\u003d\"地支和太阳系神秘的数字十二\" onerror\u003d\"javascript:errorimg.call(this);\"\u003e\u003c/div\u003e\u003cp\u003e\u003cstrong\u003e四、把十二地支往后天八卦上一布，时间、方位、五行就统一了\u003c/strong\u003e\u003c/p\u003e\u003cdiv class\u003d\"pgc-img\"\u003e\u003cimg src\u003d\"https://p3.pstatp.com/large/pgc-image/8ec494c7103f41aa8a71209cffed328a\" img_width\u003d\"1024\" img_height\u003d\"1040\" inline\u003d\"0\" alt\u003d\"地支和太阳系神秘的数字十二\" onerror\u003d\"javascript:errorimg.call(this);\"\u003e\u003c/div\u003e\u003cp\u003e当然上面这张图还是有点问题的。为了让大家能够直观了解，只能借用一下啦。\u003c/p\u003e\u003cp\u003e十二地支的五行属性是寅卯为木，巳午为火，申酉为金，亥子为水，丑辰未戌为土。\u003c/p\u003e\u003cp\u003e按四季分：寅卯辰为春，巳午未为夏，申酉戌为秋，亥子丑为冬。四季交接的辰未戌丑四月为四季土又称长夏。\u003c/p\u003e\u003cp\u003e天干地支用来计时，天干配地支推六十甲子。天干、地支和八卦相结合，四方、四季、五行、十二时、天干、地支、后天八卦就形成一个系统、一个整体。\u003c/p\u003e\u003c/div\u003e",
    "source": "壹圆文化",
    "comment_count": 23,
    "logo_show_strategy": "normal",
    "hupu_content_image_urls": [
      ""
    ],
    "creator_uid": 5442441065
  },
  "success": true
}