{
  "_ck": {},
  "data": {
    "detail_source": "壹圆文化",
    "media_user": {
      "screen_name": "壹圆文化",
      "no_display_pgc_icon": false,
      "avatar_url": "https://p3.pstatp.com/thumb/ff4c0000329fa7e5df8e",
      "id": "1617719604580359",
      "user_auth_info": {
        "auth_type": "0",
        "other_auth": {
          "interest": "优质文化领域创作者"
        },
        "auth_info": "建筑公司总经理 优质文化领域创作者"
      }
    },
    "publish_time": 1546527535,
    "hotwords": [
      {
        "stress_type": 0,
        "hot_word": "录明星整容视频勒索"
      },
      {
        "stress_type": 1,
        "hot_word": "宁静再演孝庄"
      },
      {
        "stress_type": 0,
        "hot_word": "日常佩戴13公斤黄金"
      },
      {
        "stress_type": 0,
        "hot_word": "中国化工集团被约谈"
      },
      {
        "stress_type": 0,
        "hot_word": "医生用筷子紧急救人"
      },
      {
        "stress_type": 1,
        "hot_word": "黄渤回应女版黄渤"
      },
      {
        "stress_type": 1,
        "hot_word": "贾跃亭股份被冻结"
      },
      {
        "stress_type": 1,
        "hot_word": "买老鼠夹送香肠"
      }
    ],
    "title": "易学无定论，光大衍之数五十的说法就有十种",
    "url": "http://toutiao.com/group/6642234459791819268/",
    "high_quality_flag": "0",
    "impression_count": "892",
    "is_original": false,
    "is_pgc_article": true,
    "content": "\u003cdiv\u003e\u003cp\u003e易学玄奥，博大精深。历史上没有一个易学大师能够穷尽易理，只能做到相对合理的解释。现代人研究易经也很难突破前人的水平。用科技的学问来解读嘛，由于西方逻辑思维和东方玄学思维南辕北辙，更显得格格不入。\u003c/p\u003e\u003cp\u003e况且现代人完全没有古人的胸襟，孔子问道于老子，儒、道两家学派的圣人都能放弃成见开诚布公的深入交流，那等胸怀很值得我们学习。\u003c/p\u003e\u003cp\u003e我一不算命二不看风水，不抢人饭碗不自诩为大师，也不愿承担传授正统易经的职责，也没有教书育人的责任。只是把学易心得分享出来，对大家有启发就看看，不入你法眼你就自己哈哈一笑。\u003c/p\u003e\u003cp\u003e没想到只写一个月，就有些自以为易学高手的人从评论、私信来谩骂，有些恶毒的都越过了做人的底线！根本不认识他们，没辱过他妻女，没刨过他祖坟，何必那么阴损。学武、学道、学易都得品先正，品德坏自然得报应。\u003c/p\u003e\u003cp\u003e好了，言归正传。历史上对大衍之数五十的说法就有很多种。\u003c/p\u003e\u003cp\u003e一、《周易本义》的说法，用《河图》中宫天五乘地十而得五十。\u003c/p\u003e\u003cp\u003e二、《河图》、《洛书》中宫都为五，把图、书总数综合再平均是五十。\u003c/p\u003e\u003cp\u003e三、《河图》数总和五十五，五十从五以后累加而成视为五是成因，所以排除五，总和五十。\u003c/p\u003e\u003cp\u003e四、《河图》中五十五数，其中四十分阴阳老少之数，五和十用不上，它们相乘后是五十。\u003c/p\u003e\u003cp\u003e五、《洛书》总数四十五，其中四十散布于外周而分阴阳老少之数，五在中间又没用，四十五再合并五等于五十。\u003c/p\u003e\u003cp\u003e六、李光地的《周易折中》说：五十之数，说者不一，《河图》余五则为数之体，《洛书》虚五则为数之用。体、用合一取中，也为五十。\u003c/p\u003e\u003cp\u003e七、《启蒙附论》里面说：勾三积为九，股四积为十六，弦五积为二十五，勾、股、弦积总和为五十。\u003c/p\u003e\u003cp\u003e八、《洛书》相对的数字各自乘中宫五后再相加，其和五十，比如四乘五等于二十，六乘五等于三十。\u003c/p\u003e\u003cp\u003e九、人身上荣、卫之气周流全身，昼行阳二十五度，夜行阴二十五度，合五十周，与大衍之数相合。\u003c/p\u003e\u003cp\u003e十、字母三十六位，十八清，十八浊，还有七清七浊有音无字，总共合五十音，应大衍之数。\u003cimg src\u003d\"https://p3.pstatp.com/large/pgc-image/638362be77bd43a381e99a8fb3221103\" img_width\u003d\"2052\" img_height\u003d\"2524\" inline\u003d\"0\" alt\u003d\"易学无定论，光大衍之数五十的说法就有十种\" onerror\u003d\"javascript:errorimg.call(this);\"\u003e你看，易学中一个数字就那么多说法，公说公有理，婆说婆有理，何必去争呢？能把它应用上就算有本事了。\u003c/p\u003e\u003c/div\u003e",
    "source": "壹圆文化",
    "comment_count": 17,
    "logo_show_strategy": "normal",
    "hupu_content_image_urls": [
      ""
    ],
    "creator_uid": 5442441065
  },
  "success": true
}