{
  "_ck": {},
  "data": {
    "detail_source": "壹圆文化",
    "media_user": {
      "screen_name": "壹圆文化",
      "no_display_pgc_icon": false,
      "avatar_url": "https://p3.pstatp.com/thumb/ff4c0000329fa7e5df8e",
      "id": "1617719604580359",
      "user_auth_info": {
        "auth_type": "0",
        "other_auth": {
          "interest": "优质文化领域创作者"
        },
        "auth_info": "建筑公司总经理 优质文化领域创作者"
      }
    },
    "publish_time": 1546703796,
    "hotwords": [
      {
        "stress_type": 0,
        "hot_word": "录明星整容视频勒索"
      },
      {
        "stress_type": 1,
        "hot_word": "宁静再演孝庄"
      },
      {
        "stress_type": 0,
        "hot_word": "日常佩戴13公斤黄金"
      },
      {
        "stress_type": 0,
        "hot_word": "中国化工集团被约谈"
      },
      {
        "stress_type": 0,
        "hot_word": "医生用筷子紧急救人"
      },
      {
        "stress_type": 1,
        "hot_word": "黄渤回应女版黄渤"
      },
      {
        "stress_type": 1,
        "hot_word": "贾跃亭股份被冻结"
      },
      {
        "stress_type": 1,
        "hot_word": "买老鼠夹送香肠"
      }
    ],
    "title": "天地自然造化之理要从《洛书》上找",
    "url": "http://toutiao.com/group/6642956765790994947/",
    "high_quality_flag": "0",
    "impression_count": "6428",
    "is_original": false,
    "is_pgc_article": true,
    "content": "\u003cdiv\u003e\u003cp\u003e本文属于补充的一文，感觉用河洛、八卦来描述天地造化和自然生万物的道理没说透。完全理解了我以前那篇《易经到底揭示了什么天地奥秘》的朋友可以略过。\u003c/p\u003e\u003cp\u003e天地气机一动，阴阳交感，雷风恒也，雷风相薄天地阴阳气机交合。男、女对眼一见钟情，心动则情生，震长男、巽长女也，天道人伦。\u003c/p\u003e\u003cp\u003e《洛书》八方之位，本是先天八卦之数，乾为父得九，震长男得八，坎中男得七，艮少男得六，如河图成数。这是数递减之序。坤为母得一，巽长女得二，离中女得三，兑少女得四，如河图生数。这是递增之序。先天卦数也是太极生两仪、两仪生四象、四象生八卦生成的数。\u003c/p\u003e\u003cp\u003e女人才能生孩子，所以女性得生数。没有男人，女人也要不到孩子，所以男人成其女性功能得成数。哈哈，易道至简。\u003c/p\u003e\u003cp\u003e阴阳交合实际上是先天卦数阳减阴增，乾九减一得八是震卦，坤一加一得二是巽卦。别以为这是牵强附会无聊推算。真正的严谨的纳甲的数理是这样推算出来的，以后文章专门论述。以前我那篇纳甲是月相的文章是很不严谨的，当时是为了说明天地八大自然现象。\u003c/p\u003e\u003cp\u003e言归正传，先看《洛书》\u003c/p\u003e\u003cdiv class\u003d\"pgc-img\"\u003e\u003cimg src\u003d\"https://p3.pstatp.com/large/pgc-image/900f0cffaecb4fdf9437736590a83877\" img_width\u003d\"640\" img_height\u003d\"640\" inline\u003d\"0\" alt\u003d\"天地自然造化之理要从《洛书》上找\" onerror\u003d\"javascript:errorimg.call(this);\"\u003e\u003c/div\u003e\u003cp\u003e如果二黑点在左下、八黑点在右上是不是更顺眼？这样生数一、二、三、四顺时针在左，成数六、七、八、九逆时针在右。如果按上图二、八互换来布置先天八卦就阴阳不交了\u003c/p\u003e\u003cdiv class\u003d\"pgc-img\"\u003e\u003cimg src\u003d\"https://p3.pstatp.com/large/pgc-image/2278c261dd944e3181a6745f737de1cc\" img_width\u003d\"640\" img_height\u003d\"703\" inline\u003d\"0\" alt\u003d\"天地自然造化之理要从《洛书》上找\" onerror\u003d\"javascript:errorimg.call(this);\"\u003e\u003c/div\u003e\u003cp\u003e二巽卦到东北，八震卦到西南。这样坤、巽、离、兑四阴卦在左，乾、震、坎、艮在右，阴阳分隔就不交了，那还怎么去造化呢？\u003c/p\u003e\u003cp\u003e二要到西南，八要到东北，洛书纵、横、斜才得十五之数。震卦要到东北，巽卦要到西南，这样阳仪中才有一阳爻的卦，阴仪才有一阴爻的卦。才是男女构精，万物化生之道。\u003c/p\u003e\u003cp\u003e为什么是震、巽，而不是其它卦呢？用家庭成员来理解更直观，长男、长女为人道之始，艮、兑是初生男女，坎、离为天癸未通毁齿之男女，乾、坤为老之男女不能生育。惟有震、巽如男之二八，女之二七，天癸通，精血成。相火与风木结合，少阳厥阴相随，人道生生不息。\u003c/p\u003e\u003cp\u003e雷风相薄，万物化生，巽而动，刚柔相应，谓之恒，天道之所以恒久也。\u003c/p\u003e\u003cp\u003e后天八卦就是艮、坤之位，坎水之后，继以燥土，离火之后，继以湿土，也是二、八交换。\u003c/p\u003e\u003cdiv class\u003d\"pgc-img\"\u003e\u003cimg src\u003d\"https://p3.pstatp.com/large/pgc-image/44b1b0d330144b0081068280c3927933\" img_width\u003d\"640\" img_height\u003d\"694\" inline\u003d\"0\" alt\u003d\"天地自然造化之理要从《洛书》上找\" onerror\u003d\"javascript:errorimg.call(this);\"\u003e\u003c/div\u003e\u003cp\u003e这么详细一说，大家该明白天地自然造化之理了吧。\u003c/p\u003e\u003c/div\u003e",
    "source": "壹圆文化",
    "comment_count": 49,
    "logo_show_strategy": "normal",
    "hupu_content_image_urls": [
      ""
    ],
    "creator_uid": 5442441065
  },
  "success": true
}