{
  "_ck": {},
  "data": {
    "detail_source": "壹圆文化",
    "media_user": {
      "screen_name": "壹圆文化",
      "no_display_pgc_icon": false,
      "avatar_url": "https://p3.pstatp.com/thumb/ff4c0000329fa7e5df8e",
      "id": "1617719604580359",
      "user_auth_info": {
        "auth_type": "0",
        "other_auth": {
          "interest": "优质文化领域创作者"
        },
        "auth_info": "建筑公司总经理 优质文化领域创作者"
      }
    },
    "publish_time": 1547104556,
    "hotwords": [
      {
        "stress_type": 0,
        "hot_word": "录明星整容视频勒索"
      },
      {
        "stress_type": 1,
        "hot_word": "宁静再演孝庄"
      },
      {
        "stress_type": 0,
        "hot_word": "日常佩戴13公斤黄金"
      },
      {
        "stress_type": 0,
        "hot_word": "中国化工集团被约谈"
      },
      {
        "stress_type": 0,
        "hot_word": "医生用筷子紧急救人"
      },
      {
        "stress_type": 1,
        "hot_word": "黄渤回应女版黄渤"
      },
      {
        "stress_type": 1,
        "hot_word": "贾跃亭股份被冻结"
      },
      {
        "stress_type": 1,
        "hot_word": "买老鼠夹送香肠"
      }
    ],
    "title": "文王为什么要重卦？人事复杂",
    "url": "http://toutiao.com/group/6644752926700995075/",
    "high_quality_flag": "0",
    "impression_count": "2622",
    "is_original": false,
    "is_pgc_article": true,
    "content": "\u003cdiv\u003e\u003cp\u003e司马迁在《史记》中说：“文王拘（羑里）而演周易。\"六十四卦由三千年前文王推演而成，应该是没有异议的。历史上能成圣的人物大致都须经过生死考验才能大彻大悟，比如文王囚而演周易，王阳明龙场才悟道。\u003c/p\u003e\u003cp\u003e三爻八卦足够描述天地间万物之理，但是加上社会、人事就不够用了，因为人性太复杂。老子说：\u003cstrong\u003e天之道,损有余而补不足。人之道,则不然,损不足以奉有余。\u003c/strong\u003e你看河流自然形成九曲十八弯。高峡出平湖，穿山越岭，裁弯取直修路架桥都是人为，人道不同天道。《周易》能成书，是当时社会历史背景和文王经历所决定的。\u003c/p\u003e\u003cp\u003e\u003cstrong\u003e一、文王拘而演易，借卜筮之名，六十四卦才得以保全\u003c/strong\u003e\u003c/p\u003e\u003cdiv class\u003d\"pgc-img\"\u003e\u003cimg src\u003d\"https://p3.pstatp.com/large/dfic-imagehandler/1427b774-f4fb-4b76-8320-ec0826339de9\" img_width\u003d\"1200\" img_height\u003d\"799\" inline\u003d\"0\" alt\u003d\"文王为什么要重卦？人事复杂\" onerror\u003d\"javascript:errorimg.call(this);\"\u003e\u003cp class\u003d\"pgc-img-caption\"\u003e\u003c/p\u003e\u003c/div\u003e\u003cp\u003e姬昌西伯侯位列商朝三公，才能卓越，威望隆盛，商纣王忌之。发牢骚被人举报下狱，八十岁开始被困羑里七年，九十岁才回归故地。漫漫牢狱生涯总要找个寄托，写什么都可能掉脑袋，唯独占卜不会。因为商朝非常信鬼神，卜筮流行，著名的”盘庚迁殷“就是借助鬼神之说才得以实现。这一事实说明，周文王是在“光明正大、不受干扰”的情况下，以“研究占卜”为名，完成了《周易》的创作，这也是人们把《周易》视为“占卜之书”的客观原因。\u003c/p\u003e\u003cp\u003e虽然殷纣王让周文王研究占卜，但仍对周文王心存戒备。为了考验周文王的水平到底如何，殷纣王做了一个“恶毒的测试”：他命人将周文王长子伯邑考杀害后做成肉羹，送给周文王吃，听说周文王“毫无觉察”地吃掉自己儿子的肉以后，才以为周文王的占卜水平不过尔尔，其能力不足为患！于是，才对周文王彻底放松了警惕。六十四卦作为占卜之书才得以带离监狱，《周易》成书付出了生命的代价！\u003c/p\u003e\u003cp\u003e正是因为这些经历，让周文王意识到社会的复杂、人心的险恶，才用更为复杂的重卦的方法来推演社会的发展变迁、人生的吉凶悔吝。\u003c/p\u003e\u003cp\u003e\u003cstrong\u003e二、人生一日佛一日魔，如同卦爻一阴一阳似轮盘，人心不断在吉凶悔吝中打转转\u003c/strong\u003e\u003c/p\u003e\u003cp\u003e世上有首十不足：\u003c/p\u003e\u003cblockquote\u003e\u003cp\u003e逐日奔忙只为饥，才得有食又思衣。 置下绫罗身上穿，抬头又嫌房屋低。 盖下高楼并大厦，床前缺少美貌妻。娇妻美妾都娶下，又虑出门没马骑。。。。。\u003c/p\u003e\u003c/blockquote\u003e\u003cdiv class\u003d\"pgc-img\"\u003e\u003cimg src\u003d\"https://p3.pstatp.com/large/dfic-imagehandler/1416e5ae-5e77-40ef-82a4-155a1e9128e1\" img_width\u003d\"1200\" img_height\u003d\"1151\" inline\u003d\"0\" alt\u003d\"文王为什么要重卦？人事复杂\" onerror\u003d\"javascript:errorimg.call(this);\"\u003e\u003cp class\u003d\"pgc-img-caption\"\u003e\u003c/p\u003e\u003c/div\u003e\u003cp\u003e人心难满足，心似猿意似马。在六爻卦中，两两相成兼三才，看上去上面是天，下面是地，人在中间好保险，其实对内、外卦来说，是不内不外，不上不下，不三不四，人有进退存亡之几。\u003c/p\u003e\u003cdiv class\u003d\"pgc-img\"\u003e\u003cimg src\u003d\"https://p3.pstatp.com/large/pgc-image/b409adbbd49d4aa29d9760decedb15be\" img_width\u003d\"3352\" img_height\u003d\"2200\" inline\u003d\"0\" alt\u003d\"文王为什么要重卦？人事复杂\" onerror\u003d\"javascript:errorimg.call(this);\"\u003e\u003cp class\u003d\"pgc-img-caption\"\u003e\u003c/p\u003e\u003c/div\u003e\u003cp\u003e由下而上推动卦爻变动，人就一会阴一会阳，吉凶悔吝在其中，你看多卦爻多形象。所以孔子在三、四爻立人道。《易传》说：\u003cstrong\u003e立人之道，曰仁与义\u003c/strong\u003e。籍以明人道而立人极。又有三、五同功而三多凶，二、四同功而四多惧的说法。在世界上，中华民族是一个具有强烈忧患意识的民族，是不是受《周易》的影响呢？\u003c/p\u003e\u003cp\u003e人生始于忧患，毕生在多凶、多惧中，如作茧自缚不能挣脱。学好易经，认识阴阳造化，进德修业，趋吉避凶可以无大过，吉凶虽有命而悔吝少。\u003c/p\u003e\u003c/div\u003e",
    "source": "壹圆文化",
    "comment_count": 36,
    "logo_show_strategy": "normal",
    "hupu_content_image_urls": [
      ""
    ],
    "creator_uid": 5442441065
  },
  "success": true
}