{
  "_ck": {},
  "data": {
    "detail_source": "壹圆文化",
    "media_user": {
      "screen_name": "壹圆文化",
      "no_display_pgc_icon": false,
      "avatar_url": "https://p3.pstatp.com/thumb/ff4c0000329fa7e5df8e",
      "id": "1617719604580359",
      "user_auth_info": {
        "auth_type": "0",
        "other_auth": {
          "interest": "优质文化领域创作者"
        },
        "auth_info": "建筑公司总经理 优质文化领域创作者"
      }
    },
    "publish_time": 1548318834,
    "hotwords": [
      {
        "stress_type": 0,
        "hot_word": "录明星整容视频勒索"
      },
      {
        "stress_type": 1,
        "hot_word": "宁静再演孝庄"
      },
      {
        "stress_type": 0,
        "hot_word": "日常佩戴13公斤黄金"
      },
      {
        "stress_type": 0,
        "hot_word": "中国化工集团被约谈"
      },
      {
        "stress_type": 0,
        "hot_word": "医生用筷子紧急救人"
      },
      {
        "stress_type": 1,
        "hot_word": "黄渤回应女版黄渤"
      },
      {
        "stress_type": 1,
        "hot_word": "贾跃亭股份被冻结"
      },
      {
        "stress_type": 1,
        "hot_word": "买老鼠夹送香肠"
      }
    ],
    "title": "“刚柔相摩，八卦相荡”的真正含义",
    "url": "http://toutiao.com/group/6649909822126817796/",
    "high_quality_flag": "0",
    "impression_count": "2869",
    "is_original": false,
    "is_pgc_article": true,
    "content": "\u003cdiv\u003e\u003cp\u003e《周易本义》对这一句的解释是：“\u003cstrong\u003e六十四卦之初，刚柔两画而已，两相摩而为四，四相摩而为八，八相荡而为六十四“。\u003c/strong\u003e很显然，朱熹把刚柔相摩解释成阴、阳爻的相摩，对此我是有不同的理解。\u003c/p\u003e\u003cp\u003e爻的变化无非是下生一阴或一阳，上去一阴或一阳。阴阳爻只有刚柔相推的说法。两仪、四象、八卦也是生的关系，也不叫相摩。\u003c/p\u003e\u003cp\u003e把”刚柔相摩“解释成阴阳爻相摩，与”八卦相荡“对仗也不工整，与后面一句“\u003cstrong\u003e鼓之以雷霆，润之以风雨，日月运行，一寒一暑。\u003c/strong\u003e”的意思就更加大相径庭了。\u003c/p\u003e\u003cp\u003e实际上这一段说的是先天八卦圆图，刚柔相摩是八卦相摩，并不是阴阳爻相摩。详细解释如下：\u003c/p\u003e\u003cp\u003e\u003cstrong\u003e一、刚柔相摩即先天八卦相摩，一卦摩一卦\u003c/strong\u003e\u003c/p\u003e\u003cp\u003e我们来看先天八卦，按卦序，乾一兑二离三震四成列在左为阳仪，巽五坎六艮七坤八成列在右为阴仪。阳仪中有阴卦，阴仪中有阳卦，但是阴阳仪之间无交互。乾始坤终一路下去不回头就不成圆了，无往不复只会是句空话。\u003c/p\u003e\u003cdiv class\u003d\"pgc-img\"\u003e\u003cimg src\u003d\"https://p3.pstatp.com/large/pgc-image/8b87d110fcb74b08adaa484b82352a36\" img_width\u003d\"647\" img_height\u003d\"640\" inline\u003d\"0\" alt\u003d\"“刚柔相摩，八卦相荡”的真正含义\" onerror\u003d\"javascript:errorimg.call(this);\"\u003e\u003cp class\u003d\"pgc-img-caption\"\u003e\u003c/p\u003e\u003c/div\u003e\u003cp\u003e看上图，相邻两卦各向顺、逆时针方向转动就会形成卦与卦之间的相摩。乾卦和巽卦相摩即成天风姤卦，夏至一阴生。坤卦和震卦相摩即成地雷复卦，冬至一阳生。\u003c/p\u003e\u003cp\u003e其它四卦也同样各自相摩，阳仪中的离卦和兑卦相摩即成火泽睽卦，即使相摩也同床异梦，万物睽而其事类，求同存异，即使性不同也要合体，天地事同共生万物。阴仪中坎卦和艮卦相摩即成水山蹇卦，是个难卦，见险而止，君子只有进德修业，看来相摩并不容易。\u003c/p\u003e\u003cp\u003e上述相摩就跟汽车起步的原理一样，启动起步时要发动机提供比行进中大得多的动力，并且要克服地面摩阻力才能车轮滚滚向前。阳顺阴逆就跟主动力和摩阻力一样。别以为我胡说八道，《周易参同契》就说乾坤是易之门，坎卦阳实是车轴，离卦是中虚是轴承。老子、孔子也说天地是个大风箱，哈哈。\u003c/p\u003e\u003cp\u003e宇宙也是一样，地球等行星能自转，是宇宙大爆炸时提供动了角动力。地球不停自转，在几十亿年前转得快一点，一天得少几个小时。由于摩阻力，地球是越转越慢，总有一天会象月球一样被潮汐锁定。\u003c/p\u003e\u003cp\u003e\u003cstrong\u003e二、八卦相荡就是一卦对八卦，相荡成六十四卦\u003c/strong\u003e\u003c/p\u003e\u003cp\u003e八卦相荡就是一卦对八卦，在先天八卦的基础上每卦各自与自身和其它卦相荡而成六十四卦，六十四卦按照正反卦一对即成三十六宫，邵子说三十六宫都是春。\u003c/p\u003e\u003cdiv class\u003d\"pgc-img\"\u003e\u003cimg src\u003d\"https://p3.pstatp.com/large/pgc-image/ccfa55a10efe4baea9403570c3857db7\" img_width\u003d\"640\" img_height\u003d\"1065\" inline\u003d\"0\" alt\u003d\"“刚柔相摩，八卦相荡”的真正含义\" onerror\u003d\"javascript:errorimg.call(this);\"\u003e\u003cp class\u003d\"pgc-img-caption\"\u003e\u003c/p\u003e\u003c/div\u003e\u003cp\u003e\u003cstrong\u003e三、鼓之以雷霆，润之以风雨，日月运行，一寒一暑\u003c/strong\u003e\u003c/p\u003e\u003cp\u003e这句话依然说的是先天八卦，放在先天八卦才好理解。震卦为雷，离卦为电，阳仪中东北震卦和东方离卦相摩则雷电交加，这就叫“鼓之以雷霆”。\u003c/p\u003e\u003cp\u003e巽卦为风，坎卦为雨，阴仪中西南巽卦和西方坎卦相摩则风雨大作，这就叫“润之以风雨“。\u003c/p\u003e\u003cdiv class\u003d\"pgc-img\"\u003e\u003cimg src\u003d\"https://p3.pstatp.com/large/pgc-image/2e05615de963439c99f2ade9cacf81ca\" img_width\u003d\"640\" img_height\u003d\"703\" inline\u003d\"0\" alt\u003d\"“刚柔相摩，八卦相荡”的真正含义\" onerror\u003d\"javascript:errorimg.call(this);\"\u003e\u003cp class\u003d\"pgc-img-caption\"\u003e\u003c/p\u003e\u003c/div\u003e\u003cp\u003e我们知道，每年的雷电会造成地球有几亿吨的氮肥，这是地球植物主要肥料来源。有风，种子才能传播，有雨水的滋润，万物才能欣欣向荣。\u003c/p\u003e\u003cp\u003e离卦为日，坎卦为月，艮山在西北严凝之地为“寒”，兑泽在东南温热之方为“暑”。左边日升运行到兑位为“暑”。右边月降运行到艮位为“寒”。邵子曰：\u003cstrong\u003e日为暑，月为寒\u003c/strong\u003e。\u003c/p\u003e\u003cp\u003e所以“\u003cstrong\u003e是故刚柔相摩，八卦相荡，鼓之以雷霆，润之以风雨，日月运行，一寒一暑”\u003c/strong\u003e这段话要放在先天八卦圆图上才好理解。因为先天八卦描述的就是天地间的八大自然现象。\u003c/p\u003e\u003c/div\u003e",
    "source": "壹圆文化",
    "comment_count": 22,
    "logo_show_strategy": "normal",
    "hupu_content_image_urls": [
      ""
    ],
    "creator_uid": 5442441065
  },
  "success": true
}