{
  "_ck": {},
  "data": {
    "detail_source": "壹圆文化",
    "media_user": {
      "screen_name": "壹圆文化",
      "no_display_pgc_icon": false,
      "avatar_url": "https://p3.pstatp.com/thumb/ff4c0000329fa7e5df8e",
      "id": "1617719604580359",
      "user_auth_info": {
        "auth_type": "0",
        "other_auth": {
          "interest": "优质文化领域创作者"
        },
        "auth_info": "建筑公司总经理 优质文化领域创作者"
      }
    },
    "publish_time": 1552294425,
    "hotwords": [
      {
        "stress_type": 0,
        "hot_word": "录明星整容视频勒索"
      },
      {
        "stress_type": 1,
        "hot_word": "宁静再演孝庄"
      },
      {
        "stress_type": 0,
        "hot_word": "日常佩戴13公斤黄金"
      },
      {
        "stress_type": 0,
        "hot_word": "中国化工集团被约谈"
      },
      {
        "stress_type": 0,
        "hot_word": "医生用筷子紧急救人"
      },
      {
        "stress_type": 1,
        "hot_word": "黄渤回应女版黄渤"
      },
      {
        "stress_type": 1,
        "hot_word": "贾跃亭股份被冻结"
      },
      {
        "stress_type": 1,
        "hot_word": "买老鼠夹送香肠"
      }
    ],
    "title": "如何快速记忆九星翻卦？",
    "url": "http://toutiao.com/group/6666210827286086152/",
    "high_quality_flag": "0",
    "impression_count": "9251",
    "is_original": true,
    "is_pgc_article": true,
    "content": "\u003cdiv\u003e\u003cp\u003e我写易可能与众不同，食古而不泥古，各家理论会看，但不背口诀，我背的是河图、洛书、天干地支、先后天八卦和纳甲纳音，尽量去理解易学理论各家本意。\u003c/p\u003e\u003cp\u003e昨天写到“田螺吃螃蟹”，大异生活常理，又有人嘲笑了。其实世间万物阴阳变幻、五行相生相克。举个例子，民间有个说法，甲鱼生前最怕蚊子，叮上一口基本死翘翘，但甲鱼死后骨殖烧成灰又能驱蚊，反而成蚊子克星。风水中，阴宅和阳宅用法就不一样。道家的说法，人有三魂七魄，天魂上天，地魂入地，人魂绕坟茔。\u003c/p\u003e\u003cp\u003e昨天有易友说到翻卦按后天八卦顺时针推的办法，这个是每卦要死背口诀的，费力不讨好。用易也要与时俱进，比如四柱八字根本不用掐指去算了，用个App一秒就搞定还不出错，但背后的原理还是要先弄懂。\u003c/p\u003e\u003cp\u003e九星翻卦，有人说阴宅用小游年，阳宅用大游年，两者九星顺序完全不同，小游年顺序是贪巨禄文廉武破，大游年是贪廉武文禄巨破。乍一看互相矛盾，阴阳理解透了就不矛盾，当然河洛八卦装在胸中才能了悟。\u003c/p\u003e\u003cp\u003e首先建立个三才观念，上爻为天，中爻为人，下爻为地。左辅右弼两辅星在伏位当然算吉星，其它三吉星是贪、巨、武。\u003c/p\u003e\u003cp\u003e1、首先来理解贪狼星，不管翻掌翻卦，第一肯定起贪，也就是八卦上爻先变。上爻代表天，上天有好生之德，所以上爻变就是生气。\u003c/p\u003e\u003cdiv class\u003d\"pgc-img\"\u003e\u003cimg src\u003d\"https://p3.pstatp.com/large/pgc-image/68bc633679f84d56bb43ca175b019d6a\" img_width\u003d\"798\" img_height\u003d\"640\" inline\u003d\"0\" alt\u003d\"如何快速记忆九星翻卦？\" onerror\u003d\"javascript:errorimg.call(this);\"\u003e\u003c/div\u003e\u003cp\u003e上爻阴阳互变就是四象加上爻，所以八卦中乾兑、离震、巽坎、艮坤两两互翻，其实就是根于四象的四对，这就叫同气连枝。对于卦数，用河图数理就更容易理解了\u003c/p\u003e\u003cdiv class\u003d\"pgc-img\"\u003e\u003cimg src\u003d\"https://p3.pstatp.com/large/pgc-image/1e87b85e9f4048c8b65c713880c70f89\" img_width\u003d\"400\" img_height\u003d\"400\" inline\u003d\"0\" alt\u003d\"如何快速记忆九星翻卦？\" onerror\u003d\"javascript:errorimg.call(this);\"\u003e\u003c/div\u003e\u003cp\u003e一六同宗不就是坤艮互翻为贪嘛，二七为朋不就是巽坎互翻为贪嘛，其它两对乾兑、离震也一样。所以八卦起贪就是先天之合。胸中有河洛八卦还用背吗？任何一卦的贪狼星在哪一看卦就知道了。\u003c/p\u003e\u003cp\u003e2、第二变的是中爻，相当于上中爻都变了，小游年起的是巨门天医星，大游年起的是廉贞星，完全不一样了，这是为什么呢？还是从卦来理解，天道主生，人随天变，人会安而无危，危而有救，所以叫天医，对应八卦就是乾震、坤巽、艮坎、兑离两两互翻，这是小游年法的理解。\u003c/p\u003e\u003cp\u003e但是用在阳宅大游年定吉凶位时，为什么起的是廉贞星呢？因为地道好杀，三爻里面中上爻已变，人随天走，下爻却未动，就如现实中的小三一样，必定会嫉恨。人随天走，地道就放五鬼，所以这个方位对人是相当不利的，当此卦定吉凶方位时就是凶方了。易经讲时与位，讲阴阳，用在阴宅小游年是天医，用在阳宅方位就是五鬼凶方。\u003c/p\u003e\u003cp\u003e3、第三变是下爻变，这样天地人三爻全变了。小游年法起的是禄存星，三爻全变，就叫绝体，什么都没啦，是凶星，这好理解。为什么阳宅大游年起的是武曲，是颗吉星呢？有句话说：跑得了和尚跑不了庙，即使庙倒了，只要屋基还在，重新还可起新庙。放在阳宅就是这个意思，推到重来建新房，所以小游年阳宅起武曲星，是个吉星吉位，此卦位叫延年，是不是很恰当而且很有意思？\u003c/p\u003e\u003cp\u003e先前说生气是先天之合，那么延年就是后天之合，实际上乾坤、震巽、艮兑、离坎四对卦之间互翻。\u003c/p\u003e\u003cdiv class\u003d\"pgc-img\"\u003e\u003cimg src\u003d\"https://p3.pstatp.com/large/pgc-image/1b427edcdf844e5cad5a2172a540acb2\" img_width\u003d\"640\" img_height\u003d\"806\" inline\u003d\"0\" alt\u003d\"如何快速记忆九星翻卦？\" onerror\u003d\"javascript:errorimg.call(this);\"\u003e\u003c/div\u003e\u003cp\u003e看上图，很好记忆，就是先天八卦两两相对，每对互翻的卦数相加是十，也就是合十，乾九合坤一，震八合巽二，艮六合兑四，坎七合离三，对应洛书之数就叫后天之合，延年的意思也可这样理解。\u003c/p\u003e\u003cp\u003e4、第四变，变得是中爻，这样乾离、坤坎、震兑、艮巽四对卦互翻。在三爻全变的基础上再变中爻，相对原卦来说，中爻未变，上下爻变了，此卦变大、小游年都起的是文昌星。天地都变了，只有人在，也是孤魂野鬼飘飘荡荡，居无定所，所以叫游魂，在阳宅大游年中也叫六煞。玩过游戏的都知道，凡属魂类的精神值都很高，所以是文昌星，对学业有利。在阳宅中虽然是六煞，由于思想灵魂容易交融，有利于交友谈爱，在阳宅中属于桃花位，此位旺桃花。\u003c/p\u003e\u003cp\u003e5、第五变，再变上爻，相对原卦来说，就是变了下爻。这样乾巽、坤震、艮离、坎兑四对卦互翻。阴宅小游年起的是廉贞星，阳宅大游年起的是禄存星，变下爻，天、人还在，地变了，地变了就不得了，地道好杀，地动山摇，所以在小游年中就叫五鬼，在大游年中叫祸害，就是凶星。\u003c/p\u003e\u003cp\u003e6、第六变，再变中爻，相对原卦来说就是中下爻变了，这样乾艮、坤兑、震坎、离巽四对卦互翻。天没变，中下爻变了，人随地变，种瓜得瓜种豆得豆，所以有福报，在小游年中起武曲星叫福德。在阳宅中大游年中，人地变了，天没变，上天佑宅所以起的是巨门星，叫天医，这在阳宅是个吉位，又是财位又是健康位。\u003c/p\u003e\u003cp\u003e福德也好，天医也好，按卦数来说，每对卦是合五之数，乾九合艮六，坤一合兑四，坎七合震八，离三合巽二，阳卦合十五取五，阴卦合五之数。这样又好记了。\u003c/p\u003e\u003cp\u003e7、第七变，再变下爻，这样乾离、坤坎、艮巽、震兑四对卦互翻，相对于原卦来说，上下爻没变，中爻变了，说明天地还在，人没了，所以大、小游年都是起破军星，人没有当然叫绝命。大小游年皆布凶星。\u003c/p\u003e\u003cp\u003e8、第八变再变中爻，跟原卦一样，就回到伏位的左辅右弼星了。\u003c/p\u003e\u003cp\u003e河洛八卦记心中，再加上三才的理解，能背下纳甲，是不是什么风水理论都能看懂都能用？如果要背口诀的话，光阳宅大游年按后天八卦顺时钟推的口诀都保证背得你头晕脑涨，比如第一句“乾六天五祸绝延生”弄懂了意思也容易背错。按我的方法用后天八卦往九宫方位一布，就知道哪是吉凶星方位了。香港风水师对阳宅最看重的是天医、六煞、五鬼位，即财位、桃花位、病位。\u003c/p\u003e\u003c/div\u003e",
    "source": "壹圆文化",
    "comment_count": 92,
    "logo_show_strategy": "normal",
    "hupu_content_image_urls": [
      ""
    ],
    "creator_uid": 5442441065
  },
  "success": true
}