{
  "_ck": {},
  "data": {
    "detail_source": "壹圆文化",
    "media_user": {
      "screen_name": "壹圆文化",
      "no_display_pgc_icon": false,
      "avatar_url": "https://p3.pstatp.com/thumb/ff4c0000329fa7e5df8e",
      "id": "1617719604580359",
      "user_auth_info": {
        "auth_type": "0",
        "other_auth": {
          "interest": "优质文化领域创作者"
        },
        "auth_info": "建筑公司总经理 优质文化领域创作者"
      }
    },
    "publish_time": 1554740533,
    "hotwords": [
      {
        "stress_type": 0,
        "hot_word": "录明星整容视频勒索"
      },
      {
        "stress_type": 1,
        "hot_word": "宁静再演孝庄"
      },
      {
        "stress_type": 0,
        "hot_word": "日常佩戴13公斤黄金"
      },
      {
        "stress_type": 0,
        "hot_word": "中国化工集团被约谈"
      },
      {
        "stress_type": 0,
        "hot_word": "医生用筷子紧急救人"
      },
      {
        "stress_type": 1,
        "hot_word": "黄渤回应女版黄渤"
      },
      {
        "stress_type": 1,
        "hot_word": "贾跃亭股份被冻结"
      },
      {
        "stress_type": 1,
        "hot_word": "买老鼠夹送香肠"
      }
    ],
    "title": "青囊经一：阴阳二气，天地化始",
    "url": "http://toutiao.com/group/6677482371689742851/",
    "high_quality_flag": "0",
    "impression_count": "8403",
    "is_original": true,
    "is_pgc_article": true,
    "content": "\u003cdiv\u003e\u003cp\u003e从本文开始写《青囊经》的感悟。明未清初堪舆家蒋大鸿说：“通三才之道曰儒，故天官地理皆学士家穷理之本业，而象纬之学正三统、测灾祥属有国家者之事，独地理为养生送死，生民日用所急，孝子慈孙尤不可以不谨。”因此地理、风水在民间有相当深厚的基础。\u003c/p\u003e\u003cp\u003e郭璞在《葬书》中说：“葬者，乘生气也。生气即一元运行气，在天则周流六虚，在地则发生万物。一气分阴阳，析而为五行。五气行乎地中，发而生乎万物。人受体于父母，本骸得气，遗体受荫。心为气之主，情通则气亦通，义绝则应亦绝。父母子孙，本同一气，气感而应，鬼福及人。”看来，天地有阴阳交感，人也有阴阳交感。\u003c/p\u003e\u003cp\u003e《青囊经》分上、中、下卷，其实也就短短四百字，如果能悟透，天地阴阳、河洛八卦能得心应手。如果一路看我文章过来的，能发现《青囊经》字字有落处，句句符合河图、洛书、五行、八卦。我们先来看前几句：\u003c/p\u003e\u003cp\u003e\u003cstrong\u003e经曰：天尊地卑，阳奇阴偶。一六共宗，二七同道，三八为朋，四九为友，五十同途。阖辟奇偶，五兆生成。\u003c/strong\u003e\u003c/p\u003e\u003cp\u003e解读上段经文：初一看，似有《易传》先天八卦的句子，中间几句明显是河图，后面一句又似五行。蒋大鸿说，整个《青囊经》的上卷是以无形之气为天地之始，而推原道之所从来也。夫阳气属天实兆于地之中，圣人作《易》以明天地之道，皆言阴阳之互为其根者而已。\u003c/p\u003e\u003cp\u003e卦生于数，我们先立先天八卦再反溯回去，先天八卦见下图\u003c/p\u003e\u003cdiv class\u003d\"pgc-img\"\u003e\u003cimg src\u003d\"https://p3.pstatp.com/large/pgc-image/ee066112a9bf44ba90da4eeeca6d5a13\" img_width\u003d\"719\" img_height\u003d\"640\" inline\u003d\"0\" alt\u003d\"青囊经一：阴阳二气，天地化始\" onerror\u003d\"javascript:errorimg.call(this);\"\u003e\u003c/div\u003e\u003cp\u003e从上图看是天地定位，上下攸分，清阳升为天，曰尊。浊阴降为地，曰卑。阳为气，气在形之前，故得数为奇。阴属形，形居气后，因其续成，故得数为偶。这样得天一地二，天三地四，天五地六，天七地八，天九地十。\u003c/p\u003e\u003cp\u003e一六共宗，二七同道，三八为朋，四九为友，五十同途。这说的是阴阳互根，卦与卦、数与数都是同气连枝，一脉相生而出，下图先天八卦横图就是卦数生成之序。卦爻由下向上生成。\u003c/p\u003e\u003cdiv class\u003d\"pgc-img\"\u003e\u003cimg src\u003d\"https://p3.pstatp.com/large/pgc-image/ab9db23c645a4784b39ab1ef34d859ed\" img_width\u003d\"640\" img_height\u003d\"912\" inline\u003d\"0\" alt\u003d\"青囊经一：阴阳二气，天地化始\" onerror\u003d\"javascript:errorimg.call(this);\"\u003e\u003c/div\u003e\u003cp\u003e一六坤艮同根于太阴再分阴阳。二七巽坎同根于少阳再分阴阳。三八同根于少阴再分阴阳。四九同根于太阳再分阴阳。\u003c/p\u003e\u003cp\u003e把阳仪中的卦与数布在左上，阴仪中的卦与数布在右下，规而成圆则成先天八卦。我们再回到第一张图，规而成圆后卦卦相对，数数相对。看第一图可知，相对之数合为十数，即卦之数合十。乾三连，坤六断，相对之卦的卦画合为九，每对皆如此。\u003c/p\u003e\u003cp\u003e一六同宗，一为道之宗，六为形之祖。一二三四五为生数，六七八九十为成数。一为生数之始，六为成数之始。既然是生数、成数。按河图之数一套就严丝合缝了。\u003c/p\u003e\u003cdiv class\u003d\"pgc-img\"\u003e\u003cimg src\u003d\"https://p3.pstatp.com/large/pgc-image/b3a2e8d8291c4dc1b2d31928d35f5f68\" img_width\u003d\"640\" img_height\u003d\"1002\" inline\u003d\"0\" alt\u003d\"青囊经一：阴阳二气，天地化始\" onerror\u003d\"javascript:errorimg.call(this);\"\u003e\u003c/div\u003e\u003cp\u003e用卦数按河图数位一套，则四方四象即成，中五也立极而临制四方。所以相应卦数在河图四方和中宫位阴阳同气连枝成一对。天之五气兆于地之五形。在先天八卦则是依次相挨。\u003c/p\u003e\u003cp\u003e我在以前中国算筹的文章中说过。五为小成之数，十为大成之数，数在五开始就有阴阳转换。这里就涉及到一个地理中比较重要的知识点。清代堪舆家张心言认为：在九运中，坤巽离兑主一二三四运，艮坎震乾主六七八九运。凡龙与水对或水与水对，主五黄运。这就是八卦合九运之法。\u003c/p\u003e\u003cp\u003e限于篇幅，下篇文章再继续解读上卷。\u003c/p\u003e\u003c/div\u003e",
    "source": "壹圆文化",
    "comment_count": 103,
    "logo_show_strategy": "normal",
    "hupu_content_image_urls": [
      ""
    ],
    "creator_uid": 5442441065
  },
  "success": true
}