{
  "_ck": {},
  "data": {
    "detail_source": "壹圆文化",
    "media_user": {
      "screen_name": "壹圆文化",
      "no_display_pgc_icon": false,
      "avatar_url": "https://p3.pstatp.com/thumb/ff4c0000329fa7e5df8e",
      "id": "1617719604580359",
      "user_auth_info": {
        "auth_type": "0",
        "other_auth": {
          "interest": "优质文化领域创作者"
        },
        "auth_info": "建筑公司总经理 优质文化领域创作者"
      }
    },
    "publish_time": 1558872082,
    "hotwords": [
      {
        "stress_type": 0,
        "hot_word": "录明星整容视频勒索"
      },
      {
        "stress_type": 1,
        "hot_word": "宁静再演孝庄"
      },
      {
        "stress_type": 0,
        "hot_word": "日常佩戴13公斤黄金"
      },
      {
        "stress_type": 0,
        "hot_word": "中国化工集团被约谈"
      },
      {
        "stress_type": 0,
        "hot_word": "医生用筷子紧急救人"
      },
      {
        "stress_type": 1,
        "hot_word": "黄渤回应女版黄渤"
      },
      {
        "stress_type": 1,
        "hot_word": "贾跃亭股份被冻结"
      },
      {
        "stress_type": 1,
        "hot_word": "买老鼠夹送香肠"
      }
    ],
    "title": "论二十四山逐字阴差阳错",
    "url": "http://toutiao.com/group/6695246751617516043/",
    "high_quality_flag": "0",
    "impression_count": "28287",
    "is_original": true,
    "is_pgc_article": true,
    "content": "\u003cdiv\u003e\u003cp\u003e前面文章中，有易友评论说出不出卦无所谓，阴差阳错不要紧，并举例说明阴差阳错照样发。我觉得还是有必要修正一下这样的说法。\u003c/p\u003e\u003cp\u003e有歌曰：“\u003cstrong\u003e阴阳差错，其祸无穷。审龙如此，观水亦同。配合无谬，运到兴隆。阳顺阴逆，以窥化工。\u003c/strong\u003e”其中“化工”二字，大家可以看看邵雍的邵子神数就明白。\u003c/p\u003e\u003cp\u003e《都天宝照经》曰：\u003cstrong\u003e“若是阳差与阴错，纵吉星辰发不长，一节吉龙一代发，如逢杂乱便参商”。\u003c/strong\u003e因此我们应该知道，阴差阳错不仅仅指龙、水方位的差错，同样挨星之气的差错。\u003c/p\u003e\u003cp\u003e那到底什么是阴差阳错呢？“阴差”指癸丑、丁未、乙辰、辛戌之类。“阳错”指亥壬、寅甲、巳丙、申庚之类。\u003c/p\u003e\u003cdiv class\u003d\"pgc-img\"\u003e\u003cimg src\u003d\"https://p3.pstatp.com/large/pgc-image/e971d8517e014c1aae8b5225f3e3f80e\" img_width\u003d\"733\" img_height\u003d\"640\" inline\u003d\"0\" alt\u003d\"论二十四山逐字阴差阳错\" onerror\u003d\"javascript:errorimg.call(this);\"\u003e\u003c/div\u003e\u003cp\u003e上述阴差八条龙肯定不能用。阳错八条也是出卦之龙，但此八条是八神，能合河图四象，暂时可用，久之也会出问题。\u003c/p\u003e\u003cp\u003e从挨星来说，每运有当旺的一卦，如果所收的龙、向、水不在当旺，而在衰死煞的卦，就是出卦，就会败绝。\u003c/p\u003e\u003cp\u003e其实三元风水照样有这样的规定。立向之兼与不兼或兼左兼右，当视山川形势，应直达者下卦，应补救者起星，要乘时得令，合生旺之局为依归。\u003c/p\u003e\u003cdiv class\u003d\"pgc-img\"\u003e\u003cimg src\u003d\"https://p3.pstatp.com/large/pgc-image/bad14b55690b44ab995aaff70d84857b\" img_width\u003d\"848\" img_height\u003d\"640\" inline\u003d\"0\" alt\u003d\"论二十四山逐字阴差阳错\" onerror\u003d\"javascript:errorimg.call(this);\"\u003e\u003c/div\u003e\u003cp\u003e《宝照经》曰：子字出脉子字寻，莫教差错丑与壬。坎宫“壬子癸”三山，壬为地，子为天为父母，癸为人。子癸同阴，子字出脉转癸可用，转壬字就算阴阳差错。丑字就出卦，同一卦都不能阴阳差错，何况出卦？可见三元更为严格。\u003c/p\u003e\u003cp\u003e造成阴差阳错具体会怎么样？本文就采用蒋大鸿《古镜歌》中的“辨二十四山逐位阴阳差错”。我逐句来解读一下。\u003c/p\u003e\u003cp\u003e壬子癸中原富贵，亥来女子死期压（壬亥）；左边丑字最无情，一到宫中男嗣乏（癸丑）。说的是坎卦壬子癸三山，右杂亥伤女，左杂丑伤男。纵有富贵也损财损丁。\u003c/p\u003e\u003cp\u003e艮宫饱满足丁财，如遇参差使致灾；莫谓文章癸到艮，一逢癸位贱淫胎（丑癸）；左邻甲字贫穷子，出煞收山宜剪裁（寅甲）。说的是艮卦丑艮寅三山，右杂癸则出淫贱之人，左杂甲则贫穷。\u003c/p\u003e\u003cp\u003e甲卯乙中多富贵，合用巽卦富多饶；两宫亦有一字诀，右杂寅宫妇女夭（甲寅、乙辰）；左逢丙位财先损，发福虽多也虑凋（巳丙、乙辰）。说的是震宫和巽宫可以合用，两宫间杂得越多越美，但注意中间乙辰还是不能相杂。两宫左杂丙则伤财，当官则降级。右杂寅则伤女。\u003c/p\u003e\u003cp\u003e莫谓丁行坤位美，一通未位子先忧（丁未）；如逢巳水女愁死，一遇兔龙自相矛（丙巳）。说的是离卦丙午丁三山，左杂未则伤男，右杂巳则伤女。\u003c/p\u003e\u003cp\u003e坤宫得运丁财足，一气清纯福始悠；如若庚来财先损（申庚），一逢丁位贱无羞（丁未）。说的是坤卦申坤未三山，带庚损财，带丁致贱。\u003c/p\u003e\u003cp\u003e兑乾双卦本同体，夫妇琴和乐唱随；右遇壬方流水到，生宫虽盛当中衰；右临申位流神至，断定妻奴要见危。逐字排来逐字转，挨星一诀镜中窥。说的是乾兑两卦同元通气，两宫间可以夹杂，但除辛戌外。两宫左边带申伤女，右边带壬破财。\u003c/p\u003e\u003cp\u003e经过以上的分析，各位易友明白了出卦的后果了吧。三元兼向就更严格了。\u003c/p\u003e\u003c/div\u003e",
    "source": "壹圆文化",
    "comment_count": 103,
    "logo_show_strategy": "normal",
    "hupu_content_image_urls": [
      ""
    ],
    "creator_uid": 5442441065
  },
  "success": true
}