{
  "_ck": {},
  "data": {
    "detail_source": "壹圆文化",
    "media_user": {
      "screen_name": "壹圆文化",
      "no_display_pgc_icon": false,
      "avatar_url": "https://p3.pstatp.com/thumb/ff4c0000329fa7e5df8e",
      "id": "1617719604580359",
      "user_auth_info": {
        "auth_type": "0",
        "other_auth": {
          "interest": "优质文化领域创作者"
        },
        "auth_info": "建筑公司总经理 优质文化领域创作者"
      }
    },
    "publish_time": 1561458290,
    "hotwords": [
      {
        "stress_type": 0,
        "hot_word": "录明星整容视频勒索"
      },
      {
        "stress_type": 1,
        "hot_word": "宁静再演孝庄"
      },
      {
        "stress_type": 0,
        "hot_word": "日常佩戴13公斤黄金"
      },
      {
        "stress_type": 0,
        "hot_word": "中国化工集团被约谈"
      },
      {
        "stress_type": 0,
        "hot_word": "医生用筷子紧急救人"
      },
      {
        "stress_type": 1,
        "hot_word": "黄渤回应女版黄渤"
      },
      {
        "stress_type": 1,
        "hot_word": "贾跃亭股份被冻结"
      },
      {
        "stress_type": 1,
        "hot_word": "买老鼠夹送香肠"
      }
    ],
    "title": "如何推演玄空风水的金龙水口",
    "url": "http://toutiao.com/group/6706006865081270795/",
    "high_quality_flag": "0",
    "impression_count": "11535",
    "is_original": true,
    "is_pgc_article": true,
    "content": "\u003cdiv\u003e\u003cp\u003e首先声明，我最近几篇文章写的是曾怀玉的玄空法鉴理论，传自莲池先生的先天之学和玄空秘法。这种理论和谈养吾的玄空六法一样，在市面上很少流传。不象沈氏玄空一样流传广泛，用者众多。但是我觉得这两种理论都非常贴近河图、洛书以及先、后天八卦的旨意。符合古法玄空秘诀，两者立论都在两元八运和玄空六法。\u003c/p\u003e\u003cp\u003e水流湿，火就燥。云从龙，风从虎。说的是同声相应，同气相求。有金龙，就要有水口。有天地，也要阴阳交媾。老对老，少对少，一阴一阳之谓道。易者，其大无外，其小无内。太极与玄空，二者一，一者二的关系。太极讲两仪、四象、八卦。玄空则八卦已成，有方有体。天心正运，有其中，然后有其外。中而无八卦，而太极不成。外而无太极，则玄空不立。未发者为太极，已发者为玄空。\u003c/p\u003e\u003cp\u003e前面文章先天八卦配九星，阴阳交媾挨到二十四山。内层先天主水，外层后天主气。同声相应，同气相求。\u003c/p\u003e\u003cdiv class\u003d\"pgc-img\"\u003e\u003cimg src\u003d\"https://p3.pstatp.com/large/pgc-image/fbf0bfabfbaa4df39049cbeaebb4a310\" img_width\u003d\"640\" img_height\u003d\"640\" inline\u003d\"0\" alt\u003d\"如何推演玄空风水的金龙水口\" onerror\u003d\"javascript:errorimg.call(this);\"\u003e\u003cp class\u003d\"pgc-img-caption\"\u003e\u003c/p\u003e\u003c/div\u003e\u003cp\u003e看上图，比如，天卦坎水旺于上元，地卦子卯未龙山应之而旺（同为禄存），地户巳山同旺。天卦离水旺于下元，地卦丑午酉应之而旺（同为右弼），天门亥山同旺。同理，天卦震水旺于上元，地卦甲癸申应之而旺（同为贪狼），地户巽山同旺。\u003c/p\u003e\u003cp\u003e通过元运八星（除去廉贞五在中）的同气相求。可以将二十四山分成六龙。二十四山按八星分类成下图。\u003c/p\u003e\u003cdiv class\u003d\"pgc-img\"\u003e\u003cimg src\u003d\"https://p3.pstatp.com/large/pgc-image/1dc7f01bcdc248d6b4bccab18403a511\" img_width\u003d\"788\" img_height\u003d\"640\" inline\u003d\"0\" alt\u003d\"如何推演玄空风水的金龙水口\" onerror\u003d\"javascript:errorimg.call(this);\"\u003e\u003cp class\u003d\"pgc-img-caption\"\u003e\u003c/p\u003e\u003c/div\u003e\u003cp\u003e看上图，会发现跟替卦口诀还是有所区别。上图说的是元运同旺，朱雀发源生旺气，脉来对面是真龙。元运同旺，二十四山如先天八卦对宫相配。先天震巽、坎离、艮兑相配。后天则甲癸申巽(上元龙、上贪水）配寅丁庚乾（中元龙、中辅水），子卯未巳（上元龙、上禄水）配午酉丑亥（下元龙、下弼水），坤壬乙辰（上元龙、下巨水）配艮丙辛戌（下元龙、下破水）。长对长，少对少，夫妇正配。\u003c/p\u003e\u003cp\u003e金龙有了，水口方位如何推算呢？首先按洛书九宫来对应先天八卦，如下图。当元运星入当宫。\u003c/p\u003e\u003cdiv class\u003d\"pgc-img\"\u003e\u003cimg src\u003d\"https://p3.pstatp.com/large/pgc-image/ceaed2d748f149b380ac4ef707a88a29\" img_width\u003d\"838\" img_height\u003d\"640\" inline\u003d\"0\" alt\u003d\"如何推演玄空风水的金龙水口\" onerror\u003d\"javascript:errorimg.call(this);\"\u003e\u003cp class\u003d\"pgc-img-caption\"\u003e\u003c/p\u003e\u003c/div\u003e\u003cp\u003e上文说过，水口随金龙而动。金龙动处，山即乾，向即坤。三阴脱尽是金龙，其它六卦随之而变，变卦后的兑巽卦方位就是当元的水口位，不当元时，以震艮为水口。下面以八运来举例推演。\u003c/p\u003e\u003cp\u003e元运在八宫，这是先天八卦震卦的方位（后天为艮卦）。以先天八卦为基准。三阴脱尽，震卦变中上爻成乾卦。其它各卦也随之而变。比如离卦变中上爻成兑卦。坤卦变中上爻成巽卦。各宫先天八卦变卦后成下图。\u003c/p\u003e\u003cdiv class\u003d\"pgc-img\"\u003e\u003cimg src\u003d\"https://p3.pstatp.com/large/pgc-image/4466140ed7eb42488e847ce6b72e5a7d\" img_width\u003d\"1080\" img_height\u003d\"1081\" inline\u003d\"0\" alt\u003d\"如何推演玄空风水的金龙水口\" onerror\u003d\"javascript:errorimg.call(this);\"\u003e\u003cp class\u003d\"pgc-img-caption\"\u003e\u003c/p\u003e\u003c/div\u003e\u003cp\u003e注意上图，内圈八卦为先天卦位，比如震在八宫。外圈八卦为随金龙变后的变卦。变卦后发现兑卦在三宫，巽卦在一宫，这两个宫位就是当元的水口。变卦后的震卦在九宫，艮卦在七宫，这两个是不当元水口。\u003c/p\u003e\u003cp\u003e八宫为后天艮卦位，管丑艮寅三山。再回到三元风水理论，每卦上爻为地元，中爻为天元，下爻为人元。丑山未向对应上爻。先天震巽上爻变。震卦变离，所以天星为右弼。巽上爻变为坎，龙来到坎，天星为禄存。金龙动，查上图本元，兑卦在三宫，兑上爻是甲山，巽上爻在壬。所以丑山未向本元水口在甲和壬。不当元的水口在七宫艮的上爻庚和九宫震的上爻丙。\u003c/p\u003e\u003cp\u003e艮山坤向，天元卦变中爻，先天震变中爻成为兑，天星为破军。先天巽变中爻成为艮，金龙到艮，天星为巨门。金龙动，查本元水口，兑中爻在三宫对应卯山，巽中爻在一宫对应子。所以艮山坤向本元水中在卯和子。与此同理，不当元水口在午和酉，为外元水口。\u003c/p\u003e\u003cp\u003e寅山申向，人元卦变下爻，先天震变下爻为坤，坤为纯阴只能变对宫巽卦，天星为左辅。巽卦变下爻为乾，纯阳变对宫震，所以金龙来到震，天星为贪狼。金龙动，查本元水口，兑卦下爻为三宫乙。巽卦下爻在一宫癸。所以当元寅山申向水口在乙和癸。同理，不当元水口在九宫丁和七宫的辛。\u003c/p\u003e\u003cp\u003e所以每个元运的金龙查清楚了，金龙水口也查清楚了。水口一卦分两局，左水来为顺局，则用兑，兑反则为巽，右水来则为逆局。出元则用震为顺局，震反为艮，所以逆局用艮。四正之兑在右，四维之兑在左。\u003c/p\u003e\u003c/div\u003e",
    "source": "壹圆文化",
    "comment_count": 131,
    "logo_show_strategy": "normal",
    "hupu_content_image_urls": [
      ""
    ],
    "creator_uid": 5442441065
  },
  "success": true
}