{
  "_ck": {},
  "data": {
    "detail_source": "壹圆文化",
    "media_user": {
      "screen_name": "壹圆文化",
      "no_display_pgc_icon": false,
      "avatar_url": "https://p3.pstatp.com/thumb/ff4c0000329fa7e5df8e",
      "id": "1617719604580359",
      "user_auth_info": {
        "auth_type": "0",
        "other_auth": {
          "interest": "优质文化领域创作者"
        },
        "auth_info": "建筑公司总经理 优质文化领域创作者"
      }
    },
    "publish_time": 1569142741,
    "hotwords": [
      {
        "stress_type": 0,
        "hot_word": "录明星整容视频勒索"
      },
      {
        "stress_type": 1,
        "hot_word": "宁静再演孝庄"
      },
      {
        "stress_type": 0,
        "hot_word": "日常佩戴13公斤黄金"
      },
      {
        "stress_type": 0,
        "hot_word": "中国化工集团被约谈"
      },
      {
        "stress_type": 0,
        "hot_word": "医生用筷子紧急救人"
      },
      {
        "stress_type": 1,
        "hot_word": "黄渤回应女版黄渤"
      },
      {
        "stress_type": 1,
        "hot_word": "贾跃亭股份被冻结"
      },
      {
        "stress_type": 1,
        "hot_word": "买老鼠夹送香肠"
      }
    ],
    "title": "如何用玄空六法来对阴阳宅的兴旺休咎进行断验？",
    "url": "http://toutiao.com/group/6739322685374874126/",
    "high_quality_flag": "0",
    "impression_count": "13431",
    "is_original": true,
    "is_pgc_article": true,
    "content": "\u003cdiv\u003e\u003cp\u003e玄空六法的专栏写完了，最后写一篇玄空六法的断验用法，对现有的阴、阳宅的过去、现在、将来之兴盛休咎进行断验。\u003c/p\u003e\u003cp\u003e文章之前，先回答两个易友的提问，私信确实答复不便。一个问四象，一个问八卦五行，这里统一回答。\u003c/p\u003e\u003cp\u003e太极生两仪，两仪生四象，四象生八卦。四象很简单。两阳爻就是太阳，两阴爻就是太阴。从下到上，阳爻上面加一阴爻就是少阴，阴爻上面加一阳爻就是少阳。\u003c/p\u003e\u003cdiv class\u003d\"pgc-img\"\u003e\u003cimg src\u003d\"https://p3.pstatp.com/large/pgc-image/5e4ca3d8824e49cbab785f4e984d1aee\" img_width\u003d\"640\" img_height\u003d\"912\" inline\u003d\"0\" alt\u003d\"如何用玄空六法来对阴阳宅的兴旺休咎进行断验？\" onerror\u003d\"javascript:errorimg.call(this);\"\u003e\u003cp class\u003d\"pgc-img-caption\"\u003e\u003c/p\u003e\u003c/div\u003e\u003cp\u003e四象按方位该怎么布呢？有的人按河图，有的人按洛书。应该按河图，河图为本嘛。\u003c/p\u003e\u003cp\u003e西边四九金有一为太阳，北边一六水有四为太阴，东边三八木有二为少阴，南边二七火有二为少阳。同时也说明五行在河图上布置是木东、火南、金西、水北。\u003c/p\u003e\u003cdiv class\u003d\"pgc-img\"\u003e\u003cimg src\u003d\"https://p3.pstatp.com/large/pgc-image/ae8f02cca14c4f5aa35f634853b4ea7c\" img_width\u003d\"640\" img_height\u003d\"1038\" inline\u003d\"0\" alt\u003d\"如何用玄空六法来对阴阳宅的兴旺休咎进行断验？\" onerror\u003d\"javascript:errorimg.call(this);\"\u003e\u003cp class\u003d\"pgc-img-caption\"\u003e\u003c/p\u003e\u003c/div\u003e\u003cp\u003e可能有的朋友又有疑问了，什么叫四九金中有一啊？四加一为五，五是小成之数，九加一是十，十是大成之数。\u003c/p\u003e\u003cp\u003e阴中含阳，阳中含阴，天道循环，走到头就要往回走，数也一样。生数五为大，成数不过十。\u003c/p\u003e\u003cp\u003e四象的数理就在五以内来论，二为少阴，三为少阳，二加三等于五。所以东、南叫木火通明。一为太阳，四为太阴。所以西、北叫金水相成。\u003c/p\u003e\u003cp\u003e以卦来看四象，就是乾兑共一太阳，离震共一少阴，巽坎共一少阳，艮坤共一太阴。知道这个理，你就知道九星翻卦的什么乾兑互翻、坤艮互翻了。\u003c/p\u003e\u003cp\u003e刚才说的都是河图先天之理。先天之阳卦，乾兑离震。先天之阴卦巽坎艮坤。后天之阳卦，乾震坎艮。后天之阴卦，坤巽离兑。\u003c/p\u003e\u003cp\u003e先天为体，后天为用。把河图十字一横的数字九四三八排成左半圆，河图十字一竖的二七六一排成右半圆。这就是洛书。\u003c/p\u003e\u003cp\u003e先天为体，那是规则。后天为用，也要遵守。放在我们二十四山上也要如此。\u003c/p\u003e\u003cdiv class\u003d\"pgc-img\"\u003e\u003cimg src\u003d\"https://p3.pstatp.com/large/pgc-image/b7b3100a63454894afb128460d879373\" img_width\u003d\"3223\" img_height\u003d\"2872\" inline\u003d\"0\" alt\u003d\"如何用玄空六法来对阴阳宅的兴旺休咎进行断验？\" onerror\u003d\"javascript:errorimg.call(this);\"\u003e\u003cp class\u003d\"pgc-img-caption\"\u003e\u003c/p\u003e\u003c/div\u003e\u003cp\u003e二十四山也要遵守四象，木东、火南、金西、水北、中宫土，加上辰戌丑未四季土。除了四方，还有四隅交界怎么办？\u003c/p\u003e\u003cp\u003e所以号称值黄金千两的湖南玄空大卦秘诀本就有相关的规定，艮之寅，兼木；坤之申，兼金，从艮从坤则按土论。巽之辰、巳，兼土、火。乾之戌、亥兼土、水，从巽则以木论，从乾则以金论。这说的是兼向的五行。\u003c/p\u003e\u003cp\u003e学易不容易，没有十年以上功夫，做不到信手拈来。好了，不扯远了，下面回到玄空六法。先回忆一下各运的合十的零正神。\u003c/p\u003e\u003cdiv class\u003d\"pgc-img\"\u003e\u003cimg src\u003d\"https://p3.pstatp.com/large/pgc-image/12e2ef32219542e8a62289012c47b886\" img_width\u003d\"1500\" img_height\u003d\"801\" inline\u003d\"0\" alt\u003d\"如何用玄空六法来对阴阳宅的兴旺休咎进行断验？\" onerror\u003d\"javascript:errorimg.call(this);\"\u003e\u003cp class\u003d\"pgc-img-caption\"\u003e\u003c/p\u003e\u003c/div\u003e\u003cp\u003e一三五七九，天数。二四六八十，地数。阳奇阴偶，阳顺阴逆。四正奇数，旺气居对面。四隅偶数，旺气在本宫。\u003c/p\u003e\u003cp\u003e阳宅连续有人住，阴宅连续有人上香清扫。就有它的兴盛休咎，气运更替。用玄空六法就可以断它的过去、现在、将来。我们举例来说明。\u003c/p\u003e\u003cp\u003e拿本元来说，比如有一山龙，朝南格局，后龙起伏有力，开帐重重，落脉有情，对面朝山挺秀，龙砂作案，虎砂整齐，四边罗城周全，明堂蓄聚，水出坤宫，下砂关收。\u003c/p\u003e\u003cp\u003e此穴建于上元一运（1864-1881），断四运（1930-1954）其休咎如何？我们再来回忆下各运山水雌雄图。\u003c/p\u003e\u003cdiv class\u003d\"pgc-img\"\u003e\u003cimg src\u003d\"https://p3.pstatp.com/large/pgc-image/b36b834c2fd443b0935d681f80471e40\" img_width\u003d\"1500\" img_height\u003d\"822\" inline\u003d\"0\" alt\u003d\"如何用玄空六法来对阴阳宅的兴旺休咎进行断验？\" onerror\u003d\"javascript:errorimg.call(this);\"\u003e\u003cp class\u003d\"pgc-img-caption\"\u003e\u003c/p\u003e\u003c/div\u003e\u003cp\u003e断验如下：形势合局，用也得时，葬下丁财两旺，顺风顺水。\u003c/p\u003e\u003cp\u003e初年发人丁，因为上元一运下葬，正神到山，金龙到向，旺气到对宫，金龙动，山龙旺人丁。朝山挺秀，出贵秀人才。\u003c/p\u003e\u003cp\u003e进入二运（1882-1905），旺气在坤宫本宫，刚好堂局水口在坤宫，又有下砂关收，所以大发其财，离方刚退气，又可兼得二黑之气，所以可以兼发贵秀人才。二运旺才又旺丁。\u003c/p\u003e\u003cp\u003e到四运将近过了七十年，庚午交进四运（1930-1953），午年在南，太岁到向。就表示已经脱气了，几十年兴盛的气象为之一变，状况大不如前。所以四运几十年都不好。\u003c/p\u003e\u003cp\u003e等到了六运（1954-1974），又可以重新大发，财局要比一、二运差，人丁贵秀就差不多。为什么六运又可以发呢？因为六运旺气在乾，和坎龙可以合一六共宗，向上可以合四九同朋。就是暗合些子法了。\u003c/p\u003e\u003cp\u003e上面例子是峦头形势完美。同样是朝南格局，假如水流是对面之玄而出（也算是有情水），但是没有朝山、案山，该怎么断呢？\u003c/p\u003e\u003cp\u003e一运丁财也是两旺，但人才是有秀无贵。二运就变天了，兴旺不长久，进入四运，更是一落千丈。气运如此是因为形气不合法导致的。\u003c/p\u003e\u003cp\u003e同样的朝南格局，假如城门在巽方，断验又不同。一运丁旺财衰，长房最吃亏。二运丁财平平，三运丁旺财退，几十年都不好过。\u003c/p\u003e\u003cp\u003e到了四运，因为旺气到城门，财运勃发，但是易得易失。唯有谨慎，方能注财持久。到了六运，阴阳相乘，丁旺财退。\u003c/p\u003e\u003cp\u003e\u003cstrong\u003e葬着旺龙当代发，葬着平龙发迹迟\u003c/strong\u003e。对风水的断验，就是要看峦头堂局，再推元运气运，形气交感，形气要相合，才有好应验。\u003c/p\u003e\u003c/div\u003e",
    "source": "壹圆文化",
    "comment_count": 136,
    "logo_show_strategy": "normal",
    "hupu_content_image_urls": [
      ""
    ],
    "creator_uid": 5442441065
  },
  "success": true
}