{
  "_ck": {},
  "data": {
    "detail_source": "壹圆文化",
    "media_user": {
      "screen_name": "壹圆文化",
      "no_display_pgc_icon": false,
      "avatar_url": "https://p3.pstatp.com/thumb/ff4c0000329fa7e5df8e",
      "id": "1617719604580359",
      "user_auth_info": {
        "auth_type": "0",
        "other_auth": {
          "interest": "优质文化领域创作者"
        },
        "auth_info": "建筑公司总经理 优质文化领域创作者"
      }
    },
    "publish_time": 1571070947,
    "hotwords": [
      {
        "stress_type": 0,
        "hot_word": "录明星整容视频勒索"
      },
      {
        "stress_type": 1,
        "hot_word": "宁静再演孝庄"
      },
      {
        "stress_type": 0,
        "hot_word": "日常佩戴13公斤黄金"
      },
      {
        "stress_type": 0,
        "hot_word": "中国化工集团被约谈"
      },
      {
        "stress_type": 0,
        "hot_word": "医生用筷子紧急救人"
      },
      {
        "stress_type": 1,
        "hot_word": "黄渤回应女版黄渤"
      },
      {
        "stress_type": 1,
        "hot_word": "贾跃亭股份被冻结"
      },
      {
        "stress_type": 1,
        "hot_word": "买老鼠夹送香肠"
      }
    ],
    "title": "河图洛书数字中的五，还有什么奥秘？",
    "url": "http://toutiao.com/group/6747698336356106764/",
    "high_quality_flag": "0",
    "impression_count": "1049",
    "is_original": true,
    "is_pgc_article": true,
    "content": "\u003cdiv\u003e\u003cp\u003e上篇文章写了“五”这个数字，其中奥妙实在无穷。昨天限于篇幅，没有写完，今天继续。\u003c/p\u003e\u003cp\u003e在各类自然科学中，古天文学和古代数学是发展得最早的古老学科。比如古埃及人通过观察天狼星的升没，来判断尼罗河的泛滥时间。\u003c/p\u003e\u003cp\u003e早在原始社会末期的新石器时代，我国的先人就通过观察北斗七星斗柄的变化和参商星的出没，而定出大致的季节。\u003c/p\u003e\u003cp\u003e在原始社会，人类通过结绳记事和刻木记时。过一天就打个绳结或竹木上刻一道。比如两人约定十天后去打猎，就在竹片上刻上十道，然后分成两片，过一昼夜就划去一道，削完十道就可一同出发了。\u003c/p\u003e\u003cp\u003e长期的观察自然，发现自然规律，慢慢就有了阴阳辨证观念，天象就是直观感受，物的使用又带来数的产生。\u003c/p\u003e\u003cdiv class\u003d\"pgc-img\"\u003e\u003cimg src\u003d\"https://p3.pstatp.com/large/dfic-imagehandler/0be14e26-e4b4-40b1-bcaf-fc6e013fe6fa\" img_width\u003d\"1200\" img_height\u003d\"799\" inline\u003d\"0\" alt\u003d\"河图洛书数字中的五，还有什么奥秘？\" onerror\u003d\"javascript:errorimg.call(this);\"\u003e\u003cp class\u003d\"pgc-img-caption\"\u003e\u003c/p\u003e\u003c/div\u003e\u003cp\u003e我国先人最为聪明，通过仰观天文，俯察地理，画八卦类万物。文明程度在一定历史阶段雄踞世界前列。特别是3到13世纪之间，我国的天文、数学、农业等文明水平达到了西方望尘莫及的高度。\u003c/p\u003e\u003cp\u003e可惜，宋朝理学兴，明朝科举八股文，废除了数学，连观天象推历法这样的事也只能朝廷做，民间私自观天象是要处死的。\u003c/p\u003e\u003cp\u003e所以在明末清初，大概17世纪中叶开始，中国各方面的科学水平就开始落伍了，原因是多方面的，也值得我们去反思。\u003c/p\u003e\u003cp\u003e我们继续讲“五”这个数字。上篇文章讲了五这个数字在河图中的几个功能：一是它是数字的循环周期，所以才有一六共宗等说法；二是讲数字三和二合五，木火通明，四和一合五，金水同源，所以五是小成之数；\u003c/p\u003e\u003cp\u003e三是讲五等于一的平方加二的平方，阳爻用九，九等于五加上二的平方，阴爻用六，六等于五加上一的平方，所以五起阴阳平衡的作用。\u003c/p\u003e\u003cdiv class\u003d\"pgc-img\"\u003e\u003cimg src\u003d\"https://p3.pstatp.com/large/pgc-image/758330f97224467c81bbe7acac43428c\" img_width\u003d\"640\" img_height\u003d\"556\" inline\u003d\"0\" alt\u003d\"河图洛书数字中的五，还有什么奥秘？\" onerror\u003d\"javascript:errorimg.call(this);\"\u003e\u003cp class\u003d\"pgc-img-caption\"\u003e\u003c/p\u003e\u003c/div\u003e\u003cp\u003e在河图中，“五”的功能远远不止这些。首先讲讲五这个数字的第二个来源，就是四加一所得。“四”源于四象，所指四方。\u003c/p\u003e\u003cp\u003e四方中就有一个重要的方位就是“中央”，从而自然变成了“五方”，所以有“中央五方”和“东西南北中”的说法。\u003c/p\u003e\u003cp\u003e据郭沫若先生考证，有数生于手的说法：倒其拇指为一，次指为二，中指为三，无名指为四，一拳为五。古代开蒙，素来有屈指为数的说法，所以有成语“屈指可数”。这是五的第三个来源。\u003c/p\u003e\u003cp\u003e讲完来源，回到河图之数，因为五方在中央，所以“五”这个数字放在中间。后来为什么又会有“中五立极”的说法呢？\u003c/p\u003e\u003cp\u003e我们知道，天象之极在北极，周天所有星辰在北斗七星的带动下围绕它转动。北极星在地轴线上，所以在地球上看北极星永远不动。\u003c/p\u003e\u003cdiv class\u003d\"pgc-img\"\u003e\u003cimg src\u003d\"https://p3.pstatp.com/large/pgc-image/d0fc1893d73a4198839b211842c5223d\" img_width\u003d\"659\" img_height\u003d\"511\" inline\u003d\"0\" alt\u003d\"河图洛书数字中的五，还有什么奥秘？\" onerror\u003d\"javascript:errorimg.call(this);\"\u003e\u003cp class\u003d\"pgc-img-caption\"\u003e\u003c/p\u003e\u003c/div\u003e{!-- PGC_COLUMN --}\u003cp\u003e而“五”在天数一三五七九的中间，而且“五”的数理很奇特，就是五的多少次方，尾数都是五。换句话说，多少个五相乘，尾数都是五，相当于一动不动。因为我们先人只用十进制，任何计算结果都取尾数。\u003c/p\u003e\u003cp\u003e你可能说，一和十也有这样的特性啊？但是一和十在两端，不象北极星一样在中间，所以是中五立极。“五”还有另外一个数理规律。\u003c/p\u003e\u003cp\u003e天数一三五七九奇数为阳，地数二四六八十偶数为阴。五和奇数相乘的结果尾数是五。五和偶数相乘的结果尾数是零，中国人在十进制中没有零，用空位代替，逢十就取一，逢二十就取二。\u003c/p\u003e\u003cp\u003e这样的规律就让我们两个阴阳规律的变化，五乘奇数，结果还是奇数阳。五乘偶数，结果为偶数阴，一奇一偶。\u003c/p\u003e\u003cp\u003e另外更重要的数理规律是，五乘奇数，尾数永远是五，相当于一动不动的数字北极。而五乘偶数的结果，按刚才逢十的取数规则，又会变成一奇一偶，比如十取一，二十取二，三十取三，四十取四。\u003c/p\u003e\u003cp\u003e这样一奇一偶，一阴一阳，一开一关。就是中五立极，临制四方阴阳之数。\u003c/p\u003e\u003cp\u003e其实自然界，有很多跟神秘数字”五“有关的事物，比如五岳、五味、五脏、五花、五趾等，文化和伦理中有五声、五常、五魁首、五行、五蕴等。\u003c/p\u003e\u003cp\u003e易经的象数，你只有在具体使用中，才会发现它的奥妙无穷。\u003c/p\u003e\u003c/div\u003e",
    "source": "壹圆文化",
    "comment_count": 5,
    "logo_show_strategy": "normal",
    "hupu_content_image_urls": [
      ""
    ],
    "creator_uid": 5442441065
  },
  "success": true
}