{
  "_ck": {},
  "data": {
    "detail_source": "壹圆文化",
    "media_user": {
      "screen_name": "壹圆文化",
      "no_display_pgc_icon": false,
      "avatar_url": "https://p3.pstatp.com/thumb/ff4c0000329fa7e5df8e",
      "id": "1617719604580359",
      "user_auth_info": {
        "auth_type": "0",
        "other_auth": {
          "interest": "优质文化领域创作者"
        },
        "auth_info": "建筑公司总经理 优质文化领域创作者"
      }
    },
    "publish_time": 1571200902,
    "hotwords": [
      {
        "stress_type": 0,
        "hot_word": "录明星整容视频勒索"
      },
      {
        "stress_type": 1,
        "hot_word": "宁静再演孝庄"
      },
      {
        "stress_type": 0,
        "hot_word": "日常佩戴13公斤黄金"
      },
      {
        "stress_type": 0,
        "hot_word": "中国化工集团被约谈"
      },
      {
        "stress_type": 0,
        "hot_word": "医生用筷子紧急救人"
      },
      {
        "stress_type": 1,
        "hot_word": "黄渤回应女版黄渤"
      },
      {
        "stress_type": 1,
        "hot_word": "贾跃亭股份被冻结"
      },
      {
        "stress_type": 1,
        "hot_word": "买老鼠夹送香肠"
      }
    ],
    "title": "在河图中，五十被视为太极，为什么洛书却没有十？",
    "url": "http://toutiao.com/group/6747851547155104259/",
    "high_quality_flag": "0",
    "impression_count": "3741",
    "is_original": true,
    "is_pgc_article": true,
    "content": "\u003cdiv\u003e\u003cp\u003e十是个神奇而圆满的数字。《周易启蒙》中说：“河图之\u003cspan\u003e虚五\u003c/span\u003e与十者，太极也。”\u003c/p\u003e\u003cp\u003e十是不是数中的太极，暂且不论。今天说“十”这个数的自然来源和它在河图洛书中奥妙。\u003c/p\u003e\u003cp\u003e中国是世界上最早使用“十进位值制”计数法的国家。逢十则进一，这是怎么来的呢？还是要从原始人类社会时候，人们认识自然规律说起。\u003c/p\u003e\u003cp\u003e成语有“屈指可数”，手指是人类最方便，也是最古老的计数器，而且十指连心。\u003c/p\u003e\u003cp\u003e我们可以想象一下，原始社会，采摘、狩猎得到的成果，掐指数是最原始最方便的。当超过十个指头时该怎么办呢？满十就在绳上打个结，这样逢十就进一了。\u003c/p\u003e\u003cp\u003e然后从头继续掐指往下数。到了十个结，跟指头数一样多了，就换下一条继续打结，千以内的数字就很容易计数了。我们易经的象数，就是远取诸物，近取诸身而得来的。\u003c/p\u003e\u003cdiv class\u003d\"pgc-img\"\u003e\u003cimg src\u003d\"https://p3.pstatp.com/large/dfic-imagehandler/4f12349b-a55a-4240-868f-57cc5f0011a1\" img_width\u003d\"1200\" img_height\u003d\"779\" inline\u003d\"0\" alt\u003d\"在河图中，五十被视为太极，为什么洛书却没有十？\" onerror\u003d\"javascript:errorimg.call(this);\"\u003e\u003cp class\u003d\"pgc-img-caption\"\u003e\u003c/p\u003e\u003c/div\u003e\u003cp\u003e从自然中，我们先人发明了十进制，现在全人类各民族都在使用，多么伟大。其实过去许多民族也用过其它进位制，比如玛雅人用过二十进制。闪族人发明六十进制，后\u003cspan\u003e传至\u003c/span\u003e巴比伦。\u003c/p\u003e\u003cp\u003e十进制中没有零，零是印度人发明的。我们中国人认为，有数就有太极了，有太极就能分阴阳。所以才有天数、地数之分。\u003c/p\u003e\u003cp\u003e在我们中国人看来，十即是零，也是一。一是阳奇，十是阴偶。逢十进一，永远阴中有阳，阳中有阴，数的大小变化就如阴阳消长，但永远没有孤阴寡阳。\u003c/p\u003e\u003cp\u003e十个数就是一个轮回，一个循环周期。就如农作物春夏生长，秋冬收藏一样。一二三四五为生数，六七八九十为成数。生数如息，成数如消。三加二，四加一都合五，五是小成之数。一二三四相加等于十，十是大成之数。\u003c/p\u003e\u003cp\u003e天干周期明确告诉我们，天上存在着一个以十进制为一个循环周期运行的标准程序，比如中医的五运六气，就是讲天气的风、火、热、湿、燥、寒对人体的直接影响。\u003c/p\u003e\u003cdiv class\u003d\"pgc-img\"\u003e\u003cimg src\u003d\"https://p3.pstatp.com/large/dfic-imagehandler/c0b45f17-c2c2-4465-8e61-b05a91b034ad\" img_width\u003d\"1200\" img_height\u003d\"800\" inline\u003d\"0\" alt\u003d\"在河图中，五十被视为太极，为什么洛书却没有十？\" onerror\u003d\"javascript:errorimg.call(this);\"\u003e\u003cp class\u003d\"pgc-img-caption\"\u003e\u003c/p\u003e\u003c/div\u003e\u003cp\u003e众所周知，数字一旦到了十，就要回过头来，从一开始再循环。五是一个数的循环周期，十是阴阳循环的大周期。\u003c/p\u003e\u003cp\u003e我们中国文化，看待任何事物都可以归纳成十指之数来表达。在我们老祖宗眼里，只有阳数九才是最大的，阳数极于九，所以有九五之尊的说法。\u003c/p\u003e\u003cp\u003e在河图中，表达成五十同途之意。在洛书中，五被立为中极，十则虚成周边两两相对，相对两数相加则合十，加上中五，洛书纵横就为十五。\u003c/p\u003e\u003cp\u003e五和十就是数的太极，五的任何次方，尾数都是五，\u003c/p\u003e{!-- PGC_COLUMN --}\u003cp\u003e不动如极，十则虚化成圆，大而无边。二五妙合，就是讲五如直径，一边阴一边阳，合十而范围天地。\u003c/p\u003e\u003cp\u003e十指连心，杭辛斋说：”数由心生“。从十的文字演变中，就可知道其中的象形和\u003cspan\u003e字意\u003c/span\u003e。”十“在甲骨文中是拳头紧握，小臂上举的样子，拳臂成一竖线。\u003c/p\u003e\u003cp\u003e在金文中，十也是一\u003cspan\u003e竖画\u003c/span\u003e，只在中间加一圆点，微鼓的竖线象合住掌形。在小篆中，中间圆点就被拉成一横线，就成了现在的一横一竖的十字。\u003c/p\u003e\u003cdiv class\u003d\"pgc-img\"\u003e\u003cimg src\u003d\"https://p3.pstatp.com/large/pgc-image/1fa331ca38ac4db9849f810e4388b336\" img_width\u003d\"378\" img_height\u003d\"116\" inline\u003d\"0\" alt\u003d\"在河图中，五十被视为太极，为什么洛书却没有十？\" onerror\u003d\"javascript:errorimg.call(this);\"\u003e\u003cp class\u003d\"pgc-img-caption\"\u003e\u003c/p\u003e\u003c/div\u003e\u003cp\u003e古人以一横为数之始，一竖为数之终，终即是始。从文字的演变可知，数的意识确实是从手指头开始的，并且也是和阴阳观念联系在一起的。\u003c/p\u003e\u003cp\u003e为什么又说天之中数为五，十为天的运行周期呢？这主要来源于十这个数字的神话。\u003c/p\u003e\u003cp\u003e十是太阳之果，在史前文化中就有“后羿射日”的传说。神话说天上的扶桑树上有十个太阳，一日在上枝，九日在\u003cspan\u003e下枝\u003c/span\u003e，每天交替值日。最后十日起冲突，被后羿射掉九个。\u003c/p\u003e\u003cdiv class\u003d\"pgc-img\"\u003e\u003cimg src\u003d\"https://p3.pstatp.com/large/dfic-imagehandler/973fbaef-3c7c-40cf-afe6-15221080a63b\" img_width\u003d\"1200\" img_height\u003d\"949\" inline\u003d\"0\" alt\u003d\"在河图中，五十被视为太极，为什么洛书却没有十？\" onerror\u003d\"javascript:errorimg.call(this);\"\u003e\u003cp class\u003d\"pgc-img-caption\"\u003e\u003c/p\u003e\u003c/div\u003e\u003cp\u003e据《左传》的记载，秦汉以前就有“天有十日，人有十等，下所以事上，上所以共神“的说法。\u003c/p\u003e\u003cp\u003e古代人崇拜十这个数字，把它当作神圣符号，以十来象征圆满、完美。所以有”十全十美“的说法。现在也照样沿用，比如十佳、十杰等等。\u003c/p\u003e\u003cp\u003e在我们的人生道路，逢十都有纪念意义。十岁为幼学，二十为弱冠，三十而立，四十不惑，五十知天命，六十花甲而耳顺，七十古来稀，八十称伞寿，九十称鲐背或黄友，百岁称上寿。\u003c/p\u003e\u003cp\u003e民俗中常常逢十庆寿，六十岁后就逢九祝寿。社会生活中，很多事物都是逢十而庆贺。\u003c/p\u003e\u003cp\u003e《说文》中说：”十，数之具也，一（横）为东西，竖为南北，则四方中央备矣。“说明在中国人的观念中，数字中就有方位概念。\u003c/p\u003e\u003cp\u003e十就是十字路口，在我们的人生道路上，很多时候要面临十字路口的选择。\u003c/p\u003e\u003c/div\u003e",
    "source": "壹圆文化",
    "comment_count": 24,
    "logo_show_strategy": "normal",
    "hupu_content_image_urls": [
      ""
    ],
    "creator_uid": 5442441065
  },
  "success": true
}