{
  "_ck": {},
  "data": {
    "detail_source": "壹圆文化",
    "media_user": {
      "screen_name": "壹圆文化",
      "no_display_pgc_icon": false,
      "avatar_url": "https://p3.pstatp.com/thumb/ff4c0000329fa7e5df8e",
      "id": "1617719604580359",
      "user_auth_info": {
        "auth_type": "0",
        "other_auth": {
          "interest": "优质文化领域创作者"
        },
        "auth_info": "建筑公司总经理 优质文化领域创作者"
      }
    },
    "publish_time": 1572246633,
    "hotwords": [
      {
        "stress_type": 0,
        "hot_word": "录明星整容视频勒索"
      },
      {
        "stress_type": 1,
        "hot_word": "宁静再演孝庄"
      },
      {
        "stress_type": 0,
        "hot_word": "日常佩戴13公斤黄金"
      },
      {
        "stress_type": 0,
        "hot_word": "中国化工集团被约谈"
      },
      {
        "stress_type": 0,
        "hot_word": "医生用筷子紧急救人"
      },
      {
        "stress_type": 1,
        "hot_word": "黄渤回应女版黄渤"
      },
      {
        "stress_type": 1,
        "hot_word": "贾跃亭股份被冻结"
      },
      {
        "stress_type": 1,
        "hot_word": "买老鼠夹送香肠"
      }
    ],
    "title": "洛书为用，洛书的数理千变万化",
    "url": "http://toutiao.com/group/6752674634790863368/",
    "high_quality_flag": "0",
    "impression_count": "901",
    "is_original": true,
    "is_pgc_article": true,
    "content": "\u003cdiv\u003e\u003cp\u003e上篇文章从天地自然写了易数，易数不仅仅是易经的工具，更如同是易经的灵魂。\u003c/p\u003e\u003cp\u003e易经六十四卦，每卦六爻，一共384爻。一个朔望月29.53天，阴历闰年13个月就是384天。代表了最大一年的变化。\u003c/p\u003e\u003cp\u003e384又比360公度多24，这又是24的一个用法，它来自哪里呢？它来自八经卦，因为八经卦三爻就够了，每卦重复三爻，八个卦就多了24爻。\u003c/p\u003e\u003cp\u003e多出来的24爻，加上360，就代表置闰的闰年的天数，你看易经的智慧就是这么伟大。\u003c/p\u003e\u003cdiv class\u003d\"pgc-img\"\u003e\u003cimg src\u003d\"https://p3.pstatp.com/large/dfic-imagehandler/a57f0e6a-eee9-4d38-abbd-a8eb10b1c1ac\" img_width\u003d\"1024\" img_height\u003d\"1024\" inline\u003d\"0\" alt\u003d\"洛书为用，洛书的数理千变万化\" onerror\u003d\"javascript:errorimg.call(this);\"\u003e\u003cp class\u003d\"pgc-img-caption\"\u003e\u003c/p\u003e\u003c/div\u003e\u003cp\u003e一年365.24，四年一闰，累积四年就相当于366天，在360的基础上加6，这就是乾卦的6爻，表示阳进。\u003c/p\u003e\u003cp\u003e如果按一年十二月来计算就是阴历平年，十二个朔望月（29.53)，就是354天，相当于360减6，这就是坤卦的6爻。\u003c/p\u003e\u003cp\u003e阳进阴退，乾进坤退，阴阳顺逆，360度的标准圆就是我们先民创造的周天公度，就是人类创造出来的完美数学模型。\u003c/p\u003e\u003cp\u003e我在以前的文章写过两个定律，就是和谐的自然的东西是不可能用完全的数学体系来表达。但我们又要认识自然，利用自然。\u003c/p\u003e\u003cp\u003e易经就为我们创造了360度圆这个工具，这也是洛书核心的数理，所以洛书为用。\u003c/p\u003e\u003cp\u003e前面文章说过，河图中的十字阴、阳仪藏有洛书的两对半圆弧。相对应的，洛书圆形数字就藏有十字。\u003c/p\u003e\u003cdiv class\u003d\"pgc-img\"\u003e\u003cimg src\u003d\"https://p3.pstatp.com/large/pgc-image/793cef509e7b4e5da8f4abf59aa6a85b\" img_width\u003d\"2346\" img_height\u003d\"2070\" inline\u003d\"0\" alt\u003d\"洛书为用，洛书的数理千变万化\" onerror\u003d\"javascript:errorimg.call(this);\"\u003e\u003cp class\u003d\"pgc-img-caption\"\u003e\u003c/p\u003e\u003c/div\u003e\u003cp\u003e看上图，以中五十字形向周边圆弧延伸，把圆分成四等分，四个象限就是代表四象。\u003c/p\u003e\u003cp\u003e十字线上黑点作为十字界限点而不用。则每象内的白点相加正好都是九，河图有十，洛书无十，每象用九乘十就是九十。\u003c/p\u003e\u003cp\u003e乘十后，九个点就变成90度。河图的十，在洛书上就虚而为用了。四个90度，一共360度，这就是可以用的周天公度。\u003c/p\u003e\u003cp\u003e洛书因为具有完美的数学体系，它的数理就达到了鬼神莫测的地步，我们慢慢来揭示它的奥妙。\u003c/p\u003e\u003cp class\u003d\"ql-align-justify\"\u003e\u003cbr\u003e\u003c/p\u003e{!-- PGC_COLUMN --}\u003cdiv class\u003d\"pgc-img\"\u003e\u003cimg src\u003d\"https://p3.pstatp.com/large/pgc-image/954843aee5bf4a03b807ac4e8b3a4c1d\" img_width\u003d\"2166\" img_height\u003d\"1786\" inline\u003d\"0\" alt\u003d\"洛书为用，洛书的数理千变万化\" onerror\u003d\"javascript:errorimg.call(this);\"\u003e\u003cp class\u003d\"pgc-img-caption\"\u003e\u003c/p\u003e\u003c/div\u003e\u003cp\u003e先粗略看看，一是奇数居四正，偶数居四隅，阴阳次第相接。这是阴阳阖辟的位置。\u003c/p\u003e\u003cp\u003e二是对宫数字合十，这也是虚十以用。二八互换就是就天地生万物的造化之理。\u003c/p\u003e\u003cp\u003e三是纵横斜的数字相加都是十五。上篇文章说了，360度24等分，每山15度，这是方位，在时间上，古代把一小时分成四刻，一刻就是15分钟。午时三刻开始就是阳气最盛之时。\u003c/p\u003e\u003cp\u003e同时，四象成数中，阳爻用九，阴爻用六，加起是十五。少阴为八，少阳为七，加起也是十五。\u003c/p\u003e\u003cp\u003e四是东北和西南的八和二，好像反了，如果互换，从北一顺时针到中五，然后西北六逆时针到南九，会是完美闭合的S形，像太极。\u003c/p\u003e\u003cdiv class\u003d\"pgc-img\"\u003e\u003cimg src\u003d\"https://p3.pstatp.com/large/pgc-image/c370e1a4f4cf4c0d9203e6dd6343ea94\" img_width\u003d\"640\" img_height\u003d\"641\" inline\u003d\"0\" alt\u003d\"洛书为用，洛书的数理千变万化\" onerror\u003d\"javascript:errorimg.call(this);\"\u003e\u003cp class\u003d\"pgc-img-caption\"\u003e\u003c/p\u003e\u003c/div\u003e\u003cp\u003e五是相对河图来说，奇数一、三、五的位置没有变，七和九的位置互换了。这就是火入金乡，金入火乡。这在我们身体上可以得到验证，肺属金，心属火，肺的位置在心脏上面。\u003c/p\u003e\u003cp\u003e六是洛书数字可以相对应地布入九宫，成而变成三阶幻方，使得九宫内的数字千变万化。各种数理规律层出不穷。\u003c/p\u003e\u003cp\u003e幻方的数理，在数学上千变万化的，学数学的朋友都知道，这里不展开讲，其中用492、357、816三组数字，用行列式计算，刚好等于360。所以洛书的数理确实是个圆。\u003c/p\u003e\u003cp\u003e七是从逆时针来看洛书数字，也是很有规律，比如从北一开始逆时针，一加六等于七，七加二等于九，九加四等十三取三，十三加八等于二十一取一。一直加下去，尾数都能循环。\u003c/p\u003e\u003cp\u003e八是五行规律，一般认为，河图是顺生，洛书是通过十字逆克，中土克北水，北水克南火，南火克西金，西克东木，东木克中土。\u003c/p\u003e\u003cdiv class\u003d\"pgc-img\"\u003e\u003cimg src\u003d\"https://p3.pstatp.com/large/pgc-image/61fc956c0dff4a2f9fbe5c1ea5937686\" img_width\u003d\"281\" img_height\u003d\"213\" inline\u003d\"0\" alt\u003d\"洛书为用，洛书的数理千变万化\" onerror\u003d\"javascript:errorimg.call(this);\"\u003e\u003cp class\u003d\"pgc-img-caption\"\u003e\u003c/p\u003e\u003c/div\u003e\u003cp\u003e九是洛书数字可以按数序来形成轨迹，一至二，再到三到四的位置，数字就变代表了方位。\u003c/p\u003e\u003cp\u003e道家就有一种按这样轨迹踏步的步法，是“禹步”的一种，也叫“步罡踏斗”。就是按北斗七星原理，通过这样的仪式来沟通天地，来获得神通，仪式前要祷告二十四次。\u003c/p\u003e\u003cp\u003e好了，限于篇幅，下篇文章继续讲洛书。\u003c/p\u003e\u003c/div\u003e",
    "source": "壹圆文化",
    "comment_count": 16,
    "logo_show_strategy": "normal",
    "hupu_content_image_urls": [
      ""
    ],
    "creator_uid": 5442441065
  },
  "success": true
}