{
  "_ck": {},
  "data": {
    "detail_source": "壹圆文化",
    "media_user": {
      "screen_name": "壹圆文化",
      "no_display_pgc_icon": false,
      "avatar_url": "https://p3.pstatp.com/thumb/ff4c0000329fa7e5df8e",
      "id": "1617719604580359",
      "user_auth_info": {
        "auth_type": "0",
        "other_auth": {
          "interest": "优质文化领域创作者"
        },
        "auth_info": "建筑公司总经理 优质文化领域创作者"
      }
    },
    "publish_time": 1573029943,
    "hotwords": [
      {
        "stress_type": 0,
        "hot_word": "录明星整容视频勒索"
      },
      {
        "stress_type": 1,
        "hot_word": "宁静再演孝庄"
      },
      {
        "stress_type": 0,
        "hot_word": "日常佩戴13公斤黄金"
      },
      {
        "stress_type": 0,
        "hot_word": "中国化工集团被约谈"
      },
      {
        "stress_type": 0,
        "hot_word": "医生用筷子紧急救人"
      },
      {
        "stress_type": 1,
        "hot_word": "黄渤回应女版黄渤"
      },
      {
        "stress_type": 1,
        "hot_word": "贾跃亭股份被冻结"
      },
      {
        "stress_type": 1,
        "hot_word": "买老鼠夹送香肠"
      }
    ],
    "title": "数字一，在道家文化中的重要意义",
    "url": "http://toutiao.com/group/6755999218600509965/",
    "high_quality_flag": "0",
    "impression_count": "312",
    "is_original": true,
    "is_pgc_article": true,
    "content": "\u003cdiv\u003e\u003cp\u003e有很多朋友私下问我，能不能推荐一些易学方面货真价实的书，我很少推荐。\u003c/p\u003e\u003cp\u003e学易有时靠机缘。一阴一阳之谓道，我认为易学之书没有百分百正确的。正的、反的书都要去看看，学易要遍览群书。\u003c/p\u003e\u003cdiv class\u003d\"pgc-img\"\u003e\u003cimg src\u003d\"https://p3.pstatp.com/large/dfic-imagehandler/c160aca7-eabc-4ebc-ac89-df58033f85d0\" img_width\u003d\"1023\" img_height\u003d\"1005\" inline\u003d\"0\" alt\u003d\"数字一，在道家文化中的重要意义\" onerror\u003d\"javascript:errorimg.call(this);\"\u003e\u003cp class\u003d\"pgc-img-caption\"\u003e\u003c/p\u003e\u003c/div\u003e\u003cp\u003e学会独立思考是学易的第一步。光看你认为正确的东西，实际上你就丢了一半，阴的一面没有得到。有时，反面对你的启发可能更大。\u003c/p\u003e\u003cp\u003e说说我看的书，广州、佛山等大型图书馆，所有易学类的书，我都借阅过，能得到自己想要的也不多，这些正规的易学书，很多是基于清代的《四库全书》。\u003c/p\u003e\u003cp\u003e看书看原版好，我花了很多钱买易学书籍。特别是批判为封建迷信类的书，现在大部分都停版了，只能从二手或者旧书市场，以及海外市场去购买。\u003c/p\u003e\u003cp\u003e批判类的书，反而真正能得到些真东西，这就是我告诉大家的思路。\u003c/p\u003e\u003cp\u003e还有，要想学易不会走弯路，就要知识渊博。除了上知天文，下知地理，历史、考古、哲学、宗教、数学等科学也要涉猎。\u003c/p\u003e\u003cp\u003e今天我们就来说说数字在儒、释、道各家的意义，首先来说“一”。\u003c/p\u003e\u003cdiv class\u003d\"pgc-img\"\u003e\u003cimg src\u003d\"https://p3.pstatp.com/large/dfic-imagehandler/6995b7f1-3d5f-48fe-a665-6c1e09d18c9e\" img_width\u003d\"1200\" img_height\u003d\"799\" inline\u003d\"0\" alt\u003d\"数字一，在道家文化中的重要意义\" onerror\u003d\"javascript:errorimg.call(this);\"\u003e\u003cp class\u003d\"pgc-img-caption\"\u003e\u003c/p\u003e\u003c/div\u003e\u003cp\u003e陈抟说过一为道之宗，论“一”，我觉得道家讲得最好。从老子开始，道家离不开一，得道就要抱一。\u003c/p\u003e\u003cp\u003e《道德经》上说：\u003cstrong\u003e昔之得一者，天得一以清，地得一以宁，神得一以灵，谷得一以盈，万物得一以生，侯王得一以为天下正。其致之也，天无以清将恐裂，地无以宁将恐废。\u003c/strong\u003e\u003c/p\u003e\u003cp\u003e从天地、人神到万物，老子把一上升到了道的高度。\u003c/p\u003e\u003cp\u003e别以为这些是飘渺无踪的哲学用语，当你的知识面到一定程度，你会感到是字字珠玑。我就拿\u003cstrong\u003e天得一以清，天无以清将恐裂\u003c/strong\u003e来举例说明。\u003c/p\u003e\u003cp\u003e地球上抬头是星空，却看不见地球的保护层。在离地球二十公里左右高度的地方，有一个臭氧层。纯臭氧层的厚度只有3毫米，非常微薄。\u003c/p\u003e\u003cdiv class\u003d\"pgc-img\"\u003e\u003cimg src\u003d\"https://p3.pstatp.com/large/dfic-imagehandler/54d42a61-d3bd-479c-9408-df59aef924fd\" img_width\u003d\"1024\" img_height\u003d\"535\" inline\u003d\"0\" alt\u003d\"数字一，在道家文化中的重要意义\" onerror\u003d\"javascript:errorimg.call(this);\"\u003e\u003cp class\u003d\"pgc-img-caption\"\u003e\u003c/p\u003e\u003c/div\u003e\u003cp\u003e臭氧层形成的机理也蛮有意思的，它由宇宙中的紫外线制造，氧分子受短波紫外线的照射，会分解成氧原子状态，氧原子极不稳定，和氧分子碰撞反应就形成了臭氧。\u003c/p\u003e\u003cp\u003e臭氧比重大，逐渐往含臭氧的底层降落，下降中随着温度的增加，又变得极不稳定，受长波紫外线的照射，臭氧又会还原成氧。\u003c/p\u003e\u003cp\u003e这样，清气上升，浊气下降，在紫外线长、短波的交相照射下，就形成了动态平衡的臭氧层。氧原子是一，氧分子是O2，臭氧是O3。这是不是一生二，二生三？\u003c/p\u003e\u003cdiv class\u003d\"pgc-img\"\u003e\u003cimg src\u003d\"https://p3.pstatp.com/large/dfic-imagehandler/74da233e-d1e9-4696-af10-0f6c4bd81271\" img_width\u003d\"300\" img_height\u003d\"300\" inline\u003d\"0\" alt\u003d\"数字一，在道家文化中的重要意义\" onerror\u003d\"javascript:errorimg.call(this);\"\u003e\u003cp class\u003d\"pgc-img-caption\"\u003e\u003c/p\u003e\u003c/div\u003e\u003cp\u003e虽然纯臭氧层只有薄薄的3毫米，对地球的作用就太大了，它能吸收太阳光中短波紫外线，使得到达地球的紫外线才有百分之一，人跟万物才能免于伤害。臭氧层相当于地球的保护伞。\u003c/p\u003e\u003cp\u003e我们知道，从地球往太空，越高越冷，海拔高山终年积雪，你就知道了，所以离地最近的大气层是对流层。\u003c/p\u003e\u003cp\u003e臭氧能吸收紫外线转换成热能，正是有了臭氧层，紫外线才能对大气加热，在对流层的顶层到五十公里的高度，就形成了平流层，平流层相当于保温层，民航飞机也在这层飞行。\u003c/p\u003e\u003cdiv class\u003d\"pgc-img\"\u003e\u003cimg src\u003d\"https://p3.pstatp.com/large/dfic-imagehandler/e3d0f998-08d8-4349-8c3f-658cdfcf2cf3\" img_width\u003d\"449\" img_height\u003d\"300\" inline\u003d\"0\" alt\u003d\"数字一，在道家文化中的重要意义\" onerror\u003d\"javascript:errorimg.call(this);\"\u003e\u003cp class\u003d\"pgc-img-caption\"\u003e\u003c/p\u003e\u003c/div\u003e\u003cp\u003e现代人类活动，已经对臭氧层造成破坏，在地球南极曾经破了几个大洞，辐射加大，温室效应明显，所以要限制使用氟利昴。\u003c/p\u003e\u003cp\u003e看来老子说的\u003cstrong\u003e天无以清将恐裂\u003c/strong\u003e还是有道理的，天不会蹋，但是会裂。\u003c/p\u003e\u003cp\u003e侯王得一以为天下正，就更好理解了。一山不容二虎，除非一公与一母。一国不能有二王，否则就是祸乱与动荡。\u003c/p\u003e\u003cp\u003e得道守一，东晋道教理论家葛洪阐述得更为深刻。他把“道”和“玄”和“一”相贯通。\u003c/p\u003e\u003cp\u003e葛洪视“一”为生命的起源，他说：“道起于一，其贵无偶，各居一处，以象天地人，故曰三一也。”\u003c/p\u003e\u003cp\u003e他认为，“一”神通广大，无所不能，神秘莫测，它能成阴生阳，推步寒暑。“一”视之不见，听之不闻，存之则在，忽之则亡，向之则吉，背之则凶，保之则遐祚罔极，失之则命雕所穷。\u003c/p\u003e\u003cp\u003e葛洪因此强调“守一”的重要，把“守一”和长生成仙结合起来，所以仙经上说：“子欲长生，守一当明。守一存真，乃得神通。”\u003c/p\u003e\u003cp\u003e你看，在道家，“一”是多么的重要。并且这种思想一路继承下来。\u003c/p\u003e\u003cp\u003e”一“从数学的角度看是数，是万数之首。但从哲学观点来分析却不是数，而是万物之始。\u003c/p\u003e\u003cp\u003e《说文》对一的解释就是”唯初太极，道立于一，造分天地，化成万物。“把一和道等同了。《淮南子》也说：”一就是道，道就是一。“\u003c/p\u003e\u003cp\u003e邵雍在《皇极经世》观物外篇中说：”至人与他心通者，以其本于一也。道与一，神之强名也。“\u003c/p\u003e\u003cp\u003e你看，邵雍把”一“上升到了神的地步。\u003c/p\u003e\u003c/div\u003e",
    "source": "壹圆文化",
    "comment_count": 6,
    "logo_show_strategy": "normal",
    "hupu_content_image_urls": [
      ""
    ],
    "creator_uid": 5442441065
  },
  "success": true
}