{
  "_ck": {},
  "data": {
    "detail_source": "壹圆文化",
    "media_user": {
      "screen_name": "壹圆文化",
      "no_display_pgc_icon": false,
      "avatar_url": "https://p3.pstatp.com/thumb/ff4c0000329fa7e5df8e",
      "id": "1617719604580359",
      "user_auth_info": {
        "auth_type": "0",
        "other_auth": {
          "interest": "优质文化领域创作者"
        },
        "auth_info": "建筑公司总经理 优质文化领域创作者"
      }
    },
    "publish_time": 1573560319,
    "hotwords": [
      {
        "stress_type": 0,
        "hot_word": "录明星整容视频勒索"
      },
      {
        "stress_type": 1,
        "hot_word": "宁静再演孝庄"
      },
      {
        "stress_type": 0,
        "hot_word": "日常佩戴13公斤黄金"
      },
      {
        "stress_type": 0,
        "hot_word": "中国化工集团被约谈"
      },
      {
        "stress_type": 0,
        "hot_word": "医生用筷子紧急救人"
      },
      {
        "stress_type": 1,
        "hot_word": "黄渤回应女版黄渤"
      },
      {
        "stress_type": 1,
        "hot_word": "贾跃亭股份被冻结"
      },
      {
        "stress_type": 1,
        "hot_word": "买老鼠夹送香肠"
      }
    ],
    "title": "城市和乡村的阳宅如何分别来确定宅主卦？",
    "url": "http://toutiao.com/group/6758390112049955336/",
    "high_quality_flag": "0",
    "impression_count": "531",
    "is_original": true,
    "is_pgc_article": true,
    "content": "\u003cp\u003e本文是一切看阳宅风水理论的基础和核心，非常重要。\u003c/p\u003e\u003cp\u003e我们来到人世间，每个人都要取一个名字，同时要有一个证明你身份信息的身份证。你在社会上生活一辈子的所有的权利和义务，就围绕这个角色展开。\u003c/p\u003e\u003cp\u003e阳宅也一样，有个宅名，确定了宅主卦，有了主客关系，才能对内、外方位的吉凶影响进行判断。记住用的工具是后天八卦方位、九星和九宫。\u003c/p\u003e\u003cdiv class\u003d\"pgc-img\"\u003e\u003cimg src\u003d\"https://p3.pstatp.com/large/pgc-image/bc7106f28f9f4edfaf7ca3e63e58b35e\" img_width\u003d\"640\" img_height\u003d\"606\" inline\u003d\"0\" alt\u003d\"城市和乡村的阳宅如何分别来确定宅主卦？\" onerror\u003d\"javascript:errorimg.call(this);\"\u003e\u003cp class\u003d\"pgc-img-caption\"\u003e\u003c/p\u003e\u003c/div\u003e\u003cp\u003e城市和乡村、山地和平洋，阳宅情形不一，那么多头绪，该如何来定宅主卦呢？首先要分清\"龙、局、向\"三种不同情形。\u003c/p\u003e\u003cp\u003e目讲禅师说：\"有龙莫问局，立向与山同。水来即定局，四对正相同。\"大家可能看了一头雾水，我来给大家解读一下。\u003c/p\u003e\u003cp\u003e有龙莫问局，就是说，有龙之地，以龙为主，局轻。有龙就能坐山与立向，一卦管三山，比如壬子癸三山落脉就是坎宅，这样就定出了宅主卦。\u003c/p\u003e\u003cdiv class\u003d\"pgc-img\"\u003e\u003cimg src\u003d\"https://p3.pstatp.com/large/pgc-image/821bda1c0a634af8aeaec39909cd2958\" img_width\u003d\"640\" img_height\u003d\"483\" inline\u003d\"0\" alt\u003d\"城市和乡村的阳宅如何分别来确定宅主卦？\" onerror\u003d\"javascript:errorimg.call(this);\"\u003e\u003cp class\u003d\"pgc-img-caption\"\u003e\u003c/p\u003e\u003c/div\u003e\u003cp\u003e水来即定局，没有龙脉，就用局法，一局之内，各有不同，近水则依水断，远水则依山断，远、近水的标准，有的定为五步，有的定为二十步。\u003c/p\u003e\u003cp\u003e我觉得这样分远近很机械，应该看整个形势，比如你家在大河岸边，另一边是道路或者一马平川，离大河不远就应该以水断。假如你近的是小沟渠，后面却有高地，那肯定是以山断。\u003c/p\u003e\u003cp\u003e这样的断法就叫\"喝局\"，喝局是和龙法完全相反的，比如房屋坐山是壬子癸，那就不是坎宅而是离局。\u003c/p\u003e\u003cp\u003e如果依水断也一样，比如你家北边有水，南面实地多，不管你家的朝向如何，都应该断为离局。如果四面有水，就定中宫局。\u003c/p\u003e\u003cdiv class\u003d\"pgc-img\"\u003e\u003cimg src\u003d\"https://p3.pstatp.com/large/pgc-image/c7bc524b7ad24253a78dab1111c1dd5a\" img_width\u003d\"640\" img_height\u003d\"759\" inline\u003d\"0\" alt\u003d\"城市和乡村的阳宅如何分别来确定宅主卦？\" onerror\u003d\"javascript:errorimg.call(this);\"\u003e\u003cp class\u003d\"pgc-img-caption\"\u003e\u003c/p\u003e\u003c/div\u003e\u003cp\u003e\"喝局\"这些实在太复杂，可能很多朋友看了稀里糊涂。记住《宅谱》中说的原则：\"山地观脉，脉气重于水。平地观水，水神旺于脉。\"在平地，道路也视同水。\u003c/p\u003e\u003cp\u003e大家可能问了，定什么宅，喝什么局，那有什么用呢？记住一句话：\"外六事，局中论祸福。内六事，山家论祸福。\"\u003c/p\u003e\u003cp\u003e什么是外六事？就是屋外之物，比如桥梁、庙宇、电塔、水塘等等。在局内飞布九宫，这些外物和你的阳宅形成吉凶关系，生旺为福，克泄为祸。\u003c/p\u003e\u003cdiv class\u003d\"pgc-img\"\u003e\u003cimg src\u003d\"https://p3.pstatp.com/large/dfic-imagehandler/63cd3309-fb82-42c9-a8e6-8e278e52a6cc\" img_width\u003d\"1200\" img_height\u003d\"801\" inline\u003d\"0\" alt\u003d\"城市和乡村的阳宅如何分别来确定宅主卦？\" onerror\u003d\"javascript:errorimg.call(this);\"\u003e\u003cp class\u003d\"pgc-img-caption\"\u003e\u003c/p\u003e\u003c/div\u003e\u003cp\u003e什么是内六事？就是屋内之物，比如大门、灶台、床、厕所等，古代还有天井、碓房之类的。\u003c/p\u003e\u003cp\u003e内六事，就是从坐山上来飞布九宫，也是生旺为福、克泄为祸。\u003c/p\u003e\u003cp\u003e好了，讲到重点了，我们在城市买的商品房，哪能寻什么龙，喝什么局呢？这时相对最重要的就是坐山和朝向，坐山在八宅法中就用宅主卦和伏位来命名。\u003c/p\u003e\u003cp\u003e什么是坐山？就是大门朝向的另一头，前为向，后为坐。平时大家应该能听到譬如\"你家是坐北朝南还是坐东朝西啊？\"这样的话，坐与向是相对关系，知道朝向就知道坐山。\u003c/p\u003e\u003cp\u003e以前的大门都有门槛，就相当于你正坐在门槛中间，面对屋外就是向，背后就是坐。就这么简单的东西，还是很多朋友会搞错。\u003c/p\u003e\u003cdiv class\u003d\"pgc-img\"\u003e\u003cimg src\u003d\"https://p3.pstatp.com/large/dfic-imagehandler/420c10d5-d03e-42f4-a214-88da88e265b3\" img_width\u003d\"1200\" img_height\u003d\"800\" inline\u003d\"0\" alt\u003d\"城市和乡村的阳宅如何分别来确定宅主卦？\" onerror\u003d\"javascript:errorimg.call(this);\"\u003e\u003cp class\u003d\"pgc-img-caption\"\u003e\u003c/p\u003e\u003c/div\u003e\u003cp\u003e举个例子，你家的大门开在房子的东北角，大门又是朝北或者朝东，那么是什么坐山与朝向呢？很多人就搞不清了。很多从房屋中心点出发，认为是门在东北就是朝东北，这就大错特错了！\u003c/p\u003e\u003cp\u003e以门线为准，作垂直方向，比如大门朝东，就是坐西朝东是兑宅。大门朝北就是坐南朝北是离宅。一切以门线为准。有的风水师为避免屋内干扰，会站在大门外向里开罗盘，其实都一样。\u003c/p\u003e\u003cp\u003e为什么大门朝向这么重要？古代造屋两个最重要的仪式就是\"立门\"与\"上梁\"。那是要择好日子，在地理先生亲自监督下来完成的。立门、上梁就相当于定好了房子的时间和空间位置。是好是坏，吉凶祸福就定了。\u003c/p\u003e\u003cdiv class\u003d\"pgc-img\"\u003e\u003cimg src\u003d\"https://p3.pstatp.com/large/dfic-imagehandler/ae7c6a7a-3976-46d6-bc05-e51ce6936b88\" img_width\u003d\"1200\" img_height\u003d\"800\" inline\u003d\"0\" alt\u003d\"城市和乡村的阳宅如何分别来确定宅主卦？\" onerror\u003d\"javascript:errorimg.call(this);\"\u003e\u003cp class\u003d\"pgc-img-caption\"\u003e\u003c/p\u003e\u003c/div\u003e\u003cp\u003e通过大门的朝向，我们就可以定出宅主卦，比如坐东南朝西北就巽宅，一切方位都以后天八卦为准。\u003c/p\u003e\u003cp\u003e命名了宅主，就可以定内六事了，也能判断屋内的各个吉凶方位。现在主要流行的风水理论大致有四种方法：\u003c/p\u003e\u003cp\u003e一是八宅法的九星翻卦法，用大游年法，也就是大家耳熟能详的什么生气、天医、六煞、五鬼之类的，以卦象来定方位。\u003c/p\u003e\u003cp\u003e二是用宅主之星入中顺飞，按九星飞布九宫，通过各宫飞星和主星的相互关系，用五行生克的原理来判断各方吉凶，据我的经验，这个用来断验比较好。\u003c/p\u003e\u003cp\u003e三是以入住房屋的时间，就是入伙时间来定，采用三元九运，用九宫飞星来飞布运盘。\u003c/p\u003e\u003cp\u003e四是用九宫飞星来飞布年、月、日的流行飞星，就是流年飞星的用法。\u003c/p\u003e\u003cp\u003e限于篇幅，下文再详解。\u003c/p\u003e",
    "source": "壹圆文化",
    "comment_count": 25,
    "logo_show_strategy": "normal",
    "hupu_content_image_urls": [
      ""
    ],
    "creator_uid": 5442441065
  },
  "success": true
}