{
  "_ck": {},
  "data": {
    "detail_source": "壹圆文化",
    "media_user": {
      "screen_name": "壹圆文化",
      "no_display_pgc_icon": false,
      "avatar_url": "https://p3.pstatp.com/thumb/ff4c0000329fa7e5df8e",
      "id": "1617719604580359",
      "user_auth_info": {
        "auth_type": "0",
        "other_auth": {
          "interest": "优质文化领域创作者"
        },
        "auth_info": "建筑公司总经理 优质文化领域创作者"
      }
    },
    "publish_time": 1575852029,
    "hotwords": [
      {
        "stress_type": 0,
        "hot_word": "录明星整容视频勒索"
      },
      {
        "stress_type": 1,
        "hot_word": "宁静再演孝庄"
      },
      {
        "stress_type": 0,
        "hot_word": "日常佩戴13公斤黄金"
      },
      {
        "stress_type": 0,
        "hot_word": "中国化工集团被约谈"
      },
      {
        "stress_type": 0,
        "hot_word": "医生用筷子紧急救人"
      },
      {
        "stress_type": 1,
        "hot_word": "黄渤回应女版黄渤"
      },
      {
        "stress_type": 1,
        "hot_word": "贾跃亭股份被冻结"
      },
      {
        "stress_type": 1,
        "hot_word": "买老鼠夹送香肠"
      }
    ],
    "title": "看到裂隙你就能记住坤卦之象",
    "url": "http://toutiao.com/group/6768232928083182083/",
    "high_quality_flag": "0",
    "impression_count": "71",
    "is_original": true,
    "is_pgc_article": true,
    "content": "\u003cdiv\u003e\u003cp\u003e乾卦三阳爻，三条直线成圆弧，有循环往复和天衣无缝之象。\u003c/p\u003e\u003cdiv class\u003d\"pgc-img\"\u003e\u003cimg src\u003d\"https://p3.pstatp.com/large/dfic-imagehandler/d7b0187a-325d-4e53-bcbe-34507857855e\" img_width\u003d\"1024\" img_height\u003d\"576\" inline\u003d\"0\" alt\u003d\"看到裂隙你就能记住坤卦之象\" onerror\u003d\"javascript:errorimg.call(this);\"\u003e\u003cp class\u003d\"pgc-img-caption\"\u003e\u003c/p\u003e\u003c/div\u003e\u003cp\u003e坤卦三爻皆阴，阴之数为偶，阴之性为顺从，为大地之象。三阴爻如三线断成六截，就象大地之中有裂缝。\u003c/p\u003e\u003cp\u003e大地有裂缝吗？当然有。陆地上最深的峡谷就是我国的雅鲁藏布大峡谷，长五百公里，深约六公里。\u003c/p\u003e\u003cdiv class\u003d\"pgc-img\"\u003e\u003cimg src\u003d\"https://p3.pstatp.com/large/dfic-imagehandler/9d0b7f98-1038-49ca-af21-3d4712409de3\" img_width\u003d\"1023\" img_height\u003d\"682\" inline\u003d\"0\" alt\u003d\"看到裂隙你就能记住坤卦之象\" onerror\u003d\"javascript:errorimg.call(this);\"\u003e\u003cp class\u003d\"pgc-img-caption\"\u003e\u003c/p\u003e\u003c/div\u003e\u003cp\u003e地球上最大断裂带是东非大裂谷，长度达到地球周长的六分之一，就象地球上最显眼的一道伤疤，两亿年后将分裂成一个新大洲。\u003c/p\u003e\u003cp\u003e地球板块漂移学说，更是认为是大陆板块的分裂漂移形成现在的七大洲四大洋。海底也有最深的马里亚纳海沟，是大海的最深处。\u003c/p\u003e\u003cdiv class\u003d\"pgc-img\"\u003e\u003cimg src\u003d\"https://p3.pstatp.com/large/dfic-imagehandler/dd63155b-f21c-43bb-a407-56a281be80e7\" img_width\u003d\"1200\" img_height\u003d\"798\" inline\u003d\"0\" alt\u003d\"看到裂隙你就能记住坤卦之象\" onerror\u003d\"javascript:errorimg.call(this);\"\u003e\u003cp class\u003d\"pgc-img-caption\"\u003e\u003c/p\u003e\u003c/div\u003e\u003cp\u003e地球上时时有火山爆发，还有不断活动的地震断裂带。想着裂缝，很容易记住坤卦的卦象。\u003c/p\u003e\u003cp\u003e大地松软的土壤也是有裂隙的，能蓄积地表水，植物也是靠土壤才能生根发芽，洒水浇灌。\u003c/p\u003e\u003cp\u003e大地又是宽厚诚信的，无论你怎么对它，依然会种瓜得瓜，种豆得豆，只要你付出，它就会有所回报。\u003c/p\u003e\u003cdiv class\u003d\"pgc-img\"\u003e\u003cimg src\u003d\"https://p3.pstatp.com/large/dfic-imagehandler/80b1ce5c-f4bb-42c8-a382-05b2b01a139b\" img_width\u003d\"1023\" img_height\u003d\"682\" inline\u003d\"0\" alt\u003d\"看到裂隙你就能记住坤卦之象\" onerror\u003d\"javascript:errorimg.call(this);\"\u003e\u003cp class\u003d\"pgc-img-caption\"\u003e\u003c/p\u003e\u003c/div\u003e\u003cp\u003e《象传》中定义坤卦之象为：\"地势坤，君子以厚德载物。\"高天厚土，厚德是我们对大地的美誉。\u003c/p\u003e\u003cp\u003e坤卦被认为是阴之纯，顺之至。坤卦以柔顺为贞，所以卦辞上说：\"利牝马之贞\"。牝马就是母马，据说北方的马群，经常十牝跟一牡而行，不会混入它群。牡马健，牝马顺，乾健坤顺。\u003c/p\u003e\u003cdiv class\u003d\"pgc-img\"\u003e\u003cimg src\u003d\"https://p3.pstatp.com/large/dfic-imagehandler/cbadecf3-1b2f-4234-b0d4-d92eeeff1ab8\" img_width\u003d\"1200\" img_height\u003d\"801\" inline\u003d\"0\" alt\u003d\"看到裂隙你就能记住坤卦之象\" onerror\u003d\"javascript:errorimg.call(this);\"\u003e\u003cp class\u003d\"pgc-img-caption\"\u003e\u003c/p\u003e\u003c/div\u003e\u003cp\u003e当然类象为马时，其实就是六爻卦，六爻全阴的坤卦，也有阴凝之象，比如初六的爻辞：\"履霜，坚冰至。\"预示着事物向寒凝的方向发展，孔子用一词来描述，就是\"积善之家必有余庆，积不善之家必有余殃。\"\u003c/p\u003e\u003cp\u003e不管多么板结厚实的坚冰，还是怕裂缝，只要有裂缝就会四分五裂而崩溃。你看，我读易经完全跟别人不一样。\u003c/p\u003e\u003cdiv class\u003d\"pgc-img\"\u003e\u003cimg src\u003d\"https://p3.pstatp.com/large/dfic-imagehandler/397d2a8d-6af3-431a-b491-efa1921278ae\" img_width\u003d\"1200\" img_height\u003d\"674\" inline\u003d\"0\" alt\u003d\"看到裂隙你就能记住坤卦之象\" onerror\u003d\"javascript:errorimg.call(this);\"\u003e\u003cp class\u003d\"pgc-img-caption\"\u003e\u003c/p\u003e\u003c/div\u003e\u003cp\u003e但凡历史用易比较厉害的，一般都是依靠智计取胜，并不一定是以德服人。慈不掌兵，义不管财是有一定道理的。\u003c/p\u003e\u003cp\u003e历史上有德之人莫过于舜帝了。相反他父亲就被称为\"瞽叟\"，放到现在就是糊涂透顶的意思。\u003c/p\u003e\u003cp\u003e舜的美德为当世所传诵，甚至到了很多百姓慕名远道而来要与其同邻而居的地步。\u003c/p\u003e\u003cdiv class\u003d\"pgc-img\"\u003e\u003cimg src\u003d\"https://p3.pstatp.com/large/dfic-imagehandler/3be75e46-9600-4b75-b082-600a5c5cb894\" img_width\u003d\"1200\" img_height\u003d\"741\" inline\u003d\"0\" alt\u003d\"看到裂隙你就能记住坤卦之象\" onerror\u003d\"javascript:errorimg.call(this);\"\u003e\u003cp class\u003d\"pgc-img-caption\"\u003e\u003c/p\u003e\u003c/div\u003e\u003cp\u003e就这么有德行的人也差点死在小人手上。舜得了尧帝的赏赐，有些小财产。他同父异母的弟弟叫\"象\"的，跟父母合谋干掉他，侵吞他的财产。一家四口竟然有三个成员想害死他，这样的家庭有多可怕。\u003c/p\u003e\u003cp\u003e第一次，当舜在房顶整理茅草的时候，象就在底下把茅草点着，伙同父亲把梯子也撤了，想活活烧死舜。后来舜是借助两个斗笠从房顶跳下来，摔伤了腿，但他并没有找父弟算账。\u003c/p\u003e\u003cp class\u003d\"ql-align-justify\"\u003e\u003cbr\u003e\u003c/p\u003e{!-- PGC_COLUMN --}\u003cdiv class\u003d\"pgc-img\"\u003e\u003cimg src\u003d\"https://p3.pstatp.com/large/dfic-imagehandler/a028bdd2-98d3-4f27-bc60-266429cc4c85\" img_width\u003d\"1200\" img_height\u003d\"798\" inline\u003d\"0\" alt\u003d\"看到裂隙你就能记住坤卦之象\" onerror\u003d\"javascript:errorimg.call(this);\"\u003e\u003cp class\u003d\"pgc-img-caption\"\u003e\u003c/p\u003e\u003c/div\u003e\u003cp\u003e第二次，舜在井底清淤时，他的弟弟和父亲在井口上面填土想把他活埋。好在舜事先有防备，在井底另外早挖好了一条逃生通道。\u003c/p\u003e\u003cp\u003e逃出生天的舜又没有找他俩的麻烦，很多汉儒就说，是舜的德行感化了他们。我对这种说法感到有点可笑。\u003c/p\u003e\u003cp\u003e其实这两货完全是吓傻了，这样都弄不死舜？不会是神仙吧，三番五次都搞不定，不能再弄了。有德之人也怕小人，所以我们说，宁愿得罪君子也不要去得罪小人。\u003c/p\u003e\u003cdiv class\u003d\"pgc-img\"\u003e\u003cimg src\u003d\"https://p3.pstatp.com/large/dfic-imagehandler/7606808c-5300-459f-ad7e-01e85c9a1b43\" img_width\u003d\"1200\" img_height\u003d\"734\" inline\u003d\"0\" alt\u003d\"看到裂隙你就能记住坤卦之象\" onerror\u003d\"javascript:errorimg.call(this);\"\u003e\u003cp class\u003d\"pgc-img-caption\"\u003e\u003c/p\u003e\u003c/div\u003e\u003cp\u003e王阳明的心学，在很大程度上也是心计。他去江西赣南剿匪之前，官兵是屡战屡败。他去到几天内，就发现了山寨土匪安插在官军中的卧底，并成功诱其反水成为双面间谍。\u003c/p\u003e\u003cp\u003e最后在卧底假情报蒙骗下，一举攻破了土匪坚固的山寨，并且留下千古名句：\"破山中贼易，破心中贼难。\"\u003c/p\u003e\u003cdiv class\u003d\"pgc-img\"\u003e\u003cimg src\u003d\"https://p3.pstatp.com/large/dfic-imagehandler/65accf80-6bfb-4d34-8371-cceb5dc1dfa5\" img_width\u003d\"1200\" img_height\u003d\"852\" inline\u003d\"0\" alt\u003d\"看到裂隙你就能记住坤卦之象\" onerror\u003d\"javascript:errorimg.call(this);\"\u003e\u003cp class\u003d\"pgc-img-caption\"\u003e\u003c/p\u003e\u003c/div\u003e\u003cp\u003e天衣无缝，地道有隙。天有五贼，见之者昌。天机并不是天上盗来，而是产生于万物之隙。老百姓常说：\"打开篱笆钻进狐狸。\"\u003c/p\u003e\u003cp\u003e苏秦能游说六国，是因为六国都是君臣有隙，国与国之间互相戒备。有隙就有机可乘。\u003c/p\u003e\u003cp\u003e你们看，我解读易经的角度完全和别人不一样。\u003c/p\u003e\u003c/div\u003e",
    "source": "壹圆文化",
    "comment_count": 2,
    "logo_show_strategy": "normal",
    "hupu_content_image_urls": [
      ""
    ],
    "creator_uid": 5442441065
  },
  "success": true
}