{
  "_ck": {},
  "data": {
    "detail_source": "壹圆文化",
    "media_user": {
      "screen_name": "壹圆文化",
      "no_display_pgc_icon": false,
      "avatar_url": "https://p3.pstatp.com/thumb/ff4c0000329fa7e5df8e",
      "id": "1617719604580359",
      "user_auth_info": {
        "auth_type": "0",
        "other_auth": {
          "interest": "优质文化领域创作者"
        },
        "auth_info": "建筑公司总经理 优质文化领域创作者"
      }
    },
    "publish_time": 1576650960,
    "hotwords": [
      {
        "stress_type": 0,
        "hot_word": "录明星整容视频勒索"
      },
      {
        "stress_type": 1,
        "hot_word": "宁静再演孝庄"
      },
      {
        "stress_type": 0,
        "hot_word": "日常佩戴13公斤黄金"
      },
      {
        "stress_type": 0,
        "hot_word": "中国化工集团被约谈"
      },
      {
        "stress_type": 0,
        "hot_word": "医生用筷子紧急救人"
      },
      {
        "stress_type": 1,
        "hot_word": "黄渤回应女版黄渤"
      },
      {
        "stress_type": 1,
        "hot_word": "贾跃亭股份被冻结"
      },
      {
        "stress_type": 1,
        "hot_word": "买老鼠夹送香肠"
      }
    ],
    "title": "什么是八卦相摩？什么是八卦相荡？",
    "url": "http://toutiao.com/group/6771664311589798404/",
    "high_quality_flag": "0",
    "impression_count": "223",
    "is_original": true,
    "is_pgc_article": true,
    "content": "\u003cdiv\u003e\u003cp\u003e上篇文章讲万物类象，记住下面最直观的象。\u003c/p\u003e\u003cp\u003e《说卦传》中写到：\u003cstrong\u003e雷以动之，风以散之，雨以润之，日以烜之，艮以止，兑以说之，乾以君之，坤以藏之\u003c/strong\u003e。\u003c/p\u003e\u003cdiv class\u003d\"pgc-img\"\u003e\u003cimg src\u003d\"https://p3.pstatp.com/large/dfic-imagehandler/2046ffe2-940c-47a8-8548-1883d4a06b74\" img_width\u003d\"1200\" img_height\u003d\"798\" inline\u003d\"0\" alt\u003d\"什么是八卦相摩？什么是八卦相荡？\" onerror\u003d\"javascript:errorimg.call(this);\"\u003e\u003cp class\u003d\"pgc-img-caption\"\u003e\u003c/p\u003e\u003c/div\u003e\u003cp\u003e很好理解，震雷动，巽风吹散，坎水云雨润，离卦丽日中天似火烤，艮卦高山仰止，兑卦丰收成熟喜悦之情溢于言表，乾天尊贵如君父，坤地柔顺如母万物归藏。\u003c/p\u003e\u003cp\u003e讲完八经卦，要进入六十四卦了。六十四卦是六爻卦，它是什么样的体系呢？《说卦传》中有这么一段话：\u003c/p\u003e\u003cp\u003e\u003cstrong\u003e立天之道，曰阴与阳；立地之道，曰柔与刚；立人之道，曰仁与义。兼三才而两之，故易六画而成卦。分阴分阳，迭用柔刚，故易六画而成章。\u003c/strong\u003e\u003c/p\u003e\u003cp\u003e就是说八经卦原来描述的是天地自然之象。人活在天地间，不但能适用自然，而且能生产、创造改造自然。因而有了天、地、人三才的概念。\u003c/p\u003e\u003cdiv class\u003d\"pgc-img\"\u003e\u003cimg src\u003d\"https://p3.pstatp.com/large/dfic-imagehandler/5c048220-d417-4016-b347-a09f03a08b50\" img_width\u003d\"1023\" img_height\u003d\"682\" inline\u003d\"0\" alt\u003d\"什么是八卦相摩？什么是八卦相荡？\" onerror\u003d\"javascript:errorimg.call(this);\"\u003e\u003cp class\u003d\"pgc-img-caption\"\u003e\u003c/p\u003e\u003c/div\u003e\u003cp\u003e一卦立爻，有三才二体之义。六爻之卦，分三才，有两体。\u003c/p\u003e\u003cp\u003e说白了，就是爻有阴阳之位，初、三、五为阳，二、四、六为阴。爻本身又有阴、阳的性质，就叫柔与刚。这样阴阳爻与阴阳位，依次迭用，爻爻相错自然成卦。\u003c/p\u003e\u003cp\u003e提醒大家注意，六爻卦也是从小往上画，上面所述是文王和孔子他们定义的六爻卦体，在道家还是不一样的。\u003c/p\u003e\u003cp\u003e比如陈抟把六爻之位定义为：上爻为天，初爻为地，中间四爻，从下往上数依次代表北东西南四个方位。这叫周流六虚。\u003c/p\u003e\u003cp\u003e既然是讲《周易》六十四卦，当然要回到周孔的六爻卦体系。\u003c/p\u003e\u003cdiv class\u003d\"pgc-img\"\u003e\u003cimg src\u003d\"https://p3.pstatp.com/large/pgc-image/091eb74668484dbbb196ed39a0542e85\" img_width\u003d\"500\" img_height\u003d\"333\" inline\u003d\"0\" alt\u003d\"什么是八卦相摩？什么是八卦相荡？\" onerror\u003d\"javascript:errorimg.call(this);\"\u003e\u003cp class\u003d\"pgc-img-caption\"\u003e\u003c/p\u003e\u003c/div\u003e\u003cp\u003e爻爻相错而成卦，但爻爻相错是难记难用的，六十四卦是建立在八卦的基础上，应该是八卦相错。八卦相错就是八卦相摩和八卦相荡。\u003c/p\u003e\u003cp\u003e八卦相摩很多易学家认为是刚柔爻在阴阳位迭代就叫相摩。我认为不对，应该是八经卦相互间的相摩和相荡就成了六十四卦。\u003c/p\u003e\u003ch1\u003e一、什么是八卦相摩？\u003c/h1\u003e\u003cp\u003e让我们闭上眼睛，再回忆一下先天八卦的图。上乾下坤，顺时针方向，长男代父，震卦从坤旁边出发，经离、兑到上乾结束，形成阳仪，就象大哥带着两个妹妹回到父亲身边。\u003c/p\u003e\u003cdiv class\u003d\"pgc-img\"\u003e\u003cimg src\u003d\"https://p3.pstatp.com/large/pgc-image/7adf20125ec54e7c8d40fbfc20698765\" img_width\u003d\"2120\" img_height\u003d\"2136\" inline\u003d\"0\" alt\u003d\"什么是八卦相摩？什么是八卦相荡？\" onerror\u003d\"javascript:errorimg.call(this);\"\u003e\u003cp class\u003d\"pgc-img-caption\"\u003e\u003c/p\u003e\u003c/div\u003e\u003cp\u003e长女代母，巽卦从乾卦旁边出发，经坎、艮再到下坤结束，形成阴仪，就象大姐带着两个弟弟又回到母亲身边。这样记忆很形象。\u003c/p\u003e\u003cp\u003e我们再想象一个磨盘，上磨盘是先天八卦，下磨盘也是先天八卦。下盘不动，上盘顺时针转。不管什么东西，启动时都是最难，需要最大能量的，不管是火箭还是磨盘。\u003c/p\u003e\u003cp\u003e用过石磨的应该有这样的经验，有时用上吃奶的力气还不一定能第一下推动，真正动起来就轻松了。\u003c/p\u003e\u003cp class\u003d\"ql-align-justify\"\u003e\u003cbr\u003e\u003c/p\u003e{!-- PGC_COLUMN --}\u003cp\u003e\u003cbr\u003e\u003c/p\u003e\u003cdiv class\u003d\"pgc-img\"\u003e\u003cimg src\u003d\"https://p3.pstatp.com/large/dfic-imagehandler/46c9619d-34f1-46b2-86a3-50b73114341b\" img_width\u003d\"1200\" img_height\u003d\"798\" inline\u003d\"0\" alt\u003d\"什么是八卦相摩？什么是八卦相荡？\" onerror\u003d\"javascript:errorimg.call(this);\"\u003e\u003cp class\u003d\"pgc-img-caption\"\u003e\u003c/p\u003e\u003c/div\u003e\u003cp\u003e开车也是这样，手动档坡道起步是很要技术的，不但容易闷死还可能向后溜坡，万事开头难。\u003c/p\u003e\u003cp\u003e开始摩动，乾到巽，上乾下巽就是天风姤卦，这是十二辟卦，夏至一阴生。同时坤到震，上坤下震就是地雷复卦，也是十二辟卦，冬至一阳生。\u003c/p\u003e\u003cp\u003e同时，正东离卦摩上兑卦，上离下兑就是火泽睽卦。火欲上，水欲下，乖离之卦，离心离德，同床异梦，强扭的瓜不甜。正西坎卦摩上艮卦，上坎下艮就是水山蹇卦。艰险在前，是个难卦，见险则止。\u003c/p\u003e\u003cp\u003e其它四维摩上去，上兑下乾为泽天夬卦，说明启动要有决断，五阳决一阴，不能有一丝犹豫。巽卦摩上坎卦，上巽下水为风水涣卦，说明相摩就会有离散的可能。\u003c/p\u003e\u003cp\u003e相摩后唯一的好卦就是震卦摩上离卦，上震下离是雷火丰卦，表示有丰厚的收获。\u003c/p\u003e\u003cp\u003e震为开始行动，卦象一开始就已经告诉你，有付出就会有回报，克服重重困难就会有光明的未来。\u003c/p\u003e\u003cp\u003e这就是八卦相摩，一直可以象摩天轮一样摩下去，摩上其它七卦，总共就是七八共五十六卦。\u003c/p\u003e\u003ch1\u003e二、什么是八卦相荡？\u003c/h1\u003e\u003cp\u003e八卦相荡就象荡秋千一样，你荡过来，我荡过去。荡过秋千的应该知道，荡秋千只能向对面荡，不可能侧面荡。\u003c/p\u003e\u003cdiv class\u003d\"pgc-img\"\u003e\u003cimg src\u003d\"https://p3.pstatp.com/large/dfic-imagehandler/dde4c4cd-0965-4784-bc10-347694adc1ff\" img_width\u003d\"1200\" img_height\u003d\"800\" inline\u003d\"0\" alt\u003d\"什么是八卦相摩？什么是八卦相荡？\" onerror\u003d\"javascript:errorimg.call(this);\"\u003e\u003cp class\u003d\"pgc-img-caption\"\u003e\u003c/p\u003e\u003c/div\u003e\u003cp\u003e所以，八卦相荡是以对宫而言。\u003c/p\u003e\u003cp\u003e乾坤：坤上去就是地天泰卦，乾下来就是天地否卦。\u003c/p\u003e\u003cp\u003e震巽：震过去就是雷风恒卦，巽过来就是风雷益卦。\u003c/p\u003e\u003cp\u003e离坎：离过去就是火水未济卦，坎过来就是水火既济卦。\u003c/p\u003e\u003cp\u003e艮兑：艮过去就是山泽损卦，兑过来就是泽山咸卦。\u003c/p\u003e\u003cp\u003e这样八卦相荡就形成新的八个六爻卦。相荡的八个卦加上相摩的五十六卦总计六十四卦。\u003c/p\u003e\u003cp\u003e从上可知，用八大象来记六十四卦非常形象易记，后面的文章就来讲六十四卦的象。\u003c/p\u003e\u003c/div\u003e",
    "source": "壹圆文化",
    "comment_count": 2,
    "logo_show_strategy": "normal",
    "hupu_content_image_urls": [
      ""
    ],
    "creator_uid": 5442441065
  },
  "success": true
}