{
  "_ck": {},
  "data": {
    "detail_source": "壹圆文化",
    "media_user": {
      "screen_name": "壹圆文化",
      "no_display_pgc_icon": false,
      "avatar_url": "https://p3.pstatp.com/thumb/ff4c0000329fa7e5df8e",
      "id": "1617719604580359",
      "user_auth_info": {
        "auth_type": "0",
        "other_auth": {
          "interest": "优质文化领域创作者"
        },
        "auth_info": "建筑公司总经理 优质文化领域创作者"
      }
    },
    "publish_time": 1577364077,
    "hotwords": [
      {
        "stress_type": 0,
        "hot_word": "录明星整容视频勒索"
      },
      {
        "stress_type": 1,
        "hot_word": "宁静再演孝庄"
      },
      {
        "stress_type": 0,
        "hot_word": "日常佩戴13公斤黄金"
      },
      {
        "stress_type": 0,
        "hot_word": "中国化工集团被约谈"
      },
      {
        "stress_type": 0,
        "hot_word": "医生用筷子紧急救人"
      },
      {
        "stress_type": 1,
        "hot_word": "黄渤回应女版黄渤"
      },
      {
        "stress_type": 1,
        "hot_word": "贾跃亭股份被冻结"
      },
      {
        "stress_type": 1,
        "hot_word": "买老鼠夹送香肠"
      }
    ],
    "title": "如何巧妙记忆地火明夷卦和山火贲卦之象？",
    "url": "http://toutiao.com/group/6774727121441915395/",
    "high_quality_flag": "0",
    "impression_count": "287",
    "is_original": true,
    "is_pgc_article": true,
    "content": "\u003cdiv\u003e\u003cp\u003e本开始讲以离卦为内卦，与八卦相摩而成的卦。\u003c/p\u003e\u003cp\u003e首先也是阴仪巽坎艮坤，阴退与离卦相摩，就是地火明夷、山火贲、水火既济、风火家人四卦。\u003c/p\u003e\u003ch1\u003e（一）满目疮痍记明夷卦象\u003c/h1\u003e\u003cp\u003e阴仪第一卦坤卦和离卦相摩，上坤下离，地火明夷卦。\u003c/p\u003e\u003cp\u003e火入地中，大多人认为这是火山之象，这是完全不对的，火山下面是奔腾的岩浆，内卦用震卦或者坎卦更为合适。\u003c/p\u003e\u003cdiv class\u003d\"pgc-img\"\u003e\u003cimg src\u003d\"https://p3.pstatp.com/large/dfic-imagehandler/8029895c-a5e9-44ed-b798-1256ed790af1\" img_width\u003d\"1200\" img_height\u003d\"800\" inline\u003d\"0\" alt\u003d\"如何巧妙记忆地火明夷卦和山火贲卦之象？\" onerror\u003d\"javascript:errorimg.call(this);\"\u003e\u003cp class\u003d\"pgc-img-caption\"\u003e\u003c/p\u003e\u003c/div\u003e\u003cp\u003e把地面的一切物体破坏掉叫夷为平地。\"明\"字又有火光冲天之象，\"明夷\"就是一场大火夷为平地，这是个难卦，就是火灾之象。\u003c/p\u003e\u003cp\u003e此卦初爻爻辞：\"\u003cstrong\u003e明夷于飞，垂其翼。君子于行。三日不食。有攸往，主人有言。\u003c/strong\u003e\"就把火灾情形描写的很形象。\u003c/p\u003e\u003cp\u003e山林起大火，藏身于内的野鸡（离卦之象）等飞禽自然惊恐飞逃，被烧得灰头土脸又惊又累，自然耷拉着翅膀。\u003c/p\u003e\u003cdiv class\u003d\"pgc-img\"\u003e\u003cimg src\u003d\"https://p3.pstatp.com/large/dfic-imagehandler/cfcd07fb-8a00-4d6b-9bd8-d08693e01dab\" img_width\u003d\"1200\" img_height\u003d\"791\" inline\u003d\"0\" alt\u003d\"如何巧妙记忆地火明夷卦和山火贲卦之象？\" onerror\u003d\"javascript:errorimg.call(this);\"\u003e\u003cp class\u003d\"pgc-img-caption\"\u003e\u003c/p\u003e\u003c/div\u003e\u003cp\u003e第二句就讲人遭了火灾的情形。谁家遭了难，自然是三天都吃不下饭，财物、房子全部都没啦，简直形同路人。为什么说君子？因为小人是趁火打劫之人。\u003c/p\u003e\u003cp\u003e受了灭顶之灾只能有求于人。有人安慰，也可能有人责备不小心，少不了周围的指指点点，这时只能低声下气，乞得别人的济困帮扶。\u003c/p\u003e\u003cp\u003e可能会有朋友问，为什么上坤下离，火在地中呢？\u003c/p\u003e\u003cdiv class\u003d\"pgc-img\"\u003e\u003cimg src\u003d\"https://p3.pstatp.com/large/dfic-imagehandler/0ea4392f-87c2-4068-a307-16361fa0ddb7\" img_width\u003d\"487\" img_height\u003d\"300\" inline\u003d\"0\" alt\u003d\"如何巧妙记忆地火明夷卦和山火贲卦之象？\" onerror\u003d\"javascript:errorimg.call(this);\"\u003e\u003cp class\u003d\"pgc-img-caption\"\u003e\u003c/p\u003e\u003c/div\u003e\u003cp\u003e有过山火救援经验的应该知道，火灾过后，明火变暗火，最怕是死灰复燃引起爆燃，这种二次灾害有可能导致更大的损失。\u003c/p\u003e\u003cp\u003e离卦代表文明，有人说是文明被压制，不太把妥当，不如说是伤害过后又充满希望，就如我们开垦新地用烧荒的方法一样，经过火灾的土地，来年春风吹又生，土地更肥沃了。\u003c/p\u003e\u003cp\u003e从明夷卦开始，正值立春过后，所以一切就充满希望。\u003c/p\u003e\u003ch1 class\u003d\"ql-align-justify\"\u003e（二）日出江花红胜火，春来江水绿如蓝，这是贲卦之象\u003c/h1\u003e\u003cp\u003e阴仪阴退第二卦为艮卦，与离卦相摩，上艮下离，山火贲卦。\u003c/p\u003e\u003cp\u003e艮为止，离火在内，说明这是可以控制的火，不是明夷卦这样的灾难之火。山下有火，就如燃起篝火，人们绕着火堆跳锅庄舞，青年男女表达爱慕之情。\u003c/p\u003e\u003cdiv class\u003d\"pgc-img\"\u003e\u003cimg src\u003d\"https://p3.pstatp.com/large/dfic-imagehandler/a9f61d73-c28e-4ad0-8111-e85069b414f7\" img_width\u003d\"1200\" img_height\u003d\"799\" inline\u003d\"0\" alt\u003d\"如何巧妙记忆地火明夷卦和山火贲卦之象？\" onerror\u003d\"javascript:errorimg.call(this);\"\u003e\u003cp class\u003d\"pgc-img-caption\"\u003e\u003c/p\u003e\u003c/div\u003e\u003cp\u003e在希腊神话中，普罗米修斯盗来天火，给人类带来文明，最后被宙斯锁在高加索山上接受惩罚。北京奥运会圣火也登上了珠穆朗玛峰。看来一切文明之火，离不开山这个背景。\u003c/p\u003e\u003cp\u003e上述讲的是人类文明的礼仪和仪式感，看上去是做表面功夫，其实贲卦就是讲修饰、装饰的卦。\u003c/p\u003e\u003cp\u003e你看\"贲\"字上面就是花卉的\"卉\"字，贲卦按爻日推算正是在雨水前夕，阳气生发，草木萌动，万芽吐绿，南方大部分地方早已是繁花似锦。\u003c/p\u003e\u003cp class\u003d\"ql-align-justify\"\u003e\u003cbr\u003e\u003c/p\u003e{!-- PGC_COLUMN --}\u003cp\u003e\u003cbr\u003e\u003c/p\u003e\u003cdiv class\u003d\"pgc-img\"\u003e\u003cimg src\u003d\"https://p3.pstatp.com/large/dfic-imagehandler/65e29283-6bf8-4e76-b2ef-1bd99c57e87b\" img_width\u003d\"1200\" img_height\u003d\"813\" inline\u003d\"0\" alt\u003d\"如何巧妙记忆地火明夷卦和山火贲卦之象？\" onerror\u003d\"javascript:errorimg.call(this);\"\u003e\u003cp class\u003d\"pgc-img-caption\"\u003e\u003c/p\u003e\u003c/div\u003e\u003cp\u003e春风又绿江南岸，装点大地最美好的莫过那一片绿了，春回大地总是让人喜悦。离为南方，艮山在离外，所以最先绿的是山的南坡。\u003c/p\u003e\u003cp\u003e\"贲\"字下面是\"朋贝\"的意思，穿金戴银，结婚送钻戒，这是人身上装饰品。贲卦就是讲装饰的卦。\u003c/p\u003e\u003cp\u003e三分长相，七分打扮。人要捣饰自己离不开镜子。艮卦的错卦是兑卦，湖面\u003cspan\u003e就\u003c/span\u003e\u003cspan\u003e象一面镜子\u003c/span\u003e。白居易有一句诗非常应景，\u003cstrong\u003e日出江花红胜火，春来江水绿如蓝\u003c/strong\u003e。\u003c/p\u003e\u003cdiv class\u003d\"pgc-img\"\u003e\u003cimg src\u003d\"https://p3.pstatp.com/large/dfic-imagehandler/b41a7fc1-65b3-4bd2-a781-d63856ec8370\" img_width\u003d\"1023\" img_height\u003d\"572\" inline\u003d\"0\" alt\u003d\"如何巧妙记忆地火明夷卦和山火贲卦之象？\" onerror\u003d\"javascript:errorimg.call(this);\"\u003e\u003cp class\u003d\"pgc-img-caption\"\u003e\u003c/p\u003e\u003c/div\u003e\u003cp\u003e太阳出来，照得江边的鲜花一片\u003cspan\u003e红通通\u003c/span\u003e，与太阳照射下的湖面互相印衬，更是显得一片红火。所以贲卦之火代表文明礼仪、美艳景色。是装饰，是虚幻，但人类活动又离不开它。\u003c/p\u003e\u003cp\u003e明夷卦把一切夷为平地，灾难过后，绿色又会装点大地，给人们带来春天的温暖和希望。易经的思维就是这样，安中有危，危中有机。几千年来，在易经文化中浸润的中华民族从来没有畏惧过任何困难。\u003c/p\u003e\u003c/div\u003e",
    "source": "壹圆文化",
    "comment_count": 5,
    "logo_show_strategy": "normal",
    "hupu_content_image_urls": [
      ""
    ],
    "creator_uid": 5442441065
  },
  "success": true
}