{
  "_ck": {},
  "data": {
    "detail_source": "壹圆文化",
    "media_user": {
      "screen_name": "壹圆文化",
      "no_display_pgc_icon": false,
      "avatar_url": "https://p3.pstatp.com/thumb/ff4c0000329fa7e5df8e",
      "id": "1617719604580359",
      "user_auth_info": {
        "auth_type": "0",
        "other_auth": {
          "interest": "优质文化领域创作者"
        },
        "auth_info": "建筑公司总经理 优质文化领域创作者"
      }
    },
    "publish_time": 1580909916,
    "hotwords": [
      {
        "stress_type": 0,
        "hot_word": "录明星整容视频勒索"
      },
      {
        "stress_type": 1,
        "hot_word": "宁静再演孝庄"
      },
      {
        "stress_type": 0,
        "hot_word": "日常佩戴13公斤黄金"
      },
      {
        "stress_type": 0,
        "hot_word": "中国化工集团被约谈"
      },
      {
        "stress_type": 0,
        "hot_word": "医生用筷子紧急救人"
      },
      {
        "stress_type": 1,
        "hot_word": "黄渤回应女版黄渤"
      },
      {
        "stress_type": 1,
        "hot_word": "贾跃亭股份被冻结"
      },
      {
        "stress_type": 1,
        "hot_word": "买老鼠夹送香肠"
      }
    ],
    "title": "杨公养老看雌雄，鬼谷子捭阖靠人心，念的都是易经",
    "url": "http://toutiao.com/group/6789956388601725444/",
    "high_quality_flag": "0",
    "impression_count": "6608",
    "is_original": true,
    "is_pgc_article": true,
    "content": "\u003cp\u003e中国人向来有追溯历史的传统，五千年博大精深的文化底蕴流淌在我们民族的血液里，根植在国人的心灵中。\u003c/p\u003e\u003cdiv class\u003d\"pgc-img\"\u003e\u003cimg src\u003d\"https://p3.pstatp.com/large/dfic-imagehandler/96ab7dfc-9d39-437f-a445-98dc7d6b6e25\" img_width\u003d\"1200\" img_height\u003d\"803\" inline\u003d\"0\" alt\u003d\"杨公养老看雌雄，鬼谷子捭阖靠人心，念的都是易经\" onerror\u003d\"javascript:errorimg.call(this);\"\u003e\u003cp class\u003d\"pgc-img-caption\"\u003e\u003c/p\u003e\u003c/div\u003e\u003cp\u003e追记历史，就是关怀当下，从先人的智慧中找寻当下问题的解决之道。开宗立派的代表人物总会吸引我们求知探索的目光。\u003c/p\u003e\u003cp\u003e鬼谷子同样受样今人的追捧，他的智慧是他及其弟子在历史上经实践有效的。其捭阖之道就是易经阴阳学说的实践。\u003c/p\u003e\u003cp\u003e他说：\u0026#34;\u003cstrong\u003e捭阖者，天地之道。捭阖者，以变动阴阳，四时开闭，以化万物。纵横反出，反覆反忤，必由此矣。\u003c/strong\u003e\u0026#34;\u003c/p\u003e\u003cp\u003e鬼谷子说捭阖之术符合天地阴阳之道，是符合自然规律的谋略。纵横上下，原始反终，就是利用天地阴阳，四时开闭之理。他把捭阖术上升到了易道的高度。\u003c/p\u003e\u003cdiv class\u003d\"pgc-img\"\u003e\u003cimg src\u003d\"https://p3.pstatp.com/large/dfic-imagehandler/e3cfa4c2-29bc-49fe-a6b1-801b2dacc8c3\" img_width\u003d\"1200\" img_height\u003d\"800\" inline\u003d\"0\" alt\u003d\"杨公养老看雌雄，鬼谷子捭阖靠人心，念的都是易经\" onerror\u003d\"javascript:errorimg.call(this);\"\u003e\u003cp class\u003d\"pgc-img-caption\"\u003e\u003c/p\u003e\u003c/div\u003e\u003cp\u003e他进一步说明捭阖术的阴阳之道是天地间解决万事万物的钥匙。\u0026#34;\u003cstrong\u003e为小无内，为大无外。益损、去就、倍反，皆以阴阳御其事。\u003c/strong\u003e\u0026#34;\u003c/p\u003e\u003cp\u003e就是说任何事情无论小到极点，还是大到无穷，都可以用捭阖之术。从小处入手处理问题，不能专盯内部小范围，而要进入无限微妙的境界。从大处着眼处理问题时，不要仅仅看到外围大世界，还要注意事物内部的变化。\u003c/p\u003e\u003cp\u003e以道相成曰益，以事相贼曰损，义乖曰去，志同曰就，去而遂绝曰倍，去而复来曰反。所有这些其实就是易经阴阳之理。\u003c/p\u003e\u003cp\u003e就是说所有的增益与损害、离去和接纳、背叛和回归，这些复杂的事物都可以用阴阳的规律来加以驾驭和控制。\u003c/p\u003e\u003cdiv class\u003d\"pgc-img\"\u003e\u003cimg src\u003d\"https://p3.pstatp.com/large/dfic-imagehandler/88a929fd-d9f1-47c2-9dde-cfe8ac2b6f79\" img_width\u003d\"1200\" img_height\u003d\"797\" inline\u003d\"0\" alt\u003d\"杨公养老看雌雄，鬼谷子捭阖靠人心，念的都是易经\" onerror\u003d\"javascript:errorimg.call(this);\"\u003e\u003cp class\u003d\"pgc-img-caption\"\u003e\u003c/p\u003e\u003c/div\u003e\u003cp\u003e捭阖之术如何用阴阳之道？\u003c/p\u003e\u003cp\u003e\u0026#34;\u003cstrong\u003e阳动而行，阴止而藏，阳动而出，阴隐而入。阳还终阴，阴极反阳，以阳动者，德相生也。以阴静者，形相成也。以阳求阴，包以德也。以阴结阳，施以力也。\u003c/strong\u003e\u0026#34;\u003c/p\u003e\u003cp\u003e阳有动象，要行动。阴为静止，要隐藏。阳动阴隐，出入有度。一阴一阳之谓道，阳极返阴，阴极阳生。\u003c/p\u003e\u003cp\u003e阳动要与内在自然规律相适应，按事物内在的本质规律来处理问题，用阳的方法促使事物按规律发展。阴静的形势下就要不动如山，形者成其静，用阴的方法来安定外在形态。\u003c/p\u003e\u003cp\u003e万物负阴而抱阳，对于阴的事物，要用阳这样的自然规律来认识并且规范和约束它。阴的事物要连接上阳的事物，就必须施加外部的力量。\u003c/p\u003e\u003cdiv class\u003d\"pgc-img\"\u003e\u003cimg src\u003d\"https://p3.pstatp.com/large/dfic-imagehandler/99dfdc62-0ce9-4dd0-8645-ec8d707069ae\" img_width\u003d\"1023\" img_height\u003d\"682\" inline\u003d\"0\" alt\u003d\"杨公养老看雌雄，鬼谷子捭阖靠人心，念的都是易经\" onerror\u003d\"javascript:errorimg.call(this);\"\u003e\u003cp class\u003d\"pgc-img-caption\"\u003e\u003c/p\u003e\u003c/div\u003e\u003cp\u003e阴阳互根，互相依存，互相结合，相辅相成，互为其用，就可以通过捭阖之道达成我们的目标。\u003c/p\u003e\u003cp\u003e捭阖之术就是天地阴阳之道，但鬼谷子重点放在游说之上，所以有后面一句：\u0026#34;\u003cstrong\u003e阴阳相求，由捭阖也。此天地阴阳之道，而说人之法也。为万事之先，是谓圆方之门户。\u003c/strong\u003e\u0026#34;\u003c/p\u003e\u003cp\u003e天圆地方，天门地户，巽乾之位。当然这里不是讲天门地户，而是说上面所讲的阴阳关系。在游说上也是根本法则。\u003c/p\u003e\u003cp\u003e鬼谷子认为\u0026#34;捭\u0026#34;与\u0026#34;阖\u0026#34;，阴阳相辅相成之道，游说之法是在料万事万物变化之先，也是解决万事万物的钥匙。他把人在处理各种问题放在最重要的位置，只要顺应自然规律，人的因素永远是一位的。\u003c/p\u003e",
    "source": "壹圆文化",
    "comment_count": 6,
    "logo_show_strategy": "normal",
    "hupu_content_image_urls": [
      ""
    ],
    "creator_uid": 5442441065
  },
  "success": true
}