{
  "_ck": {},
  "data": {
    "detail_source": "壹圆文化",
    "media_user": {
      "screen_name": "壹圆文化",
      "no_display_pgc_icon": false,
      "avatar_url": "https://p3.pstatp.com/thumb/ff4c0000329fa7e5df8e",
      "id": "1617719604580359",
      "user_auth_info": {
        "auth_type": "0",
        "other_auth": {
          "interest": "优质文化领域创作者"
        },
        "auth_info": "建筑公司总经理 优质文化领域创作者"
      }
    },
    "publish_time": 1590548378,
    "title": "刚健而动，持之以恒记大壮卦，刚健文明，顺天应时记大有卦",
    "url": "http://toutiao.com/group/6831353262403224072/",
    "high_quality_flag": "0",
    "impression_count": "391",
    "is_original": true,
    "is_pgc_article": true,
    "content": "\u003cdiv\u003e\u003cp\u003e以乾卦为内卦，阴仪四卦与之相摩而成的四卦已经写完。现在开始写阳仪四卦与乾卦相摩。\u003c/p\u003e\u003cp\u003e外卦为震，与内乾相摩，上震下乾，雷天大壮卦。外卦为离，与内乾相摩，上离下乾，火天大有卦。\u003c/p\u003e\u003ch1\u003e1、刚健而动，持之以恒记大壮卦\u003c/h1\u003e\u003cp\u003e上震下乾，雷天大壮卦，这也是个消息卦，内乾为健，外震为动。\u003c/p\u003e\u003cp\u003e雷在天上，大鸣大放，声震千里。四阳排二阴，阳已经过半，非常强势。从卦名就可得知。\u003c/p\u003e\u003cp\u003e但是人怕出名猪怕壮，很多时候，觉得自己强壮了就会横冲直撞。\u003c/p\u003e\u003cp\u003e以我们熟悉的动物来说，公羊是喜欢正面冲撞来怼东西，所以九三、九四、六五、上六的爻辞都以羊的状态来描述。\u003c/p\u003e\u003cdiv class\u003d\"pgc-img\"\u003e\u003cimg src\u003d\"https://p3.pstatp.com/large/dfic-imagehandler/3f84131d-6319-49ee-a9ec-796d72b43c00\" img_width\u003d\"1200\" img_height\u003d\"800\" inline\u003d\"0\" alt\u003d\"刚健而动，持之以恒记大壮卦，刚健文明，顺天应时记大有卦\" onerror\u003d\"javascript:errorimg.call(this);\"\u003e\u003cp class\u003d\"pgc-img-caption\"\u003e\u003c/p\u003e\u003c/div\u003e\u003cp\u003e比如上六的爻辞：\"羝羊触藩，不能退，不能遂，无攸利，艰则吉。\"\u003c/p\u003e\u003cp\u003e就是讲拿公羊抵篱笆来举例，羊角被篱笆卡住了，进又不是，退又退不了，陷入进退都很尴尬的境地。\u003c/p\u003e\u003cp\u003e上六阴爻象栅栏，六五阴爻在下面兑卦，九三至六五形成兑卦，兑为羊，六五就是羊角。所以九三至上六爻辞都有羊。\u003c/p\u003e\u003cp\u003e毕竟阳的力量大，阴爻只有二，所以坚持就会顺利，这就是上六\"艰则吉\"的含义，公羊坚持前冲，总会冲破栅栏的时候。\u003c/p\u003e\u003cp\u003e大壮卦的卦辞也是：\"大壮，利贞\"。也是坚持之意。但这一卦，对我们应该有更多的启示。\u003c/p\u003e\u003cp\u003e我们可以观察动物，会发现凡是大型食草动物都会长着犄角，而大型食肉动物都没有。\u003c/p\u003e\u003cp\u003e说明真正强壮、强大的，外在没有棱角，反而在食物链的上端。而弱小的却是表面看上去强大，外在有凭借，反而是食物链的下方。\u003c/p\u003e\u003cdiv class\u003d\"pgc-img\"\u003e\u003cimg src\u003d\"https://p3.pstatp.com/large/dfic-imagehandler/c003efde-8148-435e-870b-304c8aa73bec\" img_width\u003d\"1200\" img_height\u003d\"801\" inline\u003d\"0\" alt\u003d\"刚健而动，持之以恒记大壮卦，刚健文明，顺天应时记大有卦\" onerror\u003d\"javascript:errorimg.call(this);\"\u003e\u003cp class\u003d\"pgc-img-caption\"\u003e\u003c/p\u003e\u003c/div\u003e\u003cp\u003e人也是这样，真正内心强大的人，反而会收敛锋芒，不需要很多外在的修饰。反而四处炫耀者却会透露出他内心的空虚。\u003c/p\u003e\u003cp\u003e大壮卦，两阴蓄四阳，就是告诉我们几重意思。一是自己力量强大时，只要坚持，外在的束缚只会是暂时的。\u003c/p\u003e\u003cp\u003e二是，当自己强壮时，反而要懂得收敛锋芒。三是当你到了只会依靠外在力量时，你已经失去了自己的强大。\u003c/p\u003e\u003cp\u003e按先天圆图爻日计算，大壮卦大致在5月31日至6月6日间。\u003c/p\u003e\u003cp\u003e6月1日是国际儿童节，婴儿来到人世间的第一声啼哭真是震天响，老子也说过，新生儿啼哭三天声音都不会哑，你看他的声音多壮实，成人就不行，喊一天嗓子就废了。另外大壮卦也是寄寓茁壮成长之义。\u003c/p\u003e\u003cp\u003e6月6日是国际环境日，中国人常说，危邦不入，乱邦不居，要想能茁壮成长，就得有个好环境。\u003c/p\u003e\u003ch1\u003e2、刚健文明，顺天应时记大有卦\u003c/h1\u003e\u003cp\u003e上离下乾，火在天上，火天大有卦，上离又代表文明，文明以天下，当然好卦。\u003c/p\u003e\u003cdiv class\u003d\"pgc-img\"\u003e\u003cimg src\u003d\"https://p3.pstatp.com/large/dfic-imagehandler/e31c0b62-b767-40bc-a45e-e0abfbf0afd4\" img_width\u003d\"1200\" img_height\u003d\"795\" inline\u003d\"0\" alt\u003d\"刚健而动，持之以恒记大壮卦，刚健文明，顺天应时记大有卦\" onerror\u003d\"javascript:errorimg.call(this);\"\u003e\u003cp class\u003d\"pgc-img-caption\"\u003e\u003c/p\u003e\u003c/div\u003e\u003cp\u003e大有卦的卦辞：\"元亨\"。大有卦就有烈火烹油，鲜花着锦之象，不是因为阳爻多，而是有六五这个阴爻。\u003c/p\u003e\u003cp\u003e六五的爻辞是：\"厥孚交如，威如，吉。\"六五处于尊贵之位，却能谦虚讲诚信，有德而配位，自然感召他人，所以五阳以应之，这样其威信自然更加尊崇。\u003c/p\u003e\u003cp\u003e德而高位，有人有财有物，自然是大有。真正的成功人士，在做人上应该都不错。\u003c/p\u003e\u003cp\u003e有位讲德，其德更隆，如果没位就难说了。比如说平易近人，只有高位者才讲平易近人，本来就普罗大众的一员，哪来平易近人？\u003c/p\u003e\u003cp\u003e所以大有卦彖曰：\"大有，柔得尊位大中，而上下应之，曰大有。\"\u003c/p\u003e\u003cp\u003e大有卦又有顺天应时之象，离卦代表文明，方位在南，离又为日为火，火曰炎上。\u003c/p\u003e\u003cp\u003e乾德刚健，离德文明，五爻本是乾阳本位，动而变离日，日应乾而行于天，四时成。\u003c/p\u003e\u003cp\u003e下卦初阳为震为春，中阳为坎为冬。上卦为离为夏，互卦为兑为秋，一卦有四时四季。\u003c/p\u003e\u003cdiv class\u003d\"pgc-img\"\u003e\u003cimg src\u003d\"https://p3.pstatp.com/large/dfic-imagehandler/c20b7f8c-2282-4b0b-b8fb-7ec4c3c66833\" img_width\u003d\"1200\" img_height\u003d\"673\" inline\u003d\"0\" alt\u003d\"刚健而动，持之以恒记大壮卦，刚健文明，顺天应时记大有卦\" onerror\u003d\"javascript:errorimg.call(this);\"\u003e\u003cp class\u003d\"pgc-img-caption\"\u003e\u003c/p\u003e\u003c/div\u003e\u003cp\u003e三至五爻，互卦上兑，兑为泽为润，下乾主阳主生，离夏主生长茂盛，兑秋主收成，三阳为艮，艮主收藏。\u003c/p\u003e\u003cp\u003e这就是大而富有之象，唯其大有，才以\"元亨\"。所以象曰：\"火在天上，大有。\"\u003c/p\u003e\u003cp\u003e上九的爻辞也是：\"自天佑之，吉无不利。\"\u003c/p\u003e\u003cp\u003e按先天圆图爻日计算，大有卦大致在6月6日至12日间。\u003c/p\u003e\u003cp\u003e其间6月6日是全国爱眼日，上卦为离为目，代表眼睛，五爻动而成离，所以要好好爱护眼睛。\u003c/p\u003e\u003cp\u003e6月8日是世界海洋日，地球生命来自水，来自海洋，人们常说，陆地上有的，海洋中都有，海洋生物丰富则大有。\u003c/p\u003e\u003cp\u003e另外五爻乾阳本位而变阴，位高而有德，其胸怀就如大海般宽广，也有此意。\u003c/p\u003e\u003c/div\u003e",
    "source": "壹圆文化",
    "comment_count": 4,
    "logo_show_strategy": "normal",
    "hupu_content_image_urls": [
      ""
    ],
    "creator_uid": 5442441065
  },
  "success": true
}