{
  "source": "壹圆文化",
  "detail_source": "壹圆文化",
  "screen_name": "壹圆文化",
  "avatar_url": "https://p3.pstatp.com/thumb/ff4c0000329fa7e5df8e",
  "auth_id": "1617719604580359",
  "auth_info": "建筑公司总经理 优质文化领域创作者",
  "publish_time": 1544510539,
  "title": "洛书变化如魔方，人心难测似海洋，阴阳错综，五行克逆因人用",
  "url": "http://toutiao.com/group/6633622255844721156/",
  "comment_count": 57,
  "is_original": false,
  "data": [
    {
      "text": "河图形方实圆，阴阳合一，浑然天理，五行一气，一气流行，无为顺生自然之道。"
    },
    {
      "text": "洛书形圆实为方用，阴阳错综，五行克制，人在其中，千变万化，有为逆运变化之道。"
    },
    {
      "img": "https://p3.pstatp.com/large/pgc-image/5e322d642ba243acb1a5024a41abb214"
    },
    {
      "text": "一、 为学日益，为道日损，人为万物之灵，生而为逆"
    },
    {
      "text": "人为万物之灵，生而为逆，七情六欲，般般俱有，百忧感其心，万事劳其形。从心理学的角度，人在二至四岁是第一逆反期，反抗父母要自由，十四至十六岁是第二逆反期，要自主人格、社会平等。人的长成，有依赖，有斗争。老子说：为学日益，为道日损。"
    },
    {
      "text": "世上所谓“克”的事，基本是人战胜自然做成的，高峡出平湖，移山填海，大炼钢铁，消防救火，都是五行相克的应用。伟人说：与天斗其乐无穷，与地斗其乐无穷。人心又是有欲望的，人心不足蛇吞象，造再多的原子弹，最终还是用在人身上。创造力越大，毁灭力就越大，阴阳相伏，祸福相依。"
    },
    {
      "text": "二、洛书数字千变万化，人心诡谲难测，阴阳错综"
    },
    {
      "img": "https://p3.pstatp.com/large/pgc-image/650a81627e824cf4a880b852fa413bd5"
    },
    {
      "text": "洛书简简单单九个数字，却是最简单的三阶幻方，更大的阶数都能以此出神入化。最简单的纵横斜均为十五数，阳爻用九，阴爻用六也为十五数。少阴为八，少阳为七，也为十五数。神话说洛书数字本太一下九宫，以四十五数演星斗，北斗斗柄所指九宫，可以发现最明亮的星，方位、星数与洛书同。九宫四十数，共为360度。洛书外环阴数阳数错综相连，阳数在四正，阴数在四隅，顺行逆行。"
    },
    {
      "text": "三、洛书数，逆向数，五行克，十字找"
    },
    {
      "text": "为了方便记忆，可以背口诀，也可逆时针相加算数。五在中宫，从正北一白水开始，一加西北六等于正西七，正西七加西南二等于正南九，正南九加东南四等于正东三（十三，十不用，取三），正东三加东北八等于一（十一，十不用，取一）。"
    },
    {
      "text": "五行相克从十字找。看下图，中宫土克正北水，水克正南火，正西金克正东木，正东木克中宫土，十字相克，好记。"
    },
    {
      "img": "https://p3.pstatp.com/large/pgc-image/3e523cb0a45e4b5fb0f6b07bcdd9e5d7"
    },
    {
      "text": "四、洛书结合先天八卦，相得益彰，方位象数很好记"
    },
    {
      "text": "五为元牝之门，生死在此，顺逆在此，阳入阴出，五行错乱分散在此。洛书结合先天八卦如下图。乾为阳之极，用九为父在南，坤为阴之极用一为母在北（注意不要后天八卦的坎搞混）。乾坤生六子，数往五中间走。"
    },
    {
      "img": "https://p3.pstatp.com/large/pgc-image/4ed6f28fdb8845f29bf621a06582682d"
    },
    {
      "text": "乾为父得九，坤为母得一"
    },
    {
      "text": "震长男得八，巽长女得二"
    },
    {
      "text": "坎中男得七，离中女得三"
    },
    {
      "text": "艮少男得六，兑少女得四"
    },
    {
      "text": "以上数字方位和洛书数字暗合，互相验证便于记忆。不要试图从河图去解析洛书的形成，会把思维搞乱，河洛本一体，一体两面，自然而成。河图着重在原理，洛书着重讲变化。"
    }
  ]
}