{
  "source": "壹圆文化",
  "detail_source": "壹圆文化",
  "screen_name": "壹圆文化",
  "avatar_url": "https://p3.pstatp.com/thumb/ff4c0000329fa7e5df8e",
  "auth_id": "1617719604580359",
  "auth_info": "建筑公司总经理 优质文化领域创作者",
  "publish_time": 1545206491,
  "title": "洛书阴阳二气播行的数理",
  "url": "http://toutiao.com/group/6636611347830276616/",
  "comment_count": 34,
  "is_original": false,
  "data": [
    {
      "text": "从上文我已说到，不仅成数六、七、八、九四个数字分为老阴、少阳、少阴、老阳四象，生数一、二、三、四也两样分为四象。一是老阳，二是少阴，三是少阳，四是老阴。五是小成之数，十为大成之数。"
    },
    {
      "text": "河洛十个数字象兄弟又象夫妻，一二三四五六七八九十象兄弟相连，用甲乙丙丁戊己庚辛壬癸十天干一排，严丝合缝。河图生数成数一六共宗，二七同道，三八为朋，四九为友，阴阳结合象夫妻，十天干甲己合化土、乙庚合化金、丙辛合化水、丁壬合化木、戊癸合化火，丝毫不差。天干分五行以配五方，甲乙为始，戊己在中央，壬癸为终。"
    },
    {
      "img": "https://p3.pstatp.com/large/pgc-image/08fe93bd0a544f19a4cbc82f2a193208"
    },
    {
      "text": "河图、洛书皆天地自然而成，圣人则而布之，河图为体主合，洛书主变。洛书阳在四正，阴分布四隅。"
    },
    {
      "text": "生数四象中，一为道之宗，不用。四为老阴在地临制四方不用，少阴、少阳二气播行，形成洛书的千变万化。"
    },
    {
      "img": "https://p3.pstatp.com/large/pgc-image/dfd5df1f218440d0892927f18e517973"
    },
    {
      "text": "洛书"
    },
    {
      "text": "一、天三为少阳有力量，可播阴也可播阳，阳顺阴逆"
    },
    {
      "text": "1、阳三顺时针播阳"
    },
    {
      "text": "从天一在北开始顺时针，3x1\u003d3在东，3x3\u003d9在南，3x9\u003d27(取7）在西，3x7\u003d21(取1）回到北，3x27\u003d81(取1）也一样。"
    },
    {
      "text": "2、阳三顺时针播阴"
    },
    {
      "text": "从地二在西南开始顺时针，3x2\u003d6在西北，3x6\u003d18(取8）在东北，3x8\u003d24（取4）在东南，3x4\u003d12(取2）回到西北。也可以连乘，3x18\u003d54(取4），3x54\u003d162(取2），都一样。"
    },
    {
      "text": "二、地二少阴，只能在四隅逆向播阴"
    },
    {
      "text": "从西南地二开始逆时针，2x2\u003d4在东南，2x4\u003d8在东北，2x8\u003d16(取6）在西北，2x6\u003d12（取2）回到西南。"
    },
    {
      "text": "三、洛书也可阴阳一气连成一个逆时针的圆"
    },
    {
      "text": "从天一在北开始逆时针，1+6（西北）\u003d7（正西），7+2（西南）\u003d9（正南），9+4（东南）\u003d13（取3正东），3+8(东北）\u003d11（取1回到正北）。"
    },
    {
      "text": "洛书主变为用，就是那么神奇。"
    },
    {
      "img": "https://p3.pstatp.com/large/dfic-imagehandler/daaaa7e1-23fe-4e6a-9c29-fa2f3dc9c5f5"
    }
  ]
}