{
  "source": "壹圆文化",
  "detail_source": "壹圆文化",
  "screen_name": "壹圆文化",
  "avatar_url": "https://p3.pstatp.com/thumb/ff4c0000329fa7e5df8e",
  "auth_id": "1617719604580359",
  "auth_info": "建筑公司总经理 优质文化领域创作者",
  "publish_time": 1544774280,
  "title": "洛书九宫的数字千变万化，神鬼莫测超乎你想象",
  "url": "http://toutiao.com/group/6634755013493129731/",
  "comment_count": 58,
  "is_original": false,
  "data": [
    {
      "text": "洛书可以按数字方位对应布入九宫（如下图），简简单单九个数字，最简单的三阶幻方，变化万端，奥妙无方。试试浅析一下。"
    },
    {
      "img": "https://p3.pstatp.com/large/pgc-image/8a6763b684af44a19354131993e4047c"
    },
    {
      "text": "一、以中宫五为中心为轴相对的两个数字相加为十，体现了河图上的合十，跟先天八卦一样两两对。比如：4+6，9+1等等。"
    },
    {
      "text": "二、九宫九个数分别减去5，正负数相加，最后九个数的总和为零。"
    },
    {
      "text": "三、九个数字横、竖、斜各三个数相加都等于十五。如：4+9+2\u003d15，9+5+1\u003d15，4+5+6\u003d15。对应9（老阳）+6（老阴）\u003d15、7（少阳）+8（少阴）\u003d15。"
    },
    {
      "text": "三、在任意两列或者任意两行中，递变两位数相加都相等，比如43+38+84\u003d27+76+62。从下向上递变依然成立。即83+34+48\u003d67+72+26。任意两行也一样，如从左向右49+92+24\u003d35+57+73，从右向左也一样，61+18+86\u003d75+53+37。斜向也一样85+52+28\u003d45+56+64.它们的和都是165。"
    },
    {
      "text": "四、按上面的模式，递变为三位数依然相等，即438+384+843\u003d276+762+627。从下向上递数依然成立，即834+348+483\u003d672+726+267。它们的和为1665。再这样递变下去为四位数、五位数、六位数，一百位数、一千位数依然成立。比如四位数的和16665。真是神奇！"
    },
    {
      "text": "五、神奇之处还不在上面，更为神奇的是，左右两列平方和也相等。比如4^2+3^2+8^2\u003d2^2+7^2+7^2。上下两行的平方和也相等4^2+9^2+2^2\u003d8^2+1^2+6^2。按两位数、三位数的递进的数字的平方相加和依然可以相等，比如两位数即43^2+38^2+84^2\u003d27^2+76^2+62^2。三位数四位数平方和依然可以成立。也就是说一百位也好一千位也好都可以成立。大家可以推算推算。"
    },
    {
      "text": "六、有数学基础的朋友可以把九宫图用行列式的方法计算，可以得到一个周天数360。det[4 ，9， 2;3，5，7;8，1，6]\u003d360。周天360，就是一个圆。"
    },
    {
      "img": "https://p3.pstatp.com/large/dfic-imagehandler/df0570c3-4c11-4def-b5b1-120b3f0e74cf"
    },
    {
      "text": "看上去四四方方的九宫，算出的数却是一个周天360度的圆。甚至可以想象成一个圆球体。你看圆圆的地球上的万物，谁能逃得过这九个数的计算呢，洛书的应用在哪个方面都适用。"
    }
  ]
}