{
  "source": "壹圆文化",
  "detail_source": "壹圆文化",
  "screen_name": "壹圆文化",
  "avatar_url": "https://p3.pstatp.com/thumb/ff4c0000329fa7e5df8e",
  "auth_id": "1617719604580359",
  "auth_info": "建筑公司总经理 优质文化领域创作者",
  "publish_time": 1549116611,
  "title": "邵雍的先天六十四卦方圆图，你能看懂吗？",
  "url": "http://toutiao.com/group/6653214534808896007/",
  "comment_count": 140,
  "is_original": false,
  "data": [
    {
      "text": "马上要写到《易传》中的“仰观天文，俯察地理”了。说到天文地理，我更佩服邵雍的学说，所以中间加一篇先天六十四卦方圆图的文章。希望对易友们有启发。"
    },
    {
      "text": "邵雍对天文、地理的解读是从太极分阴阳、阴阳成八卦出发。落处是在先天八卦。"
    },
    {
      "text": "一、他首先模拟先天八卦分了天地四象，天上分为日、月、星、辰，地上分为水、火、土、石。"
    },
    {
      "img": "https://p3.pstatp.com/large/pgc-image/74c89c10752f4ebab9732f641c47d3a6"
    },
    {
      "text": "注意上图八卦跟我们平时使用的八卦圆图不一样，上图八卦上爻朝内，初爻朝外。"
    },
    {
      "text": "乾南坤北，离东坎西为四正卦，正卦的本卦和反卦都是一卦，故居正位。震反为艮，巽反为兑，震、巽本二卦，加上反卦成四卦，故居四隅不正之位。"
    },
    {
      "text": "天上地下，日生东，月生西，山镇西北，泽注东南，风起西南，雷动东北，先天八卦以立体演绎天地大造化合。"
    },
    {
      "text": "八卦横图首乾一终坤八，为生出之序。八卦在圆图，首震一阳，次离兑二阳，再到乾三阳，接巽一阴，次坎艮二阴，终坤三阴，是为运行之序。生者卦画之成，行者卦气之运。这是邵雍的理论，以后再详细解读。"
    },
    {
      "text": "二、邵雍第一个把八卦的数和卦序合在一起用，即乾一兑二离三震四巽五坎六艮七坤八，就是我们说的先天卦序。"
    },
    {
      "img": "https://p3.pstatp.com/large/pgc-image/ba72178bb3744924896b452aac3394c1"
    },
    {
      "text": "在圆图上各卦各自相对合成九数，九为老阳之数，乾卦用九，乾之象无所不包，天地造化之易理显然尊乾，所以乾以易知。"
    },
    {
      "img": "https://p3.pstatp.com/large/pgc-image/60d1fe10c7104865aaec4d1d25f81a7b"
    },
    {
      "text": "卦爻数也一样，乾三坤六，加起也为九数，其它卦各各相对，爻数加起也为九。"
    },
    {
      "text": "三、八卦相荡，以乾一兑二离三震四巽五坎六艮七坤八为八宫，用同样卦序叠加相荡而成六十四卦，按先天八卦各宫卦序位置顺圆形排布即先天六十四卦圆图。"
    },
    {
      "img": "https://p3.pstatp.com/large/pgc-image/df79f3595c44405cb9545cef462ce16f"
    },
    {
      "text": "按先天八卦横图顺序，坤宫布左上即东南方，乾宫布右下即西北方，布成矩阵则成先天六十四卦方图。"
    },
    {
      "text": "内卦数字为乾一在最下一行，依次向上一行一行排列直至坤八。每列从右到左按一至八的顺序叠加。"
    },
    {
      "text": "四、乾一兑二离三震四巽五坎六艮七坤八，按上图对应数字去重卦成六十四卦即成先天六十四卦方圆图，表示天圆地方。"
    },
    {
      "img": "https://p3.pstatp.com/large/pgc-image/61b37596f47845ae9feb1d0b2ba479d0"
    },
    {
      "text": "乾兑离震在天为阳，在地为刚，在天则居东南，在地则居西北。巽坎艮坤，在天为阴，在地为柔，在天则居西北，在地则居东南。阴阳相错，天文也。刚柔相交，地理也，这就是邵雍的天文地理。"
    },
    {
      "text": "五、要如何去理解先天六十四卦方圆图？邵子认为先天之学是心学，万事万物化于心。这个理论跟杭辛斋的说法不谋而合，杭辛斋认为易数起于心，归于心。先天之易，尚象而不尚辞。"
    },
    {
      "text": "先天方圆图，圆图象天包于地外，方图象地列于天中，天地阴阳大相配。"
    },
    {
      "text": "六、从圆图来看，自复至乾三十二卦，有阳爻112个，阴爻80个，阳多阴少，表示春夏白昼时间长，天气渐热。"
    },
    {
      "text": "自姤至坤三十二卦，有阴爻112个，阳爻80个，阴多阳少，表示秋冬白昼时间短，天气渐寒。圆图描述了卦分阴阳，立两仪主运行不息之事。"
    },
    {
      "text": "七、从方图来看，西北十六天卦自相交，东南十六地卦自相交，西北角到东南角斜线八个卦为乾兑离震巽坎艮坤，八纯卦所以不能生物。"
    },
    {
      "img": "https://p3.pstatp.com/large/pgc-image/f37a31d4eb2f43cc99e0522563ae9bf0"
    },
    {
      "text": "西南十六卦，天去交地，天卦在上表示生气在首，所以生动物而头在上，就象人一样，重要的头在上。"
    },
    {
      "text": "东北十六卦，地去交天，天卦在下，生气在根，所以植物头在下，对植物来说，根最重要。"
    },
    {
      "text": "东北角连西南角斜线，八个卦为泰、损、既济、益、恒、未济、咸、否，皆为阴阳奇偶之卦，所以能生物。"
    },
    {
      "text": "八、方圆图一起看，方图乾卦位对应圆图的亥位，谓之天门，表示天气下降。方图坤卦位对应圆图巳位，谓之地户，表示地气上腾。南北十六卦表示阴阳互藏之宅。"
    },
    {
      "text": "方图泰卦对应圆图寅位，谓之鬼方，方图否卦对应圆图申位，谓之人路。东西十六卦天地交泰生生不息。"
    },
    {
      "text": "圆图主运行之事，方图主生物之事。运行者气，生物者质。天有生物之气，地能成物之形。邵雍的方圆图你看懂了吗？"
    }
  ]
}