{
  "source": "壹圆文化",
  "detail_source": "壹圆文化",
  "screen_name": "壹圆文化",
  "avatar_url": "https://p3.pstatp.com/thumb/ff4c0000329fa7e5df8e",
  "auth_id": "1617719604580359",
  "auth_info": "建筑公司总经理 优质文化领域创作者",
  "publish_time": 1551946809,
  "title": "九星翻卦法的奥秘",
  "url": "http://toutiao.com/group/6664425085413097997/",
  "comment_count": 159,
  "is_original": true,
  "data": [
    {
      "text": "前几天写了一篇罗经净阴净阳的文章，本来是基础的河洛净阴净阳理论，就有些“大师”坐不住了，一查他们的文章，都是会看点山头就四处指点江山之辈，搞得我有点好笑！"
    },
    {
      "text": "会开罗盘，看点古书背点口诀看峦头，这在杨救贫、赖布衣传经布道的我老家，随便找几个村民都比头条上这些“大师”水平更高。他们忙时务农，闲时堪地，什么“田螺吃螃蟹，美女弹琵琶”，看峦头保证比你侃得更头头是道。"
    },
    {
      "text": "从易之人对天地阴阳要有敬畏之心，星斗不会、河洛不懂、阴阳不分、八卦不明就去帮人看风水，那是害人害己。我老家有认识的两位风水老先生，都是一着不慎，做风水害得客户家破人亡，自己也都是一周内暴病而亡。所以在头条上吹吹水可以，真要做风水还得掂量掂量。杨救贫讲峦头，却写出《青囊奥语》和《天玉经》这样的文章，赖布衣也一样上知天文下知地理，阴阳五行八卦得心应手。不懂河洛不识天地阴阳看什么风水？"
    },
    {
      "text": "九星翻卦法在风水应用上很普遍，罗盘上也有地母翻卦那么一层，我发现很多人是死背口诀，挨星法、向星水法、大小游年，各种真真假假口诀背上半月也不定记住。就是会推的朋友也是费时费力，错了也不知道。融会贯通了河洛八卦知识加上纳甲三合，卦翻九星就装在胸中，卦对卦一看就会，哪用背？"
    },
    {
      "text": "1、首先说下九星的知识，九星出于北斗，四颗成魁三颗成杓，加上左右两颗小星共九星，当然在易学应用上利用九星之形定义的九星和北斗叫法不一样。"
    },
    {
      "img": "https://p3.pstatp.com/large/pgc-image/c7a03f1d34644126af58278b92f2fd41"
    },
    {
      "text": "九星是：一为贪狼生气木，二为巨门天医土，三为禄存绝体土，四为文曲游魂水，五为廉贞五鬼火，六为武曲福德金，七为破军绝命金，左辅右弼统称为辅星。注意，翻卦九星和紫白九星的用法是不一样，天医、五鬼等在大、小游年对应的星也完全不一样。各风水流派之间就是这样，似是而非。"
    },
    {
      "text": "2、所谓的翻卦就是三爻变，源于黄石公，我在以前文章说过，六爻变从下至上，由初至五。三爻变由上至下。所谓的变就是阳爻变阴爻，阴爻变阳爻。九星翻卦以辅、弼为伏位本卦，本卦对应辅星。然后按上爻中爻下爻再至中爻，再上中下中的顺序连续变爻，变出的七卦对应七星，七星的顺序一贪二巨三禄四文五廉六武七破，八爻变最后变回辅星本卦。"
    },
    {
      "text": "3、乾卦翻出的叫天父卦，坤卦翻出的叫地母卦，下面以地母翻卦为例：坤卦伏位定为辅星，坤上爻变艮卦即是贪狼生气，艮卦中爻变巽卦是巨门天医，巽卦下爻变乾卦是禄存绝体，乾卦中爻变离卦是文曲游魂，离卦再上爻变震卦是廉贞五鬼，震卦中爻变兑卦是武曲福德，兑卦下爻变坎卦是破军绝命，坎卦中爻变回坤卦辅星。每卦就是这样的顺序翻九星排山龙。"
    },
    {
      "text": "4、罗盘一层为什么用坤卦地母翻卦来举例？有人说堪地当然用地母。其实不然，星以贪、巨、武为三吉，卦以艮、丙、巽、辛、兑、丁为六秀，这就是“三吉六秀”的说法。八卦中只有坤卦以艮为贪，巽为巨，兑为武，刚好与六秀相符，所以罗盘以坤卦地母翻卦来举例。八卦对八星就有了，那么二十四山又应该如何来布星呢？这时就要用上纳甲和地支三合了"
    },
    {
      "img": "https://p3.pstatp.com/large/pgc-image/f793298d36e2495d892b9ec48b7c46c3"
    },
    {
      "text": "在以前的文章说过，三爻纳法是五六戊己不纳，其它八卦纳八天干，见上图。二十四山中四维布卦，四正布支而支代卦，十二支加八干四卦就成二十四山。"
    },
    {
      "img": "https://p3.pstatp.com/large/pgc-image/dab695490f394373bd86572c88c32f0c"
    },
    {
      "text": "九星如何布？四卦有星，纳甲跟卦星，地支三合申子辰合水跟坎卦之星，寅午戌合火跟离卦之星，亥卯未合木跟震卦之星，巳酉丑合金跟兑卦之星。二十四山星随卦，罗盘有一层是地母翻卦，就是坤卦翻出的九星对应二十四山，不信各位按我的方法看一下。所以会看罗盘不算什么，知道罗盘为什么要这样布才是真本事。"
    },
    {
      "text": "用九星翻卦法排山龙，每卦这样推，费时费力还容易出错。我将在下篇文章教大家利用河图洛书八卦和天地人三才去理解，卦对卦直接布星，九星直接装脑中。黄石公用乾卦天父翻卦来龙神定穴，向星水法来立向。向星水法的翻卦跟山龙九星翻卦完全不一样，它的排星顺序是辅、武、破、廉、贪、巨、禄、文，变爻顺序是中下中上，中下中上。阳宅列星又不一样，顺序是贪、廉、武、文、禄、巨、破、辅，这样就造成天医变五鬼，绝体变延年，限于篇幅，有兴趣的朋友可以自行研究下，风水易学应用的理论最让人扑朔迷离。"
    }
  ]
}