{
  "source": "壹圆文化",
  "detail_source": "壹圆文化",
  "screen_name": "壹圆文化",
  "avatar_url": "https://p3.pstatp.com/thumb/ff4c0000329fa7e5df8e",
  "auth_id": "1617719604580359",
  "auth_info": "建筑公司总经理 优质文化领域创作者",
  "publish_time": 1557585525,
  "title": "罗盘二十四山向阴阳的分法",
  "url": "http://toutiao.com/group/6689673753749635597/",
  "comment_count": 264,
  "is_original": true,
  "data": [
    {
      "text": "在继续写《青囊序》前，再补充一篇风水基础理论知识，就是二十四山向每字阴阳的分法。"
    },
    {
      "text": "我前面写过一篇罗经净阴净阳的文章，也引起一些易友的冷嘲热讽，其实这些朋友没有搞清楚各风水流派的基本理论来源并加以区分。我们就去验证古墓也好，知其然要知其所以然。各种主流风水流派要了解，兼听则明，理论联系实际，知其应用成功或失败的要点。"
    },
    {
      "text": "二十四山向每字阴阳的分法基本分为两大流派：一是三元派，二是三合派。我在前面的文章写的净阴净阳就是三合理论，在此我们先理一理三合风水的净阴净阳，再来说说三元风水的每字阴阳。"
    },
    {
      "text": "一、我们先来看三合派的阴阳，如下图，注意白点为阳，黑点为阴，内圈为后天八卦。"
    },
    {
      "img": "https://p3.pstatp.com/large/pgc-image/e4f150fe3ce44c5bbadf2a67a1c96389"
    },
    {
      "text": "上图的阴阳是如何来的呢？实际上该理论建立在先天为体，后天为用的基础上。取先天之卦气，用后天之五行。"
    },
    {
      "text": "1、先天就用先天八卦。乾坤离坎居四正，艮巽震兑居四维。四正属阳，四维属阴。因为四正卦乾坤离坎上、下爻为同阴或同阳，同性相斥无法化成。四维艮巽震兑上、下爻互为阴阳爻，阴阳交合。所以地理家有贵阴贱阳的说法。"
    },
    {
      "img": "https://p3.pstatp.com/large/pgc-image/597e4f5c960f4dd58a98a2c7fa22a819"
    },
    {
      "text": "2、后天就用洛书和五行。论五行，十二地支中申子辰合水，寅午戌合火，巳酉丑合金，亥卯未合木。再加上八卦纳甲：乾纳甲、坤纳乙、离纳壬、坎纳癸、艮纳丙、兑纳丁、震纳庚、巽纳辛。"
    },
    {
      "text": "3、用洛书和纳甲一下就可以把三合派的二十四山阴阳分清楚了。看上图，洛书数九一三七对应乾坤离坎属阳，所以二十四山向乾坤为阳，该四卦纳的天干中，甲乙壬癸也为阳，离坎二卦后天在子午位，所以地支申子辰、寅午戌也为阳。"
    },
    {
      "text": "4、洛书数二八四六对应巽震兑艮属阴，所以二十四山向艮巽为阴，该四卦纳的天干中，丙丁庚辛也属阴。震兑二卦后天在卯酉位，所以地支巳酉丑、亥卯未也属阴。"
    },
    {
      "text": "经过以上的分析，你是不是就把三合派二十四山向净阴净阳的来龙去脉搞清楚了？下面继续三元派二十四山向阴阳分法。"
    },
    {
      "text": "二、三合派二十四山向净阴净阳好理解，三元派的二十四字阴阳就容易让人摸不着头脑了。乾坤艮巽四卦阴阳说不清，地支中有的阴字又属阳，阳字又属阴。长期以来，好象没有哪个风水大师解读出来，蒋大鸿自己又没说。"
    },
    {
      "text": "1、三元盘是以河图为体，三元九运用洛书。首先二十四山向分天、地、人三元，如下图。"
    },
    {
      "img": "https://p3.pstatp.com/large/pgc-image/70e4a8e65e0545a781fa3dcbb881d0bd"
    },
    {
      "text": "首先，来说二十四山向中天干的阴阳。天干的阴阳就是它本身的阴阳：甲丙庚壬为阳，乙丁辛癸为阴。"
    },
    {
      "text": "2、三元蒋盘中，乾坤艮巽四卦，字字属阳，这是为何？看下图就明白了。"
    },
    {
      "img": "https://p3.pstatp.com/large/pgc-image/fc50d37747264f43b1358dcdc28f1021"
    },
    {
      "text": "一六共宗，合之为七为奇数，所以乾属阳。类似道理，艮巽坤同样合之为奇数，所以也属阳。乾坤艮巽四卦都是阳。"
    },
    {
      "text": "3、地支子午卯酉属阴、寅申巳亥属阳、辰戌丑未属阴。这是为何？地支阴阳就要用支中藏干的原理来分析了。子藏癸、午藏丁、卯藏乙、酉藏辛，四干皆阴，所以子午卯酉属阴。"
    },
    {
      "text": "4、寅藏甲丙戊、申藏庚壬戊、巳藏丙庚戊、亥藏壬甲，支中藏干皆为阳。所以寅申巳亥属阳。辰藏乙戊癸、戌藏辛丁戊、丑藏癸辛己、未藏丁己乙。支中藏干为阴或阴多阳少。所以辰戌丑未也属阴。"
    },
    {
      "text": "实际上寅申巳亥藏阳干、辰戌丑未藏阴干可以用十二律吕来解释，我在以前文章写过十二律吕“隔八相生”的道理，大家可以阳顺阴逆的去推一推，比如寅字下一位是甲，隔八到丙，所以寅藏甲丙阳，所以寅也是阳。辰戌丑未就逆时针推。我以前就说过，十二律吕可以用于风水。但很多易友说只能用于择日。"
    },
    {
      "text": "以上为大家厘清了三合和三元的二十四山向阴阳各不同。大家在使用哪一种风水理论时一定要用回这种理论的本身阴阳分法。否则就会牛头不对马嘴，风水作品自然会失败，甚至为凶为祸。"
    }
  ]
}