{
  "source": "壹圆文化",
  "detail_source": "壹圆文化",
  "screen_name": "壹圆文化",
  "avatar_url": "https://p3.pstatp.com/thumb/ff4c0000329fa7e5df8e",
  "auth_id": "1617719604580359",
  "auth_info": "建筑公司总经理 优质文化领域创作者",
  "publish_time": 1564502835,
  "title": "风水应用也要与时俱进",
  "url": "http://toutiao.com/group/6719381085437821447/",
  "comment_count": 86,
  "is_original": true,
  "data": [
    {
      "text": "上一篇文章中说到学习风水理论要与时俱进的问题，引起大家的争论，也冒出大量的杠精。其实我的意思，核心理论肯定要知其然更知其所以然。有些技能的理论能大致了解就行了，因为有现代有更方便的工具可以使用。"
    },
    {
      "text": "比如，网上有大把教大家掐指背口诀去推算年月日起天干地支的。我觉得这就费力不讨好了。以前先生没现代工具，获取知识也不方便。其实现在你用手机查下老黄历或者用个APP，动动指头几秒钟就查出来了，实在没有必要死背这些年月起干支的口诀了。"
    },
    {
      "text": "背口诀，掐指算，费脑力还容易出错。以前的瞎子算命先生，很多人都知道上午算的要比下午算的要更准确，就是先生上午精力要更好，前三个算的准确率要高很多。"
    },
    {
      "text": "还有，利用图形加强形象记忆要好过背口诀，就是通常说的要在理解的基础上加强记忆。举个例子，二十四山的阴阳，如果你懂得纳甲，记净阴净阳是很容易的。对于三元阴阳，也是有规律的。三元阴阳，飞山盘和向盘必须用到，这里也教大家一个记忆的方法。"
    },
    {
      "img": "https://p3.pstatp.com/large/pgc-image/319ca2bf16124de79315a338e1cc309b"
    },
    {
      "text": "有的朋友是按天地人三元各自四阴四阳来背。象我心中有二十四山图，就不去背了。找规律就行。看上图的黑白点，每卦的天元和人元是同阴同阳的，父母和顺子一路同行。地元的阴阳就跟天元、人元的相反。"
    },
    {
      "text": "所以每卦不是阴阳阳就是阳阴阴，再进一步思考，会发现，四正卦是阳阴阴，四维卦是阴阳阳。一卦管三山，这样阴阳相隔团团转，刚好山与向就同阴同阳。是不是很好记？记住了一卦管三山之位，阴阳马上就对应上去了。"
    },
    {
      "text": "再举一个学风水要与时俱进的例子。以前农村里建房，基本会围个院子，院子就会安设一个门楼。我经常会去农村看看一些老地理的作品，一些老地理会利用现有的宅基地条件，在有限的条件下会帮东家把风水调理得尽量好。一般能这样考虑的都是八十岁以上的老地理。"
    },
    {
      "img": "https://p3.pstatp.com/large/dfic-imagehandler/323f3f0a-6bec-4150-9924-e25d61ae0b55"
    },
    {
      "text": "他们很注重门楼朝向和房屋大门朝向的关系。其实在风水理论上两者就是纳甲，用我们的土话来说，就是大门能用上门楼精。比如门楼坐乾、坤，大门朝向就会用甲、乙。再高明点，就会把院内排水方向也纳入一并调理。"
    },
    {
      "text": "农村修造房屋，大门可以拆建，好的老门楼一般是不会去动的。因为两者朝向关系是有作用的现在城镇的高楼大厦，基本与院子无关，就是现在农村好多房子也建成别墅一样，也不讲究院门的关系了。但是院门在风水中有没有起作用呢？有的。"
    },
    {
      "text": "前几天去了一趟乡下，有朋友家刚好有个六运中起的院门楼，门楼朝向是未丑兼坤艮，收逆水。所以房屋大门该地理先生就定卯向兼乙。六运未山丑向，旺星上山下水，不好，再加上二星和五星同时到房屋坐山，所以要兼向。"
    },
    {
      "text": "门楼兼坤艮后，旺星到山到向，非常好。二五被排到该房屋大门的向上，影响不大。所以屋主能从一个农村开拖拉机的做到正科级公务员退休，也算是有名有利了。说明门楼的作用还是挺大的。当时地理先生跟屋主说，在门楼左边养鸡很好，养鸡肥大不生病。事实如此，每年都养鸡非常好。正是因为门楼处纳甲也得了该房屋酉山之气。"
    },
    {
      "text": "但是三十年后，到了八运就出问题了。首先门楼坤山艮向八运就犯上山下水了。大门辛山乙向只是旺星到山。如果不兼的话，酉山卯向还是旺星到山到向的。所以在七运、八运，屋主儿子非常不听话，一辈子一事无成，不但所有事要屋主操心。屋主儿子在八运还得了癌症。但孙子有两个，丁还是可以。"
    },
    {
      "img": "https://p3.pstatp.com/large/dfic-imagehandler/a05d02c5-755d-4bd3-a564-6ec8b2bd1b1d"
    },
    {
      "text": "所以现代房屋，特别是高楼大厦，跟以前平房完全不同，值得我们动脑去思索一下。本文主要还是想表达一下兼向的问题，兼向主要用来解决主客之间生入、克入、生出、克出的问题。下篇文章将详细来写一写。"
    }
  ]
}