{
  "source": "壹圆文化",
  "detail_source": "壹圆文化",
  "screen_name": "壹圆文化",
  "avatar_url": "https://p3.pstatp.com/thumb/ff4c0000329fa7e5df8e",
  "auth_id": "1617719604580359",
  "auth_info": "建筑公司总经理 优质文化领域创作者",
  "publish_time": 1566483945,
  "title": "如何才能学到正宗的堪舆之学",
  "url": "http://toutiao.com/group/6727820570219512323/",
  "comment_count": 117,
  "is_original": true,
  "data": [
    {
      "text": "写易半年多，从河图、洛书、八卦、五行、纳甲、纳音一路写来，直到写堪舆学说。举一反三，把河洛数理、八卦象数理反复论述。期间，很多易友一路跟随关注，欣慰的是，很多易友取得了收获，想通了一些百思不得其解的问题。我也从大家评论中学到一些东西，共同进步。本文就跟大家来交交心。"
    },
    {
      "text": "一路写来的过程中，得到大多数朋友的支持，当然也少不了一些人的诘难、谩骂、讽刺和嘲笑。想着自己悟出的一些东西，无私奉献出来还要受到抨击，所以有段时间，我的脾气特别差，这里给大家道个歉。"
    },
    {
      "text": "昨天提到专栏问题，看到大家还是希望我写。当然，我要花一段时间精心打磨，把真才实学奉献出来，才对得起朋友们。我不会去赚粉丝们的钱，我研究专栏规则后，会尽可能把最大的分销佣金返还大家。让粉丝能通过我的文章，不但能学风水知识，还能赚钱，这是我最大的目标。也是我学《道德经》和《黄帝阴符经》悟出的人生道理。"
    },
    {
      "text": "写风水半年，应该梳理一下。风水学说，是我国中华传统文化中的重要组成部分，我个人喜欢称之为堪舆。堪舆有其文化源流，有其哲学基础和科学成分。现在很多人认为，哪个方向放两盆水生植物，安放个鱼缸，摆放个水晶就叫风水。我认为不是，这只是起到美化环境和心理暗示的作用。就跟医院给病人开些安慰剂一样，心理作用大一些。正因为这些，导致很多人认为风水是迷信。"
    },
    {
      "text": "什么是堪舆？有哪些内容？为什么外国没有这样的文化？我说过，学风水要先学易，易学就是堪舆的源头。易学是大道之源，群经之始。我们先来说说风水易学的源流。"
    },
    {
      "text": "早在三皇五帝的时候，河出图，洛出书，圣人则之而画八卦。应该是先有数后有卦。首先有阴阳爻，后有四象对应河图，四象生八卦横图。"
    },
    {
      "img": "https://p3.pstatp.com/large/pgc-image/9aedad9ed76a47f7b4c8eb6d7ce735f0"
    },
    {
      "text": "在后天八卦之前，是没有出现过先天八卦圆图的。是后来陈抟传邵雍才规而成圆，后来假说是伏羲所作。但是在孔子的《易传》中是描述过先天八卦的。先天八卦就是太极生两仪，两仪生四象，四象生八卦。讲的就事物一分为二的道理。"
    },
    {
      "text": "个人觉得，易经有这么大的生命力，很有可能走的是阴阳两条线，一条是周易后天八卦，致用于社会人事的显性的阳线，在儒家发扬光大。另一条可能是以先天为体追求大道的隐性阴线，在道家内部传承。"
    },
    {
      "text": "有了先天八卦横图就有了卦数，为洛书奠定了基础。有了河图有了四方和五行。伏羲教民辨阴阳。后面神农氏就利用河图数和先天八卦，依卦象推演，教民制造器物，用卦理教化百姓。用易就开始了，这个阶段很可能就是连山易。但是夏朝之前是什么样，考古都没有证据。"
    },
    {
      "img": "https://p3.pstatp.com/large/pgc-image/ec3520e6c80c461193c2f4e0ec235003"
    },
    {
      "text": "黄帝战蚩尤时，命风后演奇门，自此战无不胜。奇门被认为是归藏易的开端。后来在姜子牙和张良手上演变实用的谋略和兵法，屡有奇验。实际上奇门遁甲也是玄空风水的理论来源，所以说，玄空并不空。"
    },
    {
      "text": "后来，黄帝命大挠作甲子，容成制历法。五术推年纪历就有根有源。再到大禹治水，传说出洛书，又演成洪范九畴，五行理论得到发展。阴阳相对和方位已确立。实际上在北宋以前，河图洛书是相反的。宋朝之后才是现在的样子，确实难以考证。"
    },
    {
      "text": "周文王拘而演后天八卦，为易的应用奠定了基础。老子写《道德经》，带来了无极的概念，开启时空探索的开端。孔子作《十翼》，易理致用得到了大力推广。汉代邹衍推五行之气，定生克制化，写大衍之数，将易理又导向了易数。"
    },
    {
      "img": "https://p3.pstatp.com/large/pgc-image/45994117a4244a24883d6795e64a65b6"
    },
    {
      "text": "以上是易学发展的脉络。晋朝郭璞首开堪舆立著的先河，《葬书》一出，堪舆理论有了鼻祖。加上黄石公的《青囊经》，更是把河洛数理应用于堪舆。使堪舆理论有了易学根源。"
    },
    {
      "text": "唐朝杨公写出《撼龙经》、《天玉经》、《青囊宝照经》、《青囊奥语》。将堪舆学说带入鼎盛时期。宋朝周敦颐又根据《易经》与《道德经》，创立了《太极图说》，树立了阴阳对立统一的观念。张载提出气为万物本体，阴阳对立而变化始生。后来邵雍恢复先天易，著《皇极经世》，将易学带入另一个高峰。"
    },
    {
      "img": "https://p3.pstatp.com/large/pgc-image/81249ff56b9e46819ace57a00f9ce9f3"
    },
    {
      "text": "从此，后学皆以上知天文，下知地理为求学宗旨。养生择葬渐渐成为我国传统文化中不可或缺的一部分。后来又有曾公安、廖金精、赖布衣等名家辈出。再到蒋大鸿得无极子传而出《地理辨正》和《天元五歌》。慢慢堪舆之学流派众多。有三合、三元、八宅、九星、纳甲、天星、玄空等派别。"
    },
    {
      "text": "什么是堪舆？包含些什么内容？简单来说，堪舆分为峦头和理气两大部分。峦头，用现代的说法，就是大地山川的自然科学。就是古人对所居住的地球上的地形地貌、山川大地的观察和体认。风水学说，更是将山川大地拟人化。比如我们讲的父母山下来的入首，就是胎息"
    },
    {
      "text": "理气就是利用易的象数理进行时空推演的应用。认为时空是交感，时间空间的并行会相应生存在其中的事物产生影响。住宅、阴坟，在使用的开始的那一刻起，就会受到周边区域风水的影响。有了时空的推演，就可以推断住宅或祖坟在某段时间产生什么影响而发生什么事。"
    },
    {
      "text": "因为堪舆之学包含范围广，很多理论艰涩难懂。在古代也是择人而传，巩泄天机，密不外传。所以造成各家偏执固守，比如习峦头者和理气者经常相互攻讦。峦头者认为只要符合山情水意，合法大地，终久必发。却不知道有可能是先损财伤丁后再发，或者几代长久才发。比如王长庆的祖坟山水那么好，也是三代六十年后在他手上才发。"
    },
    {
      "text": "习理气者，也讽刺峦头者愚昧无知，以为葬得其时，就可大发。更有甚者，认为只要坐到旺山，立个旺向，就万事大吉了。但是，很可能好远转瞬就烟消云散了。"
    },
    {
      "text": "只注重峦头而不重理气，单注重理气而不顾峦头，都是要不得的，阴阳要相兼。学了《黄帝阴符经》，就应该知道。阳要阴蓄，阴要阳携。堪舆最重要的法则就是：独阳不长，孤阴不生。"
    },
    {
      "text": "做风水肯定要峦头理气并重。首先要用峦头，寻龙点穴，使砂情水意处处合法。再用理气，格龙立向，使天时、地利二者兼收。好了，啰嗦太多，后面准备写天星。"
    }
  ]
}