{
  "source": "壹圆文化",
  "detail_source": "壹圆文化",
  "screen_name": "壹圆文化",
  "avatar_url": "https://p3.pstatp.com/thumb/ff4c0000329fa7e5df8e",
  "auth_id": "1617719604580359",
  "auth_info": "建筑公司总经理 优质文化领域创作者",
  "publish_time": 1576585572,
  "title": "在现实生活中，如何把天下万象比类成八卦",
  "url": "http://toutiao.com/group/6771383471693627916/",
  "comment_count": 4,
  "is_original": true,
  "data": [
    {
      "text": "先讲个《梅花易数》中的小故事："
    },
    {
      "img": "https://p3.pstatp.com/large/dfic-imagehandler/e4ea52de-eefa-4b95-a3a0-0a850682202a"
    },
    {
      "text": "冬天一傍晚酉时，康节和儿子围炉而坐。外面传来敲门声，先敲一下后停顿，然后接着连敲五下，并开口说要借东西。这时康节叫他不要开口说借何物。并叫他的儿子马上占卦。"
    },
    {
      "text": "根据当时声响和时辰占得天风姤卦，互卦重乾，动爻在四爻，上乾变巽，三乾金二巽木，肯定是借金木合成之物。他儿子说金短木长，应该是借锄头。"
    },
    {
      "text": "康节说，不对，一定是斧子。儿子问他为什么？康节说起卦也要明事理，两种东西都有可能，但是晚上有谁用锄头呢？急用肯定是借斧劈柴吧。"
    },
    {
      "text": "后来问借物人，果然是斧子。这就说明，解卦一定要把卦象置于当时的时空来理解才能得到启发。"
    },
    {
      "img": "https://p3.pstatp.com/large/dfic-imagehandler/6cda2471-ff9e-4f29-afe8-c974a526b4f3"
    },
    {
      "text": "前面的文章把八卦的八大自然现象讲完了，我们按照朱熹的歌诀来回忆下卦画。乾三连，坤六断，震仰盂，艮覆碗，离中虚，坎中满，兑上缺，巽下断。"
    },
    {
      "text": "乾三阳爻象天衣无缝，坤卦三阴爻象断成六截。"
    },
    {
      "text": "震卦上两阴下一阳，象一个朝上的痰盂，艮卦上一阳下两阴，象倒扣的碗。"
    },
    {
      "text": "离卦两阳夹一阴，坎卦两阴夹一阳。一个中间空，一个中间满。"
    },
    {
      "text": "兑卦上面阴爻象有个缺口，巽卦下面阴爻如断开。这个只是辅助记下卦画，没什么特别的意义。"
    },
    {
      "text": "好了，八卦的卦画记住了，那么这代表八大自然现象的八个卦互相有什么关系呢？"
    },
    {
      "text": "乾天坤地、艮山兑泽、震雷巽风、离火坎水，孔子在《易传》中用几句话也说清楚了。那就是天地定位，山泽通气，雷风相薄，水火不相射。"
    },
    {
      "img": "https://p3.pstatp.com/large/dfic-imagehandler/aff709f5-42c7-4ee0-90ed-be4cbe25c243"
    },
    {
      "text": "山泽通气：艮山兑泽，上有湖光山色，云雾缭绕。下有地下暗河、溶洞，山泽相通。"
    },
    {
      "text": "雷风相薄：电闪雷鸣，风雨交加，雷风互相影响。"
    },
    {
      "text": "水火不相射：水火无情，水火不共存，水多可灭火，火多可烧干水。"
    },
    {
      "text": "山泽通气：艮为鼻子兑为口，鼻子和口相互通气。很多易学家把手类象为艮卦，意思手可以阻止之意，不如鼻形象，因为鼻子就叫山根。"
    },
    {
      "text": "雷风相薄：震为足，巽为股。股和足互相影响又互相依赖，行动要一致，震行巽顺。"
    },
    {
      "text": "水火不相射：离为目，坎为耳，看上去似乎互不相关。但《阴符经》上说，瞽者善听，聋者善视，绝利一源，用师十倍。"
    },
    {
      "img": "https://p3.pstatp.com/large/dfic-imagehandler/9845fcc4-5d7b-45a8-a3ce-23757938ea5b"
    },
    {
      "text": "山泽通气：艮纳丙，兑纳丁，丙丁为火。"
    },
    {
      "text": "雷风相薄：震纳庚，巽纳辛，庚辛同属金。"
    },
    {
      "text": "水火不相射：坎纳戊，离纳己，戊己同属土。"
    },
    {
      "text": "经过上面反复论述，大家应该能够记住八卦卦画和八大象。古代事物相对简单，很多东西可以大致归类。"
    },
    {
      "text": "现在的东西五花八门、层出不穷，要用八卦来类象确实相当困难。但我认为，抓住了最核心的东西，就不会感到很难。"
    },
    {
      "text": "乾卦，为天为健，形状为圆，代表尊贵、重要的性质。所以金玉、圆形坚硬之物、头上之物、健行动物、身份更高人物大多可以类象。"
    },
    {
      "img": "https://p3.pstatp.com/large/dfic-imagehandler/8056b547-2ce8-41cd-8695-ff9d37158edf"
    },
    {
      "text": "坤卦，为地为顺，形状为方、广阔平坦，代表亲近、大众等性质。所以黄土、布帛、方形之物、车架、普通农作物、母亲和老妇等女性人物。"
    },
    {
      "text": "震卦，为雷为足为长男，龙、昆虫、乐器、青绿植物、树木、蛇，带有震动、爆发或惊吓的东西。"
    },
    {
      "text": "巽卦为风为长女，和尚、尼姑、鸡、百禽、香臭、仙道、工匠、形状为直之物、技艺高超的制品和一切跟风有关的事物。"
    },
    {
      "text": "坎卦为云雨为水为月为中男，沟渠、车轮、血液、狐狸、水簇、盐、酒水、有核之物、汇聚流动的情形，困难重重的境遇等等。"
    },
    {
      "img": "https://p3.pstatp.com/large/dfic-imagehandler/5314a5fe-f4fd-49b2-8759-10aa45068fef"
    },
    {
      "text": "离卦，为日为火为中女，野鸡、电、盔甲武器、烧焦的东西、有硬壳之物、文人、合同文书、文化、文明、表面艳丽之物、表面枯槁之物。"
    },
    {
      "text": "艮卦为山为少男，不动产、守门狗、小路、门、瓜果、老鼠、老虎等山中性畜野兽、一切有阻止、不动情形的事物。"
    },
    {
      "img": "https://p3.pstatp.com/large/dfic-imagehandler/51c9ce24-7a06-4748-abff-a0fe6db71daf"
    },
    {
      "text": "兑卦为湖泽为少女，口舌、巫术、毁折之物、属金的、有缺口的东西、奴仆、一切跟讲演有关的东西、令人愉悦的东西。"
    },
    {
      "text": "远取诸物，近取诸身，按外形、按性质基本可以对事物用八卦类象。在具体用到方位时，就要用后天八卦的方位了。"
    }
  ]
}