{
  "source": "壹圆文化",
  "detail_source": "壹圆文化",
  "screen_name": "壹圆文化",
  "avatar_url": "https://p3.pstatp.com/thumb/ff4c0000329fa7e5df8e",
  "auth_id": "1617719604580359",
  "auth_info": "建筑公司总经理 优质文化领域创作者",
  "publish_time": 1577364077,
  "title": "如何巧妙记忆地火明夷卦和山火贲卦之象？",
  "url": "http://toutiao.com/group/6774727121441915395/",
  "comment_count": 5,
  "is_original": true,
  "data": [
    {
      "text": "本开始讲以离卦为内卦，与八卦相摩而成的卦。"
    },
    {
      "text": "首先也是阴仪巽坎艮坤，阴退与离卦相摩，就是地火明夷、山火贲、水火既济、风火家人四卦。"
    },
    {
      "text": "阴仪第一卦坤卦和离卦相摩，上坤下离，地火明夷卦。"
    },
    {
      "text": "火入地中，大多人认为这是火山之象，这是完全不对的，火山下面是奔腾的岩浆，内卦用震卦或者坎卦更为合适。"
    },
    {
      "img": "https://p3.pstatp.com/large/dfic-imagehandler/8029895c-a5e9-44ed-b798-1256ed790af1"
    },
    {
      "text": "把地面的一切物体破坏掉叫夷为平地。\"明\"字又有火光冲天之象，\"明夷\"就是一场大火夷为平地，这是个难卦，就是火灾之象。"
    },
    {
      "text": "此卦初爻爻辞：\"明夷于飞，垂其翼。君子于行。三日不食。有攸往，主人有言。\"就把火灾情形描写的很形象。"
    },
    {
      "text": "山林起大火，藏身于内的野鸡（离卦之象）等飞禽自然惊恐飞逃，被烧得灰头土脸又惊又累，自然耷拉着翅膀。"
    },
    {
      "img": "https://p3.pstatp.com/large/dfic-imagehandler/cfcd07fb-8a00-4d6b-9bd8-d08693e01dab"
    },
    {
      "text": "第二句就讲人遭了火灾的情形。谁家遭了难，自然是三天都吃不下饭，财物、房子全部都没啦，简直形同路人。为什么说君子？因为小人是趁火打劫之人。"
    },
    {
      "text": "受了灭顶之灾只能有求于人。有人安慰，也可能有人责备不小心，少不了周围的指指点点，这时只能低声下气，乞得别人的济困帮扶。"
    },
    {
      "text": "可能会有朋友问，为什么上坤下离，火在地中呢？"
    },
    {
      "img": "https://p3.pstatp.com/large/dfic-imagehandler/0ea4392f-87c2-4068-a307-16361fa0ddb7"
    },
    {
      "text": "有过山火救援经验的应该知道，火灾过后，明火变暗火，最怕是死灰复燃引起爆燃，这种二次灾害有可能导致更大的损失。"
    },
    {
      "text": "离卦代表文明，有人说是文明被压制，不太把妥当，不如说是伤害过后又充满希望，就如我们开垦新地用烧荒的方法一样，经过火灾的土地，来年春风吹又生，土地更肥沃了。"
    },
    {
      "text": "从明夷卦开始，正值立春过后，所以一切就充满希望。"
    },
    {
      "text": "阴仪阴退第二卦为艮卦，与离卦相摩，上艮下离，山火贲卦。"
    },
    {
      "text": "艮为止，离火在内，说明这是可以控制的火，不是明夷卦这样的灾难之火。山下有火，就如燃起篝火，人们绕着火堆跳锅庄舞，青年男女表达爱慕之情。"
    },
    {
      "img": "https://p3.pstatp.com/large/dfic-imagehandler/a9f61d73-c28e-4ad0-8111-e85069b414f7"
    },
    {
      "text": "在希腊神话中，普罗米修斯盗来天火，给人类带来文明，最后被宙斯锁在高加索山上接受惩罚。北京奥运会圣火也登上了珠穆朗玛峰。看来一切文明之火，离不开山这个背景。"
    },
    {
      "text": "上述讲的是人类文明的礼仪和仪式感，看上去是做表面功夫，其实贲卦就是讲修饰、装饰的卦。"
    },
    {
      "text": "你看\"贲\"字上面就是花卉的\"卉\"字，贲卦按爻日推算正是在雨水前夕，阳气生发，草木萌动，万芽吐绿，南方大部分地方早已是繁花似锦。"
    },
    {
      "img": "https://p3.pstatp.com/large/dfic-imagehandler/65e29283-6bf8-4e76-b2ef-1bd99c57e87b"
    },
    {
      "text": "春风又绿江南岸，装点大地最美好的莫过那一片绿了，春回大地总是让人喜悦。离为南方，艮山在离外，所以最先绿的是山的南坡。"
    },
    {
      "text": "\"贲\"字下面是\"朋贝\"的意思，穿金戴银，结婚送钻戒，这是人身上装饰品。贲卦就是讲装饰的卦。"
    },
    {
      "text": "三分长相，七分打扮。人要捣饰自己离不开镜子。艮卦的错卦是兑卦，湖面就象一面镜子。白居易有一句诗非常应景，日出江花红胜火，春来江水绿如蓝。"
    },
    {
      "img": "https://p3.pstatp.com/large/dfic-imagehandler/b41a7fc1-65b3-4bd2-a781-d63856ec8370"
    },
    {
      "text": "太阳出来，照得江边的鲜花一片红通通，与太阳照射下的湖面互相印衬，更是显得一片红火。所以贲卦之火代表文明礼仪、美艳景色。是装饰，是虚幻，但人类活动又离不开它。"
    },
    {
      "text": "明夷卦把一切夷为平地，灾难过后，绿色又会装点大地，给人们带来春天的温暖和希望。易经的思维就是这样，安中有危，危中有机。几千年来，在易经文化中浸润的中华民族从来没有畏惧过任何困难。"
    }
  ]
}