{
  "source": "壹圆文化",
  "detail_source": "壹圆文化",
  "screen_name": "壹圆文化",
  "avatar_url": "https://p3.pstatp.com/thumb/ff4c0000329fa7e5df8e",
  "auth_id": "1617719604580359",
  "auth_info": "建筑公司总经理 优质文化领域创作者",
  "publish_time": 1578316199,
  "title": "洗心革面记革卦之象，志同道合记同人卦之象",
  "url": "http://toutiao.com/group/6778816455069663747/",
  "comment_count": 2,
  "is_original": true,
  "data": [
    {
      "text": "以离卦为内卦的相摩只剩两卦了，就是阳仪阳进最后两卦兑和乾，兑卦和离卦相摩就是泽火革卦，乾卦和离卦相摩就是天火同人卦。"
    },
    {
      "text": "一、理解洗心革面这个成语，就容易记住革卦之象"
    },
    {
      "text": "兑卦与离卦相摩，上兑下离，泽火革卦。为什么要用洗心革面这个词呢？我们看，革卦的下卦为离卦，代表内心光明，可以用洗心来理解。"
    },
    {
      "text": "至于\"革\"字，要从两方面来理解：一是变革、改革，二是皮革。所以革卦就是有古代制革之象。"
    },
    {
      "text": "古代制革要先制鞣液，就是上面弄个池子（兑卦之象），下面烧火(离卦之象)加热，用植物熬制鞣液，然后浸泡兽皮，脱毛去肉脂，再鞣制成革。"
    },
    {
      "img": "https://p3.pstatp.com/large/dfic-imagehandler/c839dc6c-af3d-4bba-b6ff-9bf7c31c7068"
    },
    {
      "text": "所以革卦九五爻辞有\"大人虎变\"，上六爻有\"君子豹变，小人革面\"的爻辞。兑有西方白虎之象。错卦艮有豹之象。"
    },
    {
      "text": "上面两爻大多数易学家都把它们与内卦离发生关系，解成改革家或者文化、文采之类。我觉得也很片面。虎皮和豹皮算是兽皮中最漂亮的了，千百年来，没有哪个易学家往皮革上面解读过。"
    },
    {
      "text": "另一方面就是改革和变革的意思了，特别要注意卦辞中\"己日乃孚\"四个字。离为日，离纳己，所以叫\"己日\"。己为中宫土，种瓜得瓜，种豆得豆，土地当然最有诚信了。"
    },
    {
      "text": "当然，\"己日\"还有更重要的解释，可惜依然是没那个易学家解释过。那就是甲一己六。乾纳甲在午位，也就是后天离日位。一为生数，六为成数之始，一六共宗。"
    },
    {
      "text": "己日就是告诉我们改革、变革要掌握时机，早了不行，迟了没用，过度不行，改革不力也不行，一旦时机不对，变革就会引起大乱。己日为成数之始，条件成熟就水到渠成了。"
    },
    {
      "img": "https://p3.pstatp.com/large/dfic-imagehandler/cd31ab0c-c42d-460a-9bb5-d3b7c1de5256"
    },
    {
      "text": "按先天圆图爻日计算，革卦大致在3月12日到18日间，刚好12日是中国的植树节，改变绿化环境也算有革卦之意。3月15日又是世界消费者权益日，正好皮草也算是高消费了。"
    },
    {
      "text": "二、志同道合记同人卦之象"
    },
    {
      "text": "乾卦和离卦相摩，上乾下离，天火同人卦。天在上，火曰炎上，自然亲近。更重要的是，有句话叫\""
    },
    {
      "text": "乾舍于离\"。就是先天八卦，乾在午南。后天八卦，离也在午南，乾、离本一家，自然天火为同人。"
    },
    {
      "text": "同人卦的九五爻，如果爻变，阳变阴，就成上离下离，自然也是同人卦。九五为坎阳，为心志，内心为离明，自然同心同德。"
    },
    {
      "img": "https://p3.pstatp.com/large/dfic-imagehandler/39b43cc1-ddc0-4e79-ab35-f5b172a6b8a2"
    },
    {
      "text": "同人又谓同仁，《象传》中说：天与火，同人，君子以类族辨物。天在上，火炎上，其性相同，以同类事物相聚，辨别事物使之不相杂。"
    },
    {
      "text": "《彖传》中说：\"柔得位得中而应乎乾，曰同人。\"同人卦五阳一阴，六二与九五正应。在易中，阴遇阳才叫类，阳遇阳，阴遇阴叫相敌。"
    },
    {
      "text": "按先天圆图爻日计算，天火同人卦为3月18日至24日间，时序正是春分前后，分就是黄赤相交点，太阳行至此处，昼夜平分。"
    },
    {
      "text": "从周朝开始，春分祭日，秋分祭月，是国之大典。春分正是春耕繁忙的景象，正是大家同心同力的时候。"
    },
    {
      "text": "3月21日是世界森林日，正好有\"同人于野\"之象。同一天也是国际消除种族歧视日，正是天下大同的愿望。"
    },
    {
      "img": "https://p3.pstatp.com/large/dfic-imagehandler/93408909-0d68-4455-90ed-888aa2e5980f"
    },
    {
      "text": "3月22日是世界水日，有\"利涉大川\"之象。3月23日是世界气象日，又有\"以类族辨物\"之象。"
    },
    {
      "text": "不管是森林日、水资源日，还是气象日，都是唤起世界人民对自然环境保护的公众意识。消除种族歧视更是天下大同的愿景。"
    }
  ]
}