{
  "source": "壹圆文化",
  "detail_source": "壹圆文化",
  "screen_name": "壹圆文化",
  "avatar_url": "https://p3.pstatp.com/thumb/ff4c0000329fa7e5df8e",
  "auth_id": "1617719604580359",
  "auth_info": "建筑公司总经理 优质文化领域创作者",
  "publish_time": 1579188524,
  "title": "如何识记归妹卦和睽卦的卦象？",
  "url": "http://toutiao.com/group/6782563065280856580/",
  "comment_count": 2,
  "is_original": true,
  "data": [
    {
      "text": "阴仪巽、坎、艮、坤四卦，与兑卦相摩而成的地泽临、山泽损、水泽节、风泽中孚四卦已经讲完。下面开始讲阳仪四卦与兑卦相摩。"
    },
    {
      "text": "阳仪乾、兑、离、震四卦与兑卦相摩，阳进第一卦为震，第二卦为离。震、兑相摩为归妹卦，离、兑相摩为睽卦。"
    },
    {
      "text": "震卦与兑卦相摩，上震下兑，雷泽归妹卦，有的人叫做哥妹卦，上震为长男为兄，下兑为少女为妹，叫哥妹卦也有道理，非常有利于记卦象。"
    },
    {
      "img": "https://p3.pstatp.com/large/dfic-imagehandler/24709888-e13a-4625-ae91-3843a0a2a964"
    },
    {
      "text": "哪个男子不善钟情？哪个少女不善怀春？归妹卦讲的就是男欢女爱，阿哥阿妹情意长。妹就是未婚少女，归就是嫁的意思，于归之喜就是女子出嫁。《诗·周南·桃夭》：\"之子于归，宜其室家。\""
    },
    {
      "text": "六爻卦有相应的说法，比如初爻应四爻，二应五，三应六。这里特别要注意的是，同性为相敌，阴阳为同类。很多人把同阴、同阳认为是同类，在易象上，这种说法是错误的。"
    },
    {
      "text": "下卦兑的覆卦是巽卦，如果上震下巽就是恒卦。恒卦每一爻都是阴阳相应，而归妹卦不同，除了九二和六五阴阳相应外，初爻和三爻都相敌。"
    },
    {
      "text": "这样看来，归妹出嫁并不是一个一帆风顺的过程，女子过早怀春也不是幸事。此卦每一爻都是讲出嫁的事。"
    },
    {
      "text": "不过古代出嫁跟现代可不同。古者诸侯一娶九女，嫡夫人及左右媵皆以侄娣从。就是说，古代诸侯娶妻一个，实际上是九个。姐姐、妹妹、侄女、丫环、姐妹的丫环都得陪嫁过去。"
    },
    {
      "text": "\"帝乙归妹\"讲得就是这样的故事。讲的是商周联姻，所以六五爻的爻辞就是\"帝乙归妹\"。"
    },
    {
      "text": "记这个卦还有一个非常形象的场景，那就是\"哭嫁\"，现在还有这样的风俗，出嫁女到亲戚面前哭，那是为了红包，只有父母的哭才真的是真心实意。"
    },
    {
      "text": "所以上卦为震，就象是送亲队伍的吹吹打打，又象是哭声震天，中间互卦为互离和互坎，离为目，坎为水，眼中有泪水，就是哭嫁的场景。"
    },
    {
      "img": "https://p3.pstatp.com/large/dfic-imagehandler/8cac4e91-f183-454c-b299-ff99e2b23f1a"
    },
    {
      "text": "为什么讲出嫁的喜事卦，卦辞却是\"征凶，无攸利\"呢？很多易学家也讲不明白，其实还是要回到刚开始的恒卦，恒卦的卦辞是：\"利有攸往\"，恒卦下卦为巽，巽即为利，所以利有攸往。"
    },
    {
      "text": "而归妹卦的下卦是兑卦，也就是巽卦的覆卦，翻掉巽卦当然是\"无攸利\"了，覆卦后，原来的爻爻相应变成了初、三爻和上卦四、六爻的相敌，当然是\""
    },
    {
      "text": "征凶\"了。卦爻辞每一字都有意义。"
    },
    {
      "text": "认字认半边，我们先来看\"睽\"字，它的半边是\"癸\"字。古代打地基是没有水平仪的，只能在地基上挖十字沟，灌水入沟，根据水平面，用眼睛来校准地基是否平整，这就是\"癸\"字的来源。"
    },
    {
      "img": "https://p3.pstatp.com/large/dfic-imagehandler/4f76f3b1-a8a5-4a44-b026-5f37bac5a917"
    },
    {
      "text": "看水平就要上下左右瞄，所以\"睽\"字加了目字旁，睽卦二爻至六爻就是相背的两个离卦，离为目，所以又有反目之意。上面离卦在互卦中只能算半个离卦，所以有闭目或半目之意。"
    },
    {
      "text": "看了《黄帝内经》的人应该知道，女子二七天癸至，天癸是什么，相信大家都知道。来了天癸表示成人，可以生育了。"
    },
    {
      "text": "睽卦上离下兑，离为中女，兑为少女，大家称之为\"二女同居\"。少女天癸至后，自然有了心事，再也不是童真浪漫的年龄，两女同居各有心事，自然是同床异梦。"
    },
    {
      "text": "离为火，火曰炎上，兑为泽，泽为润下，相背而行，各自乖离睽违。看上去不太好，但我们知道，地球绕太阳转，离心力似乎要把地球推离太阳，但是万有引力又紧紧拉住地球。表面看上去矛盾的关系，实际上又是相反相成的关系。"
    },
    {
      "text": "上离为箭矢，下兑为毁折，《系辞》上说：\"弦木为弧，剡木为矢，弧矢之利，以威天下，盖取诸睽。\""
    },
    {
      "img": "https://p3.pstatp.com/large/dfic-imagehandler/c433f4b2-5bed-4e8c-9a6d-1aecec5252e1"
    },
    {
      "text": "就是说，睽卦也是张弓搭箭之象，二至五爻，一个离卦一个半离，就是睁一只眼，闭一只眼，正是拉弓射箭之象。"
    },
    {
      "text": "按照先天圆图爻日推算，睽卦是4月21日到27日，这几天是世界法律日、世界读书日、图书和版权日、知识产权日。说明多读书才能眼观天下。"
    }
  ]
}