{
  "source": "壹圆文化",
  "detail_source": "壹圆文化",
  "screen_name": "壹圆文化",
  "avatar_url": "https://p3.pstatp.com/thumb/ff4c0000329fa7e5df8e",
  "auth_id": "1617719604580359",
  "auth_info": "建筑公司总经理 优质文化领域创作者",
  "publish_time": 1578991569,
  "title": "如何正确识记节卦、中孚卦的卦象？",
  "url": "http://toutiao.com/group/6781717150651384333/",
  "comment_count": 2,
  "is_original": true,
  "data": [
    {
      "text": "本文写阴仪最后两卦与兑卦相摩的所成两卦。一是上坎下兑的水泽节卦，二是上巽下兑风泽中孚卦。"
    },
    {
      "text": "上坎下兑，水泽节卦。先天坎在正西，后天兑也在正西，先后天合体。坎为水，兑为湖泽，说明坎、兑同物本为一家。"
    },
    {
      "img": "https://p3.pstatp.com/large/dfic-imagehandler/34a1d45a-1604-4581-89aa-fd0ffd565d77"
    },
    {
      "text": "坎在上为雨水，兑在下为水库。雨水入库就要懂得节制。汛期来临之前，水库得先放水防汛。洪水期要泄洪才能保障堤坝的安全。"
    },
    {
      "text": "内兑为悦，外坎为险，丰水当然喜悦，但要懂得节制，控制风险。到了枯水期，又得卦库以蓄水。"
    },
    {
      "text": "测定大坝水位要用标尺，也就是\"度量衡\"中的\"度\"。在长度方面，大自然中最有节律的就是竹节了。所以节卦二至五爻，有互震和反震、互艮和反艮之象。"
    },
    {
      "text": "艮为坚多节之象，震为竹子。所以节卦内有竹节之象。在古代，符节就是信物，一般人都把竹节剖成两半，一半交对方作为信物，两半竹相合则信成。"
    },
    {
      "text": "所以节卦中间一分为二就是震卦和反震之象，符节一分为二就是信物，下面讲的风泽中孚封中也是此象。"
    },
    {
      "text": "古代最厉害的应该是虎符了。虎符也一分两半，有子母扣，右符留在朝廷，左符给镇边大将，皇帝调兵就发右符。"
    },
    {
      "text": "竹子有节，甘蔗也有节，所以九五有\"甘节\"，上六有\"苦节\"之辞。"
    },
    {
      "img": "https://p3.pstatp.com/large/dfic-imagehandler/f76d9e9b-4dcd-4731-9e8b-48cb2581d1ce"
    },
    {
      "text": "天地节而四时成，节卦也有四时之象，上坎为冬，下兑为秋，互震为春，三变成离（节卦本地天泰卦三、五爻交换），离为夏天。"
    },
    {
      "text": "量物有度，量时有节，八卦对应八节，八节就是四立（立春、立夏、立秋、立冬）二至（夏至、冬至）二分（春分、秋分）。二十四节气就量完一年，在"
    },
    {
      "text": "易学上叫\"出入有度\"。"
    },
    {
      "text": "按先天圆图爻日计算，节卦在4月4日到10日间，刚好是清明节，我们都知道杜牧的诗：\"清明时节雨纷纷，路上行人欲断魂。借问酒家何处有？牧童遥指杏花村。\""
    },
    {
      "text": "清明时节，缅怀先人的悲伤情绪要克制，喝酒同样要节制。上面这首诗很容易联想到节卦。"
    },
    {
      "text": "阴仪阴退最后一卦是巽卦，上巽下兑，风泽中孚卦。"
    },
    {
      "text": "按先天圆图爻日计算，中孚卦时序为清明节气以后，风和日丽，气候宜人，正是卵生动物孵化的季节。"
    },
    {
      "text": "\"孚\"字的意象就是怀抱婴儿，\"中孚\"有至诚至真之义。你看中孚卦，外面都是阳爻，就如密封保护的卵壳，里面两阴爻，就如包裹在内的蛋白、蛋黄。"
    },
    {
      "img": "https://p3.pstatp.com/large/dfic-imagehandler/ad68c7f2-5ec6-4057-b1d3-0d70ce7b746e"
    },
    {
      "text": "上巽为木，下兑为毁折，所以动物在在孵化前要折枝、衔泥做窝，就象春天这个时节回归的燕子，家家春燕回巢，抚育下一代。所以初爻有\"有它不燕\"之辞。燕子意味着春天和爱情。"
    },
    {
      "text": "中孚卦外阳内阴，阳为暖，阴为凉。外阳暖和内阴，正是母禽抱窝以体温孵化产卵之象。"
    },
    {
      "text": "中孚卦，泽上有风，水波荡漾，水里动物也是忙着产卵，青蛙产蝌蚪四处游。最有代表性的是江豚。"
    },
    {
      "text": "晚唐许浑有句诗：\" 江豚吹浪夜还风\"。易学中有\"信及河豚\"的说法，就是讲豚鱼生泽中而性好风，向东则肯定是起东风，向西肯定是起西风，古代行船靠帆，很多船夫以河豚为候风。"
    },
    {
      "text": "中孚卦，下兑上巽，风泽之间象豚鱼，互艮为鼻。江豚经常百十头，一群一群，一浮一没，谓之拜风。拜风时，见其背而不见其鼻，鼻出于水，则风马上到。"
    },
    {
      "img": "https://p3.pstatp.com/large/dfic-imagehandler/f9fafce1-4a99-4b7e-937d-b79da1c73efd"
    },
    {
      "text": "中孚卦，讲的是生命孕育，讲的是爱情，因为卦内有震有巽，长男、长女两情相悦。当然，最后也讲到母子之情，比如爻辞：\"鸣鹤在阴，其子和之。\""
    },
    {
      "text": "上巽为木为帆，下兑为泽，互震为舟，风正一帆悬，顺风顺水，当然利涉大川。这就是卦辞\"豚鱼吉，利涉大川。\"的意义。"
    }
  ]
}